7212
7204
7196
7204
7196
7188
7188
7180
7196
7180
7172
7204
7180
7196
7188
7188
7196
7188
7180
7196
7172
7188
7188
7180
7140
7188
7188
7196
7164
7172
7180
7180
7180
7188
7156
7172
7172
7180
7164
7172
7180
7148
7172
7172
7164
7172
7189
7156
7164
7156
7164
7189
7172
7164
7164
7180
7164
7172
7140
7164
7156
7164
7189
7156
7148
7156
7172
7172
7156
7180
7132
7148
7156
7156
7156
7172
7156
7164
7156
7148
7148
7148
7140
7140
7148
7156
7164
7164
7156
7156
7172
7156
7140
7164
7148
7180
7172
7164
7156
7164
7148
7156
7140
7148
7156
7140
7148
7148
7172
7156
7156
7132
7156
7140
7173
7131
7165
7140
7140
7139
7148
7148
7140
7164
7156
7148
7140
7132
7132
7148
7148
7156
7165
7148
7148
7131
7156
7156
7148
7140
7148
7132
7172
7156
7148
7148
7164
7115
7140
7140
7140
7148
7156
7164
7132
7148
7148
7148
7156
7107
7131
7156
7164
7132
7123
7132
7140
7140
7180
7148
7132
7124
7165
7164
7140
7148
7140
7164
7148
7156
7156
7156
7164
7148
7148
7156
7156
7164
7156
7148
7164
7140
7156
7172
7156
7156
7132
7140
7148
7156
7164
7140
7140
7140
7156
7116
7148
7123
7132
7148
7156
7164
7148
7132
7132
7164
7148
7148
7140
7140
7140
7164
7148
7132
7148
7148
7156
7156
7148
7156
7148
7156
7148
7148
7148
7164
7156
7156
7148
7124
7140
7140
7156
7132
7164
7164
7124
7140
7116
7164
7148
7140
7140
7156
7148
7148
7140
7156
7148
7140
7107
7124
7139
7123
7156
7140
7140
7123
7164
7156
7148
7140
7131
7148
7164
7115
7132
7148
7132
7140
7148
7140
7140
7140
7140
7140
7148
7140
7140
7131
7148
7139
7139
7132
7156
7148
7116
7148
7140
7123
7156
7115
7148
7139
7123
7131
7140
7140
7139
7148
7131
7148
7156
7140
7148
7148
7140
7140
7123
7140
7131
7156
7139
7148
7156
7148
7131
7148
7132
7148
7140
7131
7156
7131
7148
7148
7131
7116
7131
7131
7131
7123
7148
7123
7148
7148
7132
7123
7131
7148
7140
7131
7148
7148
7148
7123
7115
7140
7139
7140
7139
7131
7140
7148
7115
7140
7148
7140
7140
7115
7132
7148
7172
7107
7140
7140
7132
7156
7140
7140
7148
7123
7148
7123
7172
7164
7140
7123
7123
7131
7148
7124
7148
7124
7140
7148
7140
7131
7132
7132
7156
7140
7124
7140
7140
7123
7124
7116
7156
7156
7148
7140
7107
7124
7148
7132
7115
7132
7132
7156
7164
7140
7115
7148
7156
7140
7156
7140
7140
7132
7140
7115
7140
7124
7148
7131
7132
7132
7156
7156
7115
7140
7132
7148
7132
7132
7140
7148
7132
7164
7131
7132
7123
7140
7132
7115
7115
7156
7156
7148
7124
7132
7140
7124
7140
7132
7148
7132
7148
7132
7123
7107
7173
7132
7156
7140
7123
7148
7148
7156
7140
7148
7131
7131
7132
7156
7148
7131
7116
7123
7131
7124
7140
7132
7131
7123
7132
7116
7132
7132
7140
7131
7115
7131
7115
7131
7140
7140
7131
7140
7148
7123
7123
7156
7131
7132
7156
7123
7123
7123
7107
7140
7148
7131
7140
7140
7131
7123
7116
7115
7139
7123
7115
7140
7148
7123
7139
7140
7107
7123
7123
7131
7123
7131
7156
7115
7123
7139
7140
7131
7140
7123
7139
7139
7131
7131
7131
7148
7123
7131
7131
7107
7123
7131
7140
7148
7131
7139
7115
7139
7131
7131
7123
7123
7115
7131
7131
7148
7131
7132
7115
7140
7131
7115
7123
7139
7131
7139
7148
7123
7131
7123
7115
7123
7131
7123
7123
7132
7123
7115
7123
7140
7123
7123
7116
7131
7140
7124
7123
7116
7139
7140
7148
7123
7132
7140
7140
7123
7099
7164
7131
7140
7148
7148
7164
7156
7131
7140
7123
7140
7123
7115
7131
7107
7148
7131
7148
7140
7123
7132
7124
7115
7124
7140
7124
7148
7139
7123
7132
7139
7156
7099
7140
7115
7131
7132
7132
7139
7131
7115
7148
7140
7132
7140
7139
7156
7140
7156
7148
7140
7115
7148
7131
7108
7124
7115
7140
7132
7148
7131
7132
7124
7140
7107
7156
7116
7156
7148
7124
7164
7107
7140
7164
7132
7116
7140
7132
7123
7124
7116
7140
7131
7131
7124
7116
7132
7156
7140
7123
7140
7148
7140
7140
7140
7132
7148
7131
7140
7131
7140
7140
7140
7148
7140
7116
7123
7123
7140
7140
7108
7132
7140
7124
7140
7115
7140
7131
7115
7140
7132
7124
7115
7116
7148
7132
7148
7139
7132
7132
7156
7131
7140
7132
7140
7123
7131
7131
7140
7140
7132
7115
7131
7131
7139
7124
7124
7131
7148
7124
7123
7140
7132
7132
7131
7148
7131
7140
7132
7139
7131
7148
7132
7140
7123
7131
7157
7123
7140
7123
7123
7140
7139
7131
7123
7131
7131
7156
7140
7115
7140
7115
7115
7131
7139
7148
7131
7131
7123
7099
7123
7131
7139
7131
7156
7131
7131
7148
7131
7123
7140
7131
7131
7131
7148
7131
7131
7131
7139
7148
7115
7148
7131
7131
7123
7148
7139
7140
7131
7139
7140
7131
7115
7123
7131
7123
7131
7131
7115
7139
7131
7131
7139
7123
7123
7123
7123
7139
7123
7131
7115
7140
7123
7123
7123
7115
7131
7131
7140
7123
7131
7131
7123
7123
7123
7131
7131
7115
7123
7131
7115
7107
7123
7099
7140
7132
7123
7139
7131
7123
7131
7131
7139
7139
7123
7148
7099
7148
7123
7132
7123
7107
7131
7131
7140
7139
7107
7139
7123
7131
7115
7131
7131
7140
7107
7140
7164
7123
7139
7115
7131
7132
7131
7123
7115
7132
7115
7131
7140
7140
7140
7115
7123
7156
7115
7140
7123
7124
7123
7148
7139
7140
7115
7140
7123
7123
7132
7139
7123
7131
7148
7123
7132
7148
7140
7124
7131
7131
7132
7156
7140
7140
7124
7115
7132
7115
7140
7148
7148
7132
7131
7115
7099
7123
7132
7107
7156
7140
7132
7148
7139
7099
7148
7156
7123
7132
7123
7131
7131
7140
7131
7124
7132
7132
7148
7099
7148
7123
7115
7140
7140
