7156
7164
7164
7156
7156
7148
7156
7164
7132
7132
7156
7164
7148
7156
7140
7132
7156
7140
7148
7140
7140
7148
7140
7140
7148
7148
7148
7156
7132
7131
7132
7115
7140
7172
7140
7131
7132
7148
7123
7131
7148
7131
7148
7132
7115
7115
7124
7124
7140
7124
7124
7140
7148
7107
7115
7140
7148
7131
7099
7140
7132
7148
7131
7140
7124
7131
7131
7140
7123
7123
7148
7107
7148
7132
7115
7131
7140
7116
7115
7139
7140
7132
7115
7115
7115
7131
7123
7131
7123
7091
7107
7115
7140
7139
7123
7123
7140
7115
7115
7115
7115
7139
7123
7123
7123
7107
7115
7115
7131
7123
7107
7107
7115
7115
7115
7107
7115
7115
7107
7107
7099
7099
7131
7123
7099
7123
7107
7107
7123
7123
7131
7115
7123
7139
7107
7115
7099
7115
7115
7099
7123
7115
7115
7139
7115
7115
7091
7115
7115
7123
7115
7115
7099
7099
7091
7123
7131
7115
7115
7115
7107
7115
7115
7099
7107
7115
7123
7115
7131
7115
7107
7131
7115
7123
7107
7091
7115
7107
7107
7123
7115
7107
7123
7115
7107
7099
7123
7131
7115
7115
7123
7115
7099
7123
7131
7091
7115
7131
7115
7099
7107
7131
7099
7099
7107
7132
7115
7139
7099
7123
7115
7123
7107
7107
7115
7107
7123
7123
7123
7099
7107
7107
7123
7107
7115
7099
7115
7123
7091
7083
7107
7075
7115
7107
7091
7099
7099
7107
7107
7107
7115
7115
7115
7099
7099
7123
7099
7099
7115
7091
7115
7115
7115
7091
7123
7115
7107
7139
7131
7091
7083
7123
7107
7091
7107
7115
7099
7099
7099
7123
7123
7107
7107
7107
7115
7099
7091
7107
7107
7115
7099
7107
7115
7099
7091
7083
7091
7123
7107
7099
7107
7115
7091
7115
7099
7115
7099
7099
7107
7115
7099
7115
7091
7124
7107
7115
7091
7107
7107
7115
7115
7115
7107
7107
7099
7091
7083
7107
7123
7123
7099
7107
7107
7099
7083
7091
7107
7115
7107
7091
7115
7107
7091
7099
7091
7099
7116
7099
7107
7123
7116
7115
7107
7099
7107
7083
7107
7123
7091
7115
7099
7107
7107
7099
7099
7123
7115
7083
7099
7083
7115
7115
7091
7107
7132
7123
7107
7107
7115
7083
7099
7099
7099
7099
7107
7123
7115
7099
7091
7107
7123
7115
7107
7115
7099
7107
7083
7107
7107
7107
7099
7091
7091
7115
7107
7115
7123
7115
7099
7099
7115
7099
7107
7099
7107
7099
7099
7091
7115
7107
7091
7115
7131
7107
7107
7091
7115
7091
7107
7107
7099
7115
7099
7115
7099
7115
7107
7107
7131
7099
7123
7107
7123
7115
7083
7099
7132
7107
7115
7115
7124
7115
7099
7115
7099
7107
7091
7099
7099
7115
7115
7107
7091
7099
7115
7131
7067
7107
7115
7107
7107
7115
7107
7131
7107
7107
7091
7099
7115
7123
7131
7091
7091
7083
7099
7123
7131
7107
7099
7091
7107
7123
7083
7131
7099
7115
7099
7083
7107
7115
7083
7099
7099
7091
7123
7107
7107
7107
7091
7123
7115
7123
7107
7083
7091
7115
7123
7123
7107
7107
7091
7107
7115
7099
7099
7091
7123
7115
7107
7091
7091
7107
7091
7091
7083
7099
7099
7107
7123
7083
7091
7091
7099
7107
7091
7099
7091
7099
7107
7083
7099
7115
7091
7107
7083
7099
7115
7091
7107
7107
7083
7115
7123
7115
7107
7099
7107
7091
7091
7043
7115
7115
7099
7099
7099
7107
7107
7099
7115
7107
7123
7107
7107
7107
7099
7083
7099
7115
7099
7115
7083
7099
7115
7075
7107
7091
7099
7107
7115
7107
7107
7099
7107
7099
7083
7115
7115
7115
7115
7075
7107
7131
7099
7123
7107
7091
7099
7107
7107
7083
7107
7099
7107
7115
7131
7107
7091
7099
7107
7115
7107
7099
7099
7091
7099
7124
7099
7091
7115
7115
7107
7091
7091
7091
7115
7107
7115
7107
7107
7115
7107
7107
7099
7099
7091
7091
7099
7091
7091
7091
7099
7131
7091
7115
7115
7123
7107
7107
7123
7107
7107
7107
7083
7091
7083
7107
7091
7099
7107
7083
7075
7099
7107
7099
7083
7099
7115
7099
7067
7107
7091
7099
7099
7107
7107
7099
7107
7099
7107
7107
7107
7107
7115
7131
7099
7099
7083
7107
7123
7107
7139
7107
7099
7107
7107
7107
7107
7107
7107
7091
7107
7107
7107
7099
7115
7107
7091
7107
7107
7107
7091
7115
7083
7099
7051
7115
7091
7099
7123
7075
7107
7099
7091
7107
7107
7083
7107
7115
7099
7091
7091
7083
7131
7099
7107
7099
7083
7107
7115
7123
7091
7083
7107
7083
7123
7099
7099
7099
7107
7083
7107
7107
7099
7099
7099
7115
7091
7107
7107
7099
7115
7099
7107
7115
7099
7091
7067
7107
7099
7099
7115
7083
7083
7091
7091
7115
7123
7083
7107
7091
7075
7107
7107
7099
7099
7099
7107
7139
7115
7075
7083
7091
7099
7107
7099
7091
7091
7107
7075
7099
7099
7123
7091
7107
7083
7123
7099
7075
7083
7099
7099
7091
7123
7091
7115
7091
7099
7099
7083
7107
7099
7091
7115
7075
7091
7083
7083
7083
7091
7099
7075
7107
7099
7099
7091
7099
7067
7067
7091
7083
7099
7107
7107
7107
7099
7107
7083
7091
7099
7107
7091
7107
7091
7091
7075
7075
7083
7099
7115
7099
7099
7115
7099
7107
7083
7091
7083
7091
7083
7083
7099
7083
7091
7067
7091
7107
7091
7091
7091
7083
7091
7091
7107
7107
7091
7123
7115
7091
7091
7115
7123
7099
7099
7115
7099
7107
7083
7115
7075
7107
7083
7099
7091
7099
7075
7107
7099
7091
7075
7107
7083
7083
7083
7099
7083
7099
7099
7099
7115
7115
7099
7091
7107
7059
7091
7091
7107
7115
7083
7115
7115
7107
7099
7107
7107
7123
7099
7099
7115
7107
7099
7083
7091
7083
7075
7083
7099
7083
7083
7083
7115
7091
7091
7075
7099
7107
7115
7091
7107
7083
7099
7091
7115
7091
7075
7099
7083
7075
7091
7075
7083
7075
7099
7083
7099
7083
7115
7099
7091
7108
7067
7083
7083
7107
7107
7099
7123
7123
7115
7115
