15964
15956
15948
15948
15956
15939
15931
15923
15939
15939
15931
15940
15923
15931
15923
15907
15915
15923
15923
15915
15915
15915
15923
15899
15899
15907
15891
15907
15891
15907
15899
15907
15899
15899
15891
15899
15899
15899
15859
15899
15891
15891
15883
15891
15875
15899
15883
15899
15891
15883
15875
15899
15891
15883
15891
15875
15891
15867
15891
15859
15875
15883
15867
15875
15891
15875
15875
15883
15883
15859
15891
15867
15867
15875
15875
15891
15867
15875
15867
15875
15875
15859
15859
15867
15867
15875
15875
15891
15883
15867
15867
15859
15867
15867
15859
15875
15867
15851
15859
15875
15859
15867
15883
15867
15859
15875
15859
15867
15859
15859
15851
15867
15867
15875
15859
15907
15867
15867
15859
15859
15851
15851
15827
15859
15851
15883
15867
15867
15851
15859
15867
15859
15859
15859
15859
15867
15859
15859
15875
15843
15867
15867
15859
15859
15859
15851
15859
15867
15867
15851
15875
15867
15843
15843
15851
15843
15851
15843
15843
15851
15851
15843
15843
15851
15859
15859
15859
15843
15843
15851
15835
15859
15851
15859
15843
15851
15867
15843
15827
15851
15843
15843
15867
15827
15843
15843
15835
15835
15827
15859
15835
15843
15835
15843
15859
15851
15851
15859
15843
15843
15851
15835
15835
15851
15843
15843
15835
15843
15851
15843
15843
15843
15827
15843
15859
15843
15827
15851
15860
15803
15827
15835
15819
15835
15859
15835
15851
15835
15835
15835
15827
15843
15835
15851
15835
15851
15835
15835
15827
15827
15835
15835
15835
15867
15835
15843
15835
15843
15835
15843
15835
15843
15835
15827
15819
15851
15843
15835
15835
15835
15827
15843
15827
15843
15827
15827
15827
15843
15827
15851
15827
15827
15835
15836
15835
15843
15835
15851
15843
15835
15835
15843
15843
15851
15835
15827
15835
15819
15843
15827
15843
15835
15835
15827
15819
15827
15803
15827
15835
15827
15811
15835
15827
15811
15843
15827
15835
15827
15843
15835
15835
15835
15835
15835
15843
15827
15827
15819
15835
15835
15827
15851
15803
15835
15835
15827
15835
15835
15819
15835
15827
15819
15843
15819
15835
15835
15811
15819
15827
15827
15803
15819
15835
15827
15843
15819
15843
15835
15827
15795
15819
15835
15827
15819
15827
15803
15843
15811
15827
15835
15827
15835
15827
15835
15819
15827
15827
15835
15811
15819
15835
15835
15803
15819
15819
15819
15819
15819
15851
15827
15827
15835
15827
15827
15811
15827
15811
15827
15843
15827
15811
15827
15811
15835
15819
15778
15843
15827
15827
15835
15835
15835
15843
15827
15827
15827
15827
15819
15819
15827
15827
15843
15827
15843
15827
15827
15811
15819
15811
15819
15819
15827
15835
15811
15819
15827
15803
15811
15819
15835
15827
15819
15811
15827
15827
15811
15819
15819
15819
15819
15803
15835
15819
15844
15819
15827
15835
15827
15819
15835
15835
15835
15803
15819
15835
15819
15819
15827
15819
15827
15819
15811
15827
15811
15811
15811
15819
15819
15819
15819
15852
15827
15795
15827
15819
15819
15835
15819
15811
15827
15811
15819
15827
15835
15811
15819
15827
15835
15835
15827
15819
15819
15827
15819
15811
15827
15827
15835
15835
15827
15819
15819
15811
15803
15836
15827
15827
15835
15819
15835
15811
15827
15827
15827
15819
15827
15835
15811
15819
15835
15811
15827
15819
15795
15827
15811
15835
15819
15819
15819
15827
15811
15819
15803
15819
15803
15819
15811
15835
15827
15835
15819
15811
15819
15803
15811
15843
15819
15819
15819
15811
15803
15827
15843
15803
15835
15827
15827
15835
15819
15827
15835
15811
15835
15819
15811
15827
15827
15819
15811
15819
15811
15827
15819
15827
15819
15819
15819
15803
15811
15819
15819
15811
15819
15819
15827
15819
15811
15827
15827
15827
15827
15819
15819
15811
15819
15787
15819
15795
15811
15835
15811
15819
15803
15827
15795
15819
15811
15819
15795
15819
15835
15827
15811
15811
15827
15795
15819
15819
15803
15803
15811
15787
15811
15811
15795
15803
15811
15828
15803
15819
15803
15803
15811
15827
15819
15811
15803
15819
15811
15811
15827
15795
15811
15819
15811
15811
15827
15811
15795
15827
15811
15811
15811
15811
15811
15811
15819
15794
15779
15811
15811
15819
15827
15811
15803
15827
15803
15803
15803
15811
15827
15819
15811
15819
15803
15811
15811
15795
15819
15803
15803
15820
15803
15803
15819
15819
15819
15819
15827
15811
15819
15827
15811
15803
15811
15811
15819
15811
15811
15819
15828
15803
15819
15827
15819
15803
15811
15819
15819
15827
15819
15803
15819
15803
15811
15827
15819
15827
15819
15803
15811
15811
15803
15827
15811
15827
15795
15819
15835
15819
15827
15819
15811
15811
15811
15827
15803
15827
15803
15811
15819
15827
15819
15819
15803
15819
15803
15819
15803
15827
15811
15811
15819
15819
15811
15803
15819
15819
15811
15811
15819
15827
15803
15811
15811
15819
15811
15803
15811
15827
15835
15811
15803
15803
15819
15811
15819
15803
15811
15803
15803
15811
15811
15819
15819
15811
15819
15811
15803
15811
15811
15811
15835
15827
15827
15819
15811
15803
15843
15819
15803
15819
15811
15787
15803
15811
15803
15811
15819
15794
15811
15819
15819
15803
15819
15811
15811
15811
15811
15811
15811
15795
15811
15811
15803
15811
15811
15811
15803
15811
15802
15875
15803
15811
15754
15803
15811
15794
15819
15811
15819
15794
15827
15803
15811
15811
15819
15827
15802
15811
15802
15803
15803
15811
15811
15794
15811
15803
15794
15803
15811
15811
15811
15811
15811
15811
15803
15803
15794
15795
15819
15811
15811
15819
15811
15803
15811
15803
15819
15819
15827
15819
15811
15795
15802
15811
15803
15827
15819
15794
15827
15819
15795
15819
15827
15827
15811
15819
15819
15803
15795
15811
15795
15811
15811
15819
15811
15811
15811
15795
15795
15811
15819
15819
15803
15803
15819
15803
15803
15811
15795
15827
15803
15795
15787
15803
15811
15819
15778
15835
15819
15795
15803
15827
15779
15835
15811
15803
15787
15819
15795
15803
15811
15803
15811
15811
15819
15811
15811
15827
15794
15819
15819
15802
15803
15787
15819
15803
15795
15803
15795
15803
15803
15819
15811
15795
15803
15827
15811
15803
15827
15795
15811
15819
15811
15803
15819
15811
15819
15811
15819
15803
15811
15811
15795
15803
15819
15819
15795
15803
15803
15811
15795
15819
15803
15803
15819
15787
15811
