7027
7019
7035
7019
7027
7035
7019
7003
7027
7027
7003
7011
6995
7027
7019
7019
7019
7011
7011
7011
7011
7019
7019
7035
7011
7019
7027
7035
6987
7019
6979
7019
7003
7019
7003
7011
7019
7011
7011
7003
7011
7011
7011
7003
7027
6995
7011
7011
7011
7011
6994
7019
7019
7011
7019
7003
6986
6986
7019
7019
7011
7011
7019
7011
6994
7019
7027
6995
6986
7019
6995
7011
6994
7019
7003
6994
7011
7003
6995
6986
7003
7002
7003
7003
6986
7019
7002
7011
7019
6994
7003
7011
7011
6995
7011
7003
7011
7011
7003
6994
7019
7003
6994
6994
7011
7011
7003
6994
7002
7019
7003
6986
7011
6995
7003
6994
7011
7011
6986
7002
7003
6994
7002
7011
7011
7003
7003
6986
7011
7002
6994
7011
7019
7019
6978
6978
7003
7011
7002
6995
6995
6978
7019
7003
7027
7003
7011
6994
7011
7019
6987
7003
7011
7011
6995
7003
6987
6995
7019
7019
7011
7019
7011
7003
6995
6995
7003
6994
7011
7011
7011
7011
7011
6995
7011
7011
7011
7003
7115
7011
7019
7027
7011
7019
7011
7027
7003
7003
7011
6995
7011
6995
7003
7003
7019
7019
7003
7003
7003
7011
6987
7019
7003
6995
6987
7003
7011
7003
7011
6979
7019
7019
6995
7019
7011
7011
7003
7003
7019
7003
7003
7003
7019
6986
7011
7019
7019
7019
7011
7019
7003
7027
7011
6986
7019
7003
7003
7003
7019
7011
7003
7003
7003
7019
7011
6995
7019
7011
7011
7019
7003
7011
7019
7011
7003
7011
7011
7011
7011
7011
7019
7019
7019
7003
7011
7011
6986
7019
7011
7002
7003
7027
7019
6994
6995
7011
7011
7011
7011
7020
6995
6995
7003
7003
7019
7002
7011
7002
7003
7011
6994
7019
7011
7002
6994
6995
7019
7003
7003
7011
7011
7002
7011
7003
7011
7020
7011
7019
7011
7011
7003
7011
6995
7019
7002
7011
7028
7003
7011
7019
7011
7011
7011
7019
7011
7011
7003
7019
7003
7019
7003
7019
7019
7019
7019
7011
7011
7011
6994
7011
7003
7019
7003
6995
6995
7011
7019
7011
7011
7019
7019
7003
7003
6995
7019
7003
6995
7003
7003
7011
7003
7011
7027
7011
7003
7011
7003
7011
7003
7035
7003
7027
6995
7003
7011
7003
6987
7011
7011
7003
7003
7003
7003
7011
7011
7011
7003
7003
7027
7011
7011
7019
7003
7003
7043
7003
7011
7027
7003
7019
7011
7011
7011
6978
7011
7027
7011
7027
7019
7003
7027
7019
7019
7027
6995
7011
7011
7019
7027
7003
6987
6995
7019
7019
7003
7011
7019
6994
7011
7003
7027
7011
7027
7011
7027
6995
7011
7019
6979
7003
7011
7003
7002
7011
7011
7011
7011
7011
7003
7003
7002
7027
7011
7011
7019
7019
7003
7003
6986
7019
7020
7011
7011
7003
7011
7003
7027
7019
6994
7011
7011
7011
7011
7011
6994
6995
7011
7019
7011
7003
7011
7011
7011
7019
7003
6986
6995
7011
7003
7011
7011
7011
7003
7011
7019
7035
6994
7003
6995
7003
6987
7011
7003
7003
7019
6995
6995
7011
7011
7003
7019
7011
7011
7075
6971
7003
7003
7019
7011
7027
7019
7003
6995
7019
6995
7019
7003
7019
7027
7003
7011
7027
7019
7027
6995
7011
7027
7011
7019
7019
7019
7019
7011
7019
7027
7003
7003
7019
7003
7011
7003
7003
7019
7019
7003
7027
7003
7003
7019
7027
7003
7003
7011
7035
7027
7027
7043
7019
7019
7011
7019
7011
7003
7019
7011
7019
7003
7011
7003
6987
7019
6995
7019
7003
7019
7011
7003
7027
7011
7019
6979
7011
7019
6995
7003
6978
7011
7011
7003
7019
7019
7011
7003
7035
7027
7003
7003
7011
7011
7003
7011
6994
6978
7019
6994
7011
7019
7002
6987
7002
7019
7003
7019
7027
6995
7019
7019
7011
7011
7019
7003
7019
6987
7019
7019
7011
6995
7011
7003
7027
7003
7003
7011
7003
7027
7019
7011
7027
7003
7002
6986
7019
6986
7019
7011
7019
7011
7011
7003
6995
7003
7011
7019
7019
7011
6986
7019
7027
6994
7011
7027
7011
7011
7003
7003
7011
7003
6979
7011
7003
6987
6994
7003
7011
6995
7011
7003
7019
7011
7011
7003
7019
7011
7027
7019
7011
7011
7027
7011
7011
7019
7035
7027
7011
7003
7011
7011
7043
7027
7019
6995
7027
7027
7019
7003
7003
6995
7019
6995
7003
7027
7011
7011
7027
7027
7003
7035
7003
7011
7003
7027
7019
7019
7011
7011
7019
7027
7011
7011
7019
7019
7019
7027
7011
7019
7011
7027
7011
7003
7035
7011
7011
7011
6995
7003
7019
7011
7011
7019
7011
7027
7003
7011
7011
7011
7027
7027
7011
7003
7019
7027
7003
7011
7019
7019
6995
7027
7003
7003
7003
7011
7011
7027
7003
7011
7019
7011
7011
7019
7027
7003
7020
6995
7011
7028
7003
7019
7003
7011
7011
7003
7019
7003
7003
6986
7019
7003
7003
7011
7011
6995
6994
7011
7011
6995
7020
7011
7011
7011
7003
7019
7003
7011
7027
7019
7011
7011
7003
7035
7011
7019
7019
7003
7011
6995
6994
7011
7019
7002
7027
7011
7003
7019
7011
6995
7011
7019
6995
7003
7011
7019
7035
7003
7027
7019
6986
7011
7011
7011
7019
6995
7019
7019
7003
7019
7011
7011
7027
7011
6995
7019
7019
7027
7019
7011
6987
7011
7011
7019
6995
7011
7011
7011
7011
6995
7011
7011
7011
7019
7011
7011
7035
7003
7011
7011
7035
7019
7019
7011
7011
7019
7027
6987
7011
7003
6995
7027
7003
7027
7011
7027
7019
7003
7035
7019
7019
7019
7027
7011
7019
7035
7011
7011
7019
7011
7027
7003
7035
7011
7027
6994
7019
7011
7011
7019
7011
7011
7019
7027
7003
7019
7011
7019
6995
7019
7003
7011
7019
7003
7003
7003
7019
7019
7003
6995
7011
7011
7003
7027
7011
7011
7019
7003
7011
6995
7019
7011
7019
6995
7011
7019
7003
7011
7035
7011
7019
7027
7019
7011
7027
7003
7011
7011
7019
7003
7011
7027
6995
7003
7019
7019
7019
7011
7011
7011
7003
7027
6995
7019
6986
