7276
7268
7260
7252
7244
7269
7252
7252
7252
7252
7244
7236
7244
7252
7244
7244
7244
7244
7220
7260
7236
7252
7252
7252
7244
7220
7252
7252
7236
7228
7252
7228
7228
7236
7228
7228
7244
7236
7245
7228
7244
7236
7220
7236
7245
7228
7228
7228
7220
7220
7220
7204
7236
7228
7252
7228
7228
7244
7220
7228
7220
7212
7236
7228
7228
7228
7244
7212
7212
7244
7228
7244
7212
7220
7212
7220
7196
7244
7244
7204
7204
7220
7212
7228
7212
7252
7228
7236
7212
7220
7244
7236
7236
7228
7228
7228
7228
7228
7228
7252
7220
7204
7212
7204
7228
7220
7212
7228
7212
7228
7212
7220
7204
7220
7228
7228
7212
7212
7212
7204
7212
7236
7220
7244
7212
7212
7204
7220
7228
7220
7204
7220
7196
7236
7212
7236
7204
7220
7204
7204
7212
7148
7236
7204
7228
7212
7204
7228
7212
7228
7196
7212
7228
7228
7196
7228
7212
7212
7212
7212
7220
7212
7204
7212
7220
7220
7220
7204
7204
7220
7212
7212
7220
7204
7188
7212
7236
7220
7220
7220
7204
7204
7204
7204
7188
7204
7220
7212
7220
7220
7180
7212
7196
7220
7204
7196
7212
7204
7196
7244
7220
7220
7212
7204
7220
7204
7228
7220
7204
7220
7196
7212
7220
7212
7220
7212
7212
7220
7212
7212
7212
7212
7212
7204
7204
7220
7204
7212
7228
7196
7228
7220
7180
7212
7204
7212
7188
7212
7196
7204
7220
7212
7204
7204
7212
7252
7220
7212
7212
7220
7212
7220
7204
7212
7204
7196
7220
7212
7220
7204
7204
7220
7212
7204
7212
7212
7204
7196
7220
7196
7180
7221
7212
7204
7196
7204
7212
7196
7204
7196
7164
7220
7188
7212
7172
7204
7212
7188
7188
7204
7196
7212
7196
7204
7220
7204
7212
7228
7196
7196
7196
7196
7204
7196
7196
7212
7204
7212
7204
7204
7196
7196
7212
7196
7204
7212
7204
7188
7196
7196
7196
7188
7196
7220
7196
7204
7204
7204
7196
7196
7196
7188
7212
7196
7196
7204
7196
7180
7196
7204
7196
7196
7196
7196
7212
7196
7220
7196
7204
7212
7220
7212
7204
7196
7212
7188
7220
7204
7188
7196
7196
7196
7228
7212
7196
7196
7204
7204
7212
7212
7204
7196
7204
7204
7204
7204
7196
7212
7196
7212
7188
7212
7196
7204
7196
7188
7180
7188
7180
7188
7188
7196
7204
7196
7196
7196
7212
7196
7188
7196
7180
7212
7196
7212
7220
7204
7204
7196
7212
7188
7196
7204
7204
7204
7204
7212
7204
7188
7188
7188
7188
7180
7196
7212
7196
7212
7204
7180
7204
7204
7188
7204
7204
7212
7188
7204
7204
7196
7204
7196
7180
7212
7196
7196
7196
7196
7188
7196
7188
7196
7212
7196
7212
7220
7196
7196
7220
7212
7204
7204
7204
7204
7212
7220
7204
7204
7188
7188
7180
7204
7212
7196
7204
7212
7188
7196
7204
7196
7196
7196
7204
7196
7204
7196
7204
7220
7196
7204
7204
7196
7196
7196
7188
7188
7188
7196
7188
7180
7212
7188
7220
7188
7204
7204
7196
7196
7196
7188
7196
7196
7188
7172
7188
7204
7196
7196
7196
7204
7196
7204
7204
7204
7204
7204
7188
7212
7188
7196
7188
7188
7196
7188
7196
7188
7204
7172
7212
7212
7196
7196
7196
7196
7204
7188
7196
7196
7204
7180
7212
7188
7196
7188
7172
7172
7188
7196
7204
7228
7180
7213
7196
7204
7188
7188
7204
7180
7180
7220
7188
7180
7204
7172
7188
7188
7204
7204
7204
7188
7196
7180
7196
7180
7204
7180
7220
7196
7196
7180
7180
7164
7188
7196
7204
7172
7196
7196
7188
7196
7188
7180
7204
7212
7188
7180
7180
7188
7196
7180
7204
7204
7188
7196
7172
7188
7196
7212
7180
7196
7204
7196
7180
7180
7188
7196
7196
7164
7188
7188
7180
7180
7196
7180
7213
7180
7204
7204
7196
7196
7180
7188
7196
7180
7204
7188
7221
7196
7188
7213
7188
7204
7172
7188
7196
7205
7196
7188
7164
7196
7180
7180
7180
7204
7196
7196
7180
7188
7188
7180
7196
7188
7172
7180
7188
7204
7188
7188
7180
7180
7188
7220
7188
7196
7188
7204
7204
7204
7180
7196
7196
7172
7180
7188
7204
7172
7212
7180
7212
7204
7188
7180
7204
7188
7204
7204
7188
7172
7188
7196
7188
7172
7220
7196
7164
7212
7196
7204
7204
7188
7204
7204
7180
7188
7196
7180
7188
7212
7172
7172
7196
7212
7188
7196
7164
7188
7188
7180
7180
7212
7180
7180
7188
7204
7204
7204
7204
7196
7188
7180
7188
7180
7180
7188
7188
7212
7196
7188
7180
7196
7180
7196
7212
7212
7196
7180
7164
7196
7180
7172
7188
7204
7196
7188
7180
7188
7196
7180
7188
7196
7188
7180
7196
7196
7188
7196
7196
7212
7188
7204
7204
7196
7212
7188
7180
7196
7196
7204
7204
7196
7196
7188
7196
7172
7180
7196
7172
7188
7172
7204
7204
7188
7188
7164
7188
7196
7180
7221
7212
7180
7204
7188
7188
7188
7188
7188
7188
7172
7172
7196
7196
7196
7188
7188
7196
7205
7213
7180
7204
7180
7212
7180
7212
7188
7196
7188
7172
7196
7204
7188
7172
7180
7204
7204
7196
7212
7188
7172
7196
7188
7188
7188
7196
7188
7188
7196
7196
7204
7196
7188
7180
7180
7188
7196
7180
7204
7204
7180
7204
7180
7196
7188
7188
7172
7196
7204
7204
7188
7196
7180
7188
7180
7196
7188
7188
7164
7196
7196
7188
7188
7204
7180
7180
7188
7188
7196
7188
7188
7180
7172
7172
7204
7188
7196
7188
7188
7180
7172
7196
7189
7188
7196
7196
7212
7172
7180
7180
7180
7172
7180
7196
7180
7188
7180
7204
7196
7180
7180
7180
7180
7196
7172
7180
7188
7156
7188
7180
7212
7148
7196
7188
7164
7196
7180
7196
7204
7196
7196
7180
7164
7180
7180
7197
7196
7188
7204
7172
7188
7188
7164
7180
7196
7196
7188
7196
7204
7164
7188
7196
7180
7180
7204
7196
7196
7180
7188
7188
7180
7172
7204
7196
7180
7196
7188
7164
7164
7204
7196
7180
7188
7188
7172
