8429
8413
8405
8421
8421
8397
8389
8413
8405
8413
8397
8397
8405
8405
8397
8413
8381
8405
8397
8421
8397
8357
8389
8397
8397
8381
8373
8389
8365
8381
8397
8373
8381
8397
8397
8381
8381
8397
8381
8381
8373
8381
8397
8381
8381
8373
8389
8381
8405
8397
8381
8397
8389
8357
8365
8381
8357
8381
8373
8373
8365
8381
8381
8389
8381
8381
8357
8372
8349
8381
8381
8373
8389
8372
8365
8348
8356
8389
8372
8381
8389
8373
8373
8364
8381
8381
8381
8373
8364
8372
8373
8373
8364
8364
8364
8356
8373
8340
8373
8373
8365
8348
8348
8373
8381
8356
8348
8356
8364
8348
8364
8356
8364
8364
8372
8364
8364
8356
8364
8364
8381
8364
8356
8364
8356
8364
8364
8348
8364
8381
8364
8364
8356
8348
8348
8340
8356
8364
8340
8381
8356
8356
8364
8356
8356
8356
8364
8364
8348
8364
8356
8364
8372
8356
8381
8364
8356
8364
8372
8356
8356
8356
8364
8364
8372
8372
8381
8356
8364
8348
8348
8356
8373
8348
8356
8340
8364
8340
8381
8356
8364
8340
8348
8348
8364
8356
8356
8364
8372
8364
8373
8364
8348
8356
8372
8364
8364
8340
8364
8364
8364
8365
8340
8340
8356
8348
8340
8332
8348
8324
8332
8348
8364
8356
8372
8381
8340
8340
8356
8356
8373
8365
8348
8372
8364
8373
8356
8356
8348
8356
8348
8348
8356
8340
8349
8340
8356
8340
8356
8365
8348
8356
8381
8356
8364
8348
8348
8364
8348
8348
8364
8373
8348
8340
8340
8332
8356
8348
8364
8340
8348
8356
8356
8348
8340
8364
8356
8356
8372
8348
8340
8340
8340
8364
8348
8356
8356
8356
8348
8348
8364
8364
8356
8340
8364
8373
8356
8340
8348
8348
8332
8348
8356
8348
8348
8356
8348
8348
8348
8356
8356
8332
8372
8340
8340
8316
8356
8348
8364
8356
8340
8300
8348
8332
8332
8372
8348
8348
8348
8340
8356
8348
8340
8348
8340
8356
8332
8340
8340
8348
8340
8324
8348
8340
8332
8332
8348
8340
8348
8340
8356
8356
8348
8332
8348
8356
8357
8348
8340
8340
8364
8348
8348
8340
8356
8356
8324
8356
8348
8348
8340
8332
8364
8348
8356
8356
8340
8356
8356
8356
8340
8348
8340
8340
8332
8340
8348
8348
8324
8308
8348
8348
8340
8340
8324
8348
8356
8324
8340
8340
8332
8364
8340
8340
8348
8332
8364
8356
8349
8332
8332
8348
8348
8348
8332
8340
8324
8348
8340
8348
8332
8332
8348
8348
8332
8316
8340
8348
8340
8356
8340
8332
8348
8348
8348
8356
8340
8340
8356
8348
8340
8340
8381
8356
8348
8340
8332
8332
8356
8364
8340
8348
8340
8340
8316
8332
8348
8348
8356
8308
8332
8332
8324
8340
8348
8332
8356
8348
8356
8340
8332
8340
8332
8340
8332
8340
8324
8356
8324
8340
8340
8364
8340
8332
8348
8332
8348
8348
8324
8340
8348
8340
8340
8348
8332
8357
8340
8332
8332
8340
8348
8348
8332
8340
8340
8364
8340
8348
8348
8340
8348
8340
8348
8364
8340
8348
8348
8348
8356
8356
8356
8348
8348
8332
8348
8316
8340
8308
8340
8348
8324
8332
8348
8332
8348
8340
8356
8348
8332
8356
8340
8348
8332
8340
8348
8332
8340
8324
8332
8340
8364
8340
8332
8340
8340
8324
8324
8348
8340
8332
8356
8348
8356
8348
8332
8332
8324
8332
8332
8364
8332
8340
8332
8324
8324
8348
8324
8340
8364
8340
8348
8348
8356
8340
8356
8332
8340
8316
8332
8332
8340
8348
8364
8348
8340
8348
8332
8348
8308
8340
8364
8340
8324
8316
8340
8340
8348
8332
8356
8332
8356
8340
8340
8332
8332
8340
8332
8316
8332
8348
8332
8340
8340
8332
8332
8348
8332
8332
8340
8340
8324
8332
8348
8332
8349
8340
8348
8348
8332
8356
8324
8332
8340
8348
8332
8340
8348
8348
8332
8364
8340
8348
8348
8356
8340
8340
8364
8356
8340
8324
8340
8340
8324
8365
8324
8364
8332
8356
8332
8332
8364
8348
8340
8340
8356
8348
8332
8348
8340
8340
8340
8324
8340
8332
8340
8332
8340
8324
8348
8324
8332
8356
8356
8332
8348
8332
8340
8316
8340
8348
8348
8356
8348
8356
8332
8364
8324
8340
8356
8332
8348
8332
8340
8332
8324
8340
8324
8324
8332
8340
8324
8348
8340
8356
8356
8348
8340
8348
8324
8348
8340
8348
8332
8332
8308
8348
8348
8340
8348
8340
8348
8300
8340
8340
8348
8340
8332
8348
8340
8340
8340
8340
8356
8340
8340
8340
8332
8340
8340
8332
8316
8332
8332
8348
8356
8340
8316
8332
8332
8340
8348
8332
8348
8332
8348
8332
8340
8348
8340
8340
8356
8348
8348
8341
8348
8332
8340
8340
8332
8324
8324
8356
8324
8348
8348
8340
8340
8324
8332
8332
8332
8340
8340
8340
8340
8340
8340
8340
8340
8324
8340
8340
8340
8340
8332
8332
8332
8340
8324
8340
8348
8316
8316
8340
8340
8348
8332
8332
8340
8332
8332
8332
8324
8332
8348
8356
8316
8332
8332
8356
8340
8340
8341
8340
8332
8332
8332
8332
8332
8332
8324
8348
8324
8332
8324
8333
8332
8332
8340
8316
8340
8324
8332
8348
8308
8340
8340
8340
8349
8324
8340
8332
8348
8332
8340
8340
8348
8332
8332
8340
8332
8348
8340
8332
8348
8332
8332
8316
8332
8340
8340
8324
8340
8324
8348
8324
8332
8340
8340
8324
8332
8332
8332
8348
8324
8340
8348
8356
8356
8340
8324
8340
8348
8340
8332
8348
8340
8340
8348
8324
8332
8373
8324
8324
8340
8340
8324
8324
8348
8340
8332
8340
8332
8372
8324
8324
8340
8332
8340
8348
8348
8332
8324
8332
8340
8340
8340
8348
8332
8340
8332
8340
8340
8340
8324
8316
8340
8324
8324
8340
8348
8340
8332
8348
8332
8332
8316
8316
8340
8324
8324
8348
8340
8340
8300
8332
8324
8332
8340
8324
8340
8340
8332
8356
8324
8348
8332
8340
8316
8340
8324
8332
8340
8340
8324
8340
8324
8332
8324
8308
8324
8308
8324
8340
8348
8340
8340
8332
8340
8340
