30953
30969
30945
30953
30945
30953
30969
30945
30953
30977
30945
30961
30969
30945
30977
30953
30961
30969
30969
30953
30945
30969
30953
30961
30921
30953
30945
30953
30937
30977
30945
30961
30929
30977
30945
30961
30953
30953
30961
30953
30961
30961
30945
30969
30969
30961
30961
30937
30961
30961
30929
30953
30937
30953
30953
30961
30961
30953
30953
30977
30977
30953
30961
30961
30953
30977
30953
30953
30953
30961
30953
30953
30945
30969
30937
30953
30945
30969
30921
30945
30961
30985
30969
30969
30961
30961
30937
30961
30937
30961
30945
30953
30961
30945
30977
30953
30961
30961
30937
30945
30953
30969
30937
30969
30961
30961
30937
30953
30945
30961
30961
30961
30977
30953
30969
30961
30977
30985
30969
30961
30969
30985
30953
30953
30977
30961
30993
30945
30969
30953
30961
30953
30969
30977
30961
30977
30961
30961
30945
30953
30961
30977
30961
30961
30961
30953
30961
30961
30969
30953
30977
30977
30977
30985
30969
30969
30961
30969
30993
30977
30961
30969
30993
30969
30953
30977
30953
30945
30961
30969
30969
30961
30969
30937
30953
30953
30969
30961
30977
30961
30969
30977
30977
30961
30961
30969
30961
30977
30969
30977
30969
30969
30977
30985
30961
30953
30994
30969
30945
30985
30977
30977
30986
30945
30969
30977
30961
30985
30961
30953
30985
30977
30945
30945
30969
30961
31009
30969
30977
30961
30945
30985
30977
30961
30977
30969
30961
30953
30977
30977
30961
30945
30969
30937
30969
30953
30985
30969
30953
30985
30953
30985
30969
30961
30961
30961
30961
30953
30969
30969
30961
30961
30961
30961
30953
30961
30969
30977
30961
30977
30969
30977
30953
30977
30977
30961
30977
30969
30929
30961
30969
30985
30977
30993
30953
30961
30953
30969
30945
30953
30953
30961
30977
30945
30977
30961
30961
30945
30953
30961
30961
30961
30953
30977
30953
30945
30937
30985
30945
30961
30969
30969
30961
30977
30953
30961
30985
30961
30929
30945
30961
30945
30961
30929
30969
30961
30945
30969
30945
30953
30969
30953
30977
30945
30985
30937
30969
30977
30969
30937
30977
30985
30945
30929
30977
30961
30969
30953
30961
30977
30977
30945
30961
30969
30969
30953
30969
30977
30977
30977
30953
30985
30969
30969
30977
30961
30961
30993
30937
30993
30985
30945
30969
30961
30977
30985
30961
30977
30977
30993
30977
30985
30985
30969
30985
30993
30977
30993
30953
30953
30961
30977
30961
30969
30985
30977
30985
30961
30985
30969
30969
30977
30993
30977
30977
30977
30977
30969
30969
31017
30969
30977
30993
30977
30969
30945
30969
30961
30985
30961
30977
30985
30961
30969
30985
30969
30969
30961
30985
30969
30993
30961
30969
30961
30977
30985
30953
30969
30969
30969
30969
30969
30969
30969
30985
30985
30993
30969
30985
30969
30977
30969
30985
30953
30977
30969
30969
30985
30953
30977
30969
30969
30977
30969
30969
30969
30977
30993
30921
30985
30961
30977
31009
30969
30977
30961
30953
31001
30961
30969
30969
30945
30945
30953
30969
30937
30993
30977
30953
30961
30969
30961
30969
30985
30961
30969
30977
30969
30985
30961
30993
30953
30985
30969
30985
30977
30961
30977
30969
30977
30977
30969
30961
30961
30961
30969
30953
30969
30945
30953
30985
30961
30961
30953
30969
30969
30961
30961
30985
30969
30961
30985
30953
30961
30945
30953
30953
30969
30969
30993
30961
30961
30945
30977
30953
30977
30977
30953
30929
30953
30985
30985
30969
30953
30953
30953
30953
30961
30993
30977
30993
30977
30969
30993
30961
30953
30961
30977
30977
30961
30977
30977
30969
30985
30985
30977
30953
30977
31001
30969
30969
30993
30985
30977
30961
30985
30977
30969
30953
30929
30977
30977
30985
30977
30969
30945
30977
31002
30969
30985
30977
30961
30961
30985
30977
30961
30961
30977
30961
30945
30985
30961
30977
30977
30969
30985
30977
30977
30993
30977
30977
30985
30993
30969
30993
30977
30977
30977
30961
30985
30977
30985
30969
30969
30986
30977
30977
30969
30977
30993
30985
30969
30969
30969
30977
30977
30977
30961
30993
30985
30977
30977
30977
30969
30969
30977
30985
30985
30977
30961
30977
30977
30985
31001
30969
30993
30961
30945
30969
30969
30969
30993
30993
30969
30977
30985
30969
30977
30977
30993
30977
30985
30993
30977
30969
30985
30977
30985
30953
30985
30961
30985
30977
30961
30977
30929
30977
30977
30969
30993
30977
30953
30993
30969
30977
30961
30985
30985
30945
30953
30985
30985
30969
30977
31001
30985
30953
30961
30985
30953
30945
30969
30977
30969
30985
30961
30945
30969
30961
30961
30953
30969
30953
30953
30953
30977
30969
30977
30977
30969
30969
30969
30977
30977
30969
30969
30969
30969
30945
30977
30953
30953
30969
31025
30993
30969
30969
30945
30961
30977
30969
30945
30977
30977
30977
30961
30969
30961
30961
30969
30953
30969
30953
30977
30969
30961
30985
30953
30961
30961
30977
30961
30937
30953
30961
30969
30977
30945
30937
30977
30953
30953
30985
30961
30977
30961
30969
30961
30969
30953
30977
30961
30969
30953
30969
31001
30961
30985
30953
30953
30937
30969
30969
30961
30969
30985
30969
30977
30985
30977
30873
30977
30985
30969
30969
30985
30977
30977
30969
30993
30961
30969
31009
30953
30953
30961
30953
30969
30969
30993
30953
30969
30977
30969
30977
30953
30961
30977
30977
30969
30969
30961
30953
30977
30977
30977
30961
30953
30961
30969
30969
30977
30969
30969
30969
30977
30985
30985
30993
30961
30969
30985
31001
30961
30985
30993
30985
30993
30953
30993
30969
30969
30977
30985
30969
30977
30969
30977
30961
30985
30985
30977
30969
30985
30961
30977
30977
30977
30953
30993
30969
30977
30993
30977
30977
30985
30961
30985
30985
30977
30977
30977
30985
30977
30985
30969
30985
30945
30961
30993
30993
30985
30977
30977
30986
30993
30969
30937
30977
30969
30969
30985
30977
30985
30977
30969
30953
30961
30961
31001
30977
30977
30977
30977
30961
30953
30977
30993
30970
30977
31001
30985
31001
30985
30985
30961
30985
30961
30969
30961
30961
30985
30953
30977
30961
30985
30985
30969
30969
30985
30961
30969
30985
30961
30961
30985
30993
30985
30953
30985
30977
30969
30977
30961
30985
30985
30977
30953
30945
30985
30945
30961
30977
30977
30969
30945
30977
30977
30985
30977
30969
30985
30953
30969
30977
30945
30969
30953
30969
30977
