7131
7132
7148
7156
7148
7140
7140
7156
7123
7107
7131
7115
7131
7123
7140
7132
7115
7131
7123
7123
7123
7139
7123
7099
7107
7131
7123
7107
7115
7123
7123
7115
7107
7115
7123
7107
7107
7107
7115
7115
7091
7091
7107
7115
7107
7099
7115
7131
7123
7107
7115
7099
7107
7115
7107
7107
7091
7107
7099
7115
7107
7124
7107
7115
7099
7131
7107
7099
7107
7107
7123
7123
7107
7099
7091
7107
7099
7107
7115
7107
7123
7091
7091
7131
7099
7099
7091
7107
7099
7107
7107
7099
7115
7115
7099
7107
7107
7107
7091
7107
7091
7115
7115
7115
7115
7107
7099
7107
7083
7099
7099
7123
7107
7115
7099
7091
7115
7099
7099
7099
7107
7091
7107
7115
7099
7099
7107
7115
7115
7091
7091
7099
7115
7107
7107
7107
7099
7083
7083
7099
7091
7091
7099
7091
7083
7091
7099
7099
7115
7099
7099
7107
7099
7099
7123
7107
7091
7091
7091
7091
7083
7091
7091
7107
7099
7115
7091
7107
7083
7083
7099
7075
7083
7099
7099
7099
7083
7083
7115
7083
7083
7083
7099
7091
7099
7107
7099
7107
7107
7083
7099
7083
7059
7091
7083
7091
7123
7099
7083
7091
7091
7091
7099
7099
7115
7083
7107
7091
7107
7091
7083
7075
7083
7083
7099
7059
7091
7083
7091
7067
7091
7091
7075
7083
7083
7083
7107
7091
7083
7091
7075
7099
7075
7091
7107
7075
7099
7075
7107
7083
7099
7091
7099
7099
7107
7099
7067
7075
7091
7083
7091
7083
7107
7099
7099
7051
7099
7059
7083
7075
7083
7067
7083
7091
7067
7083
7091
7075
7099
7099
7083
7099
7083
7075
7083
7075
7083
7091
7059
7075
7083
7091
7091
7075
7091
7099
7075
7083
7091
7091
7075
7059
7067
7083
7075
7067
7075
7075
7107
7083
7091
7083
7091
7083
7091
7083
7075
7083
7091
7083
7091
7099
7099
7075
7075
7107
7075
7091
7083
7067
7083
7083
7091
7083
7083
7083
7107
7091
7083
7075
7083
7067
7035
7099
7075
7091
7107
7075
7115
7067
7067
7083
7091
7083
7091
7075
7075
7075
7083
7099
7067
7083
7083
7067
7083
7083
7083
7083
7075
7099
7091
7067
7075
7083
7067
7091
7099
7091
7091
7067
7067
7107
7083
7091
7083
7091
7091
7075
7075
7091
7107
7099
7107
7075
7083
7067
7075
7075
7051
7083
7083
7083
7075
7067
7075
7083
7075
7091
7083
7059
7083
7067
7091
7075
7075
7083
7099
7091
7107
7075
7075
7091
7083
7091
7075
7059
7099
7059
7075
7067
7099
7067
7075
7067
7051
7115
7083
7099
7083
7083
7075
7091
7067
7091
7075
7075
7083
7067
7083
7099
7075
7059
7075
7075
7075
7091
7083
7059
7107
7059
7051
7075
7075
7075
7067
7075
7075
7075
7075
7075
7083
7067
7067
7059
7091
7059
7083
7091
7067
7083
7075
7059
7067
7075
7067
7067
7075
7067
7083
7083
7083
7075
7075
7075
7091
7083
7075
7067
7059
7083
7091
7083
7083
7099
7075
7067
7083
7067
7075
7075
7075
7091
7083
7059
7091
7075
7083
7059
7083
7059
7083
7067
7091
7067
7059
7051
7075
7075
7083
7067
7067
7043
7075
7091
7083
7107
7075
7043
7075
7083
7083
7067
7075
7067
7059
7059
7091
7075
7091
7083
7051
7083
7067
7091
7075
7091
7051
7067
7043
7067
7075
7091
7083
7075
7075
7059
7091
7075
7067
7083
7075
7075
7067
7083
7083
7043
7075
7067
7075
7075
7075
7067
7051
7067
7083
7075
7059
7059
7075
7059
7075
7075
7083
7107
7091
7067
7075
7067
7075
7075
7059
7075
7075
7067
7059
7075
7051
7075
7059
7075
7059
7067
7075
7075
7075
7075
7059
7075
7067
7075
7083
7084
7091
7083
7059
7083
7083
7067
7075
7067
7075
7059
7075
7075
7067
7075
7083
7067
7067
7043
7083
7083
7083
7059
7083
7067
7083
7075
7043
7059
7067
7075
7091
7067
7075
7067
7067
7059
7067
7091
7083
7083
7067
7075
7083
7075
7083
7075
7067
7075
7051
7075
7075
7067
7051
7067
7075
7067
7059
7083
7067
7067
7059
7091
7059
7075
7059
7059
7075
7083
7067
7083
7083
7067
7059
7059
7059
7059
7083
7067
7067
7091
7059
7051
7075
7075
7059
7059
7075
7067
7067
7075
7075
7067
7083
7075
7067
7075
7067
7075
7083
7059
7043
7075
7075
7059
7067
7059
7051
7067
7083
7059
7067
7075
7067
7075
7067
7075
7075
7075
7067
7059
7051
7067
7059
7067
7075
7059
7067
7043
7075
7091
7067
7051
7059
7075
7059
7075
7075
7091
7059
7059
7067
7075
7075
7075
7067
7059
7059
7059
7091
7059
7067
7059
7051
7067
7075
7083
7067
7083
7059
7083
7075
7075
7075
7067
7067
7051
7059
7067
7067
7051
7075
7075
7067
7075
7083
7067
7067
7075
7059
7059
7067
7083
7059
7083
7067
7099
7091
7059
7059
7059
7083
7059
7083
7059
7067
7075
7075
7059
7075
7075
7067
7075
7067
7051
7075
7059
7099
7084
7067
7075
7067
7075
7051
7075
7091
7091
7075
7083
7059
7075
7059
7051
7067
7075
7059
7051
7067
7067
7083
7099
7067
7067
7067
7075
7059
7067
7075
7075
7059
7035
7051
7059
7075
7059
7059
7075
7043
7075
7067
7075
7059
7075
7075
7083
7075
7075
7067
7075
7067
7075
7083
7067
7067
7099
7051
7067
7067
7067
7067
7051
7067
7051
7059
7099
7083
7067
7067
7067
7059
7067
7051
7083
7051
7075
7059
7075
7075
7067
7075
7075
7075
7067
7075
7051
7060
7067
7092
7075
7099
7067
7075
7083
7067
7083
7059
7067
7075
7051
7132
7083
7059
7067
7075
7075
7075
7075
7027
7067
7067
7075
7067
7083
7067
7067
7051
7067
7059
7091
7051
7075
7067
7067
7051
7075
7083
7051
7051
7075
7075
7067
7051
7075
7059
7083
7067
7067
7075
7075
7083
7067
7083
7091
7083
7083
7083
7091
7075
7059
7051
7067
7067
7083
7067
7067
7043
7075
7075
7075
7075
7059
7067
7059
7067
7067
7075
7067
7075
7067
7067
7099
7059
7075
7067
7059
7051
7067
7091
7067
