25618
25618
25610
25610
25610
25626
25610
25602
25594
25618
25594
25594
25602
25610
25586
25586
25602
25594
25602
25602
25602
25602
25594
25594
25594
25602
25602
25586
25602
25602
25610
25594
25610
25610
25618
25602
25602
25611
25618
25602
25618
25602
25610
25586
25594
25602
25594
25610
25610
25602
25594
25618
25578
25586
25618
25594
25602
25602
25602
25618
25602
25610
25602
25594
25610
25586
25610
25602
25602
25602
25618
25602
25602
25610
25610
25602
25618
25594
25610
25610
25618
25610
25618
25602
25602
25610
25610
25602
25602
25618
25626
25602
25626
25610
25610
25610
25626
25602
25610
25610
25602
25602
25594
25602
25610
25594
25634
25602
25626
25602
25602
25594
25618
25610
25610
25618
25618
25618
25602
25618
25602
25618
25602
25602
25610
25635
25626
25618
25618
25602
25618
25618
25602
25618
25586
25618
25634
25634
25618
25618
25634
25642
25610
25618
25586
25610
25610
25610
25602
25626
25610
25602
25610
25618
25634
25626
25626
25618
25594
25634
25618
25618
25618
25610
25626
25618
25626
25610
25618
25602
25618
25626
25618
25626
25626
25626
25602
25626
25618
25626
25626
25634
25634
25610
25618
25610
25626
25618
25618
25626
25618
25618
25618
25650
25610
25626
25618
25618
25626
25626
25626
25618
25634
25610
25642
25610
25610
25626
25618
25602
25626
25634
25618
25602
25618
25626
25634
25618
25610
25594
25634
25626
25618
25634
25634
25626
25618
25618
25626
25642
25650
25626
25626
25618
25618
25626
25626
25626
25642
25634
25642
25634
25626
25634
25634
25634
25650
25626
25626
25642
25626
25610
25626
25634
25642
25618
25626
25634
25634
25618
25642
25626
25618
25626
25602
25634
25634
25634
25626
25642
25618
25626
25650
25642
25626
25634
25634
25626
25642
25634
25586
25626
25642
25626
25634
25634
25634
25634
25626
25618
25618
25610
25610
25618
25626
25650
25634
25626
25618
25642
25626
25618
25634
25642
25666
25626
25642
25626
25634
25618
25634
25626
25650
25642
25626
25634
25650
25634
25642
25626
25626
25634
25642
25618
25634
25642
25634
25642
25642
25650
25634
25642
25642
25642
25650
25634
25634
25650
25658
25634
25642
25626
25634
25634
25634
25626
25642
25634
25642
25642
25642
25650
25650
25650
25634
25642
25634
25634
25634
25634
25642
25626
25634
25626
25634
25658
25642
25666
25650
25634
25650
25642
25642
25634
25634
25626
25650
25634
25634
25642
25634
25634
25642
25642
25666
25642
25642
25658
25634
25666
25642
25666
25650
25642
25650
25618
25650
25658
25634
25650
25650
25634
25634
25602
25650
25674
25642
25650
25650
25642
25642
25650
25642
25634
25618
25650
25650
25650
25650
25650
25650
25650
25642
25642
25650
25658
25650
25650
25658
25642
25650
25642
25642
25650
25642
25658
25650
25626
25650
25634
25642
25642
25642
25658
25642
25650
25650
25634
25634
25634
25650
25618
25642
25642
25642
25634
25594
25642
25634
25658
25634
25642
25650
25650
25642
25642
25658
25650
25642
25642
25642
25618
25642
25642
25658
25650
25642
25658
25626
25634
25650
25650
25650
25642
25683
25650
25666
25634
25642
25658
25650
25626
25642
25618
25642
25658
25666
25642
25634
25650
25650
25634
25650
25650
25650
25658
25642
25650
25650
25650
25658
25650
25650
25650
25666
25658
25650
25634
25642
25650
25634
25666
25658
25642
25642
25658
25634
25642
25642
25642
25634
25650
25650
25658
25666
25626
25674
25634
25650
25642
25666
25650
25674
25658
25674
25658
25650
25634
25658
25658
25658
25650
25650
25650
25650
25682
25642
25634
25674
25650
25642
25658
25674
25658
25658
25650
25650
25666
25666
25642
25658
25658
25666
25658
25674
25658
25658
25666
25650
25658
25634
25674
25634
25642
25650
25658
25634
25658
25674
25658
25634
25650
25658
25650
25658
25650
25650
25658
25666
25650
25666
25634
25658
25642
25658
25634
25634
25650
25658
25658
25658
25650
25642
25650
25658
25658
25658
25658
25650
25658
25634
25674
25666
25658
25650
25650
25658
25650
25642
25650
25650
25658
25658
25650
25666
25642
25666
25658
25650
25650
25658
25650
25658
25650
25658
25658
25650
25642
25650
25666
25658
25650
25650
25658
25650
25658
25658
25658
25642
25658
25650
25658
25650
25658
25650
25666
25674
25666
25650
25642
25626
25666
25666
25642
25634
25658
25682
25634
25642
25650
25658
25650
25650
25666
25650
25682
25642
25658
25650
25634
25658
25666
25666
25642
25650
25650
25650
25650
25650
25658
25650
25650
25658
25666
25658
25666
25642
25666
25666
25626
25650
25674
25650
25666
25658
25650
25658
25650
25666
25650
25642
25650
25666
25658
25674
25650
25666
25666
25658
25666
25658
25634
25658
25658
25650
25650
25666
25658
25666
25650
25666
25650
25650
25650
25658
25650
25666
25658
25642
25650
25650
25658
25666
25650
25642
25650
25658
25666
25658
25650
25658
25666
25674
25707
25658
25642
25658
25650
25642
25666
25666
25650
25658
25666
25642
25666
25658
25674
25642
25682
25626
25650
25650
25658
25650
25658
25675
25658
25682
25658
25666
25650
25658
25650
25642
25666
25658
25667
25658
25674
25666
25658
25658
25634
25658
25658
25666
25674
25650
25658
25658
25650
25658
25666
25642
25658
25650
25658
25650
25658
25666
25666
25674
25658
25642
25642
25658
25666
25666
25642
25666
25642
25682
25658
25658
25650
25666
25674
25650
25658
25650
25658
25658
25658
25666
25666
25658
25682
25650
25658
25658
25658
25666
25674
25682
25666
25626
25666
25650
25658
25658
25666
25650
25650
25666
25674
25642
25658
25650
25650
25658
25650
25650
25658
25666
25650
25658
25658
25658
25666
25658
25642
25674
25674
25666
25666
25674
25626
25658
25666
25642
25650
25666
25666
25650
25674
25674
25674
25674
25650
25666
25666
25666
25650
25674
25658
25666
25666
25674
25658
25650
25658
25650
25658
25658
25666
25650
25666
25658
25658
25650
25666
25666
25658
25658
25650
25650
25658
25650
25666
25658
25658
25666
25674
25674
25650
25658
25682
25666
25650
25642
25666
25658
25674
25674
25658
25658
25666
25650
25666
25666
25658
25666
25658
25658
25682
25674
25666
25658
25666
25658
25642
25634
25642
25674
25650
25666
25650
25650
25682
25626
25650
25666
25674
25674
25650
25674
25666
25650
25674
25650
25642
25674
25650
25642
25658
25666
25674
25666
25658
25658
25666
25666
25682
25666
25674
25666
25666
25682
25642
