7188
7188
7181
7180
7204
7188
7172
7156
7180
7188
7172
7172
7164
7180
7180
7164
7140
7172
7188
7164
7180
7196
7188
7156
7180
7188
7156
7180
7172
7156
7164
7188
7172
7196
7140
7164
7164
7172
7180
7180
7180
7180
7164
7164
7180
7156
7172
7172
7164
7172
7180
7172
7180
7148
7164
7164
7172
7172
7188
7188
7164
7196
7172
7180
7164
7164
7172
7180
7172
7180
7188
7172
7164
7164
7180
7180
7180
7180
7180
7172
7164
7172
7188
7180
7188
7180
7204
7180
7172
7148
7172
7188
7188
7164
7180
7188
7156
7188
7188
7181
7180
7188
7164
7180
7148
7172
7188
7188
7172
7164
7188
7180
7180
7164
7172
7204
7172
7196
7180
7196
7172
7132
7180
7188
7188
7164
7172
7188
7188
7148
7172
7188
7204
7164
7196
7188
7172
7180
7180
7172
7212
7180
7188
7180
7172
7196
7180
7123
7172
7196
7172
7188
7196
7188
7204
7164
7172
7196
7172
7188
7164
7204
7180
7196
7164
7196
7172
7188
7164
7188
7180
7164
7172
7188
7180
7180
7188
7196
7196
7172
7180
7188
7156
7180
7204
7172
7196
7164
7164
7172
7204
7148
7188
7188
7188
7196
7180
7188
7196
7164
7188
7196
7180
7180
7180
7172
7188
7172
7172
7196
7172
7172
7196
7172
7180
7188
7188
7204
7180
7164
7164
7180
7204
7188
7180
7172
7188
7188
7180
7188
7180
7164
7172
7164
7180
7172
7188
7196
7180
7172
7188
7164
7188
7180
7164
7180
7180
7180
7148
7188
7164
7180
7188
7196
7164
7164
7164
7196
7188
7172
7180
7188
7164
7180
7180
7180
7204
7196
7212
7180
7204
7172
7180
7180
7156
7164
7188
7196
7188
7188
7188
7172
7172
7188
7180
7188
7180
7148
7212
7172
7164
7180
7164
7180
7180
7172
7156
7180
7180
7188
7188
7188
7188
7180
7172
7172
7188
7172
7180
7180
7164
7180
7188
7180
7172
7196
7164
7197
7196
7196
7196
7156
7164
7156
7172
7196
7188
7197
7188
7180
7180
7188
7188
7188
7180
7180
7180
7188
7172
7172
7156
7180
7180
7180
7180
7196
7196
7212
7181
7180
7172
7196
7180
7180
7188
7180
7188
7156
7188
7180
7164
7172
7196
7188
7188
7180
7172
7188
7180
7172
7188
7180
7180
7172
7180
7172
7180
7188
7180
7196
7204
7196
7188
7164
7180
7180
7156
7164
7188
7188
7180
7180
7180
7180
7164
7172
7205
7188
7196
7188
7180
7196
7156
7180
7172
7172
7180
7188
7196
7188
7196
7188
7172
7188
7180
7188
7228
7196
7180
7196
7172
7180
7180
7188
7196
7180
7188
7172
7188
7172
7180
7196
7196
7188
7180
7172
7172
7180
7196
7172
7196
7188
7204
7188
7172
7196
7188
7196
7188
7164
7196
7180
7196
7172
7172
7180
7188
7188
7180
7204
7196
7172
7188
7196
7180
7172
7172
7181
7188
7188
7164
7220
7164
7164
7180
7204
7172
7180
7180
7172
7180
7172
7180
7188
7180
7172
7180
7180
7188
7188
7204
7188
7188
7188
7172
7196
7188
7180
7196
7196
7188
7180
7180
7172
7180
7180
7196
7196
7188
7188
7204
7188
7172
7196
7164
7172
7188
7180
7196
7188
7196
7180
7180
7180
7188
7188
7188
7196
7188
7180
7188
7196
7188
7196
7172
7172
7188
7164
7180
7172
7180
7180
7196
7180
7188
7196
7204
7204
7164
7188
7188
7188
7164
7188
7188
7188
7180
7180
7188
7172
7196
7204
7180
7172
7180
7180
7172
7188
7172
7196
7204
7180
7204
7180
7180
7188
7196
7164
7188
7188
7172
7172
7172
7188
7204
7196
7180
7188
7172
7172
7172
7188
7180
7180
7196
7180
7196
7196
7196
7180
7188
7172
7196
7196
7196
7180
7156
7188
7180
7188
7172
7188
7188
7188
7180
7172
7180
7180
7188
7204
7196
7180
7204
7172
7188
7188
7188
7196
7196
7196
7180
7180
7204
7204
7188
7188
7188
7172
7180
7180
7172
7204
7172
7196
7188
7172
7180
7172
7188
7180
7196
7180
7188
7188
7180
7180
7196
7196
7180
7156
7188
7188
7188
7188
7180
7180
7172
7188
7196
7188
7164
7188
7172
7164
7164
7188
7180
7188
7188
7188
7196
7188
7180
7180
7180
7156
7212
7196
7180
7188
7180
7180
7188
7188
7188
7172
7188
7196
7172
7188
7188
7204
7196
7196
7180
7180
7188
7204
7180
7188
7188
7188
7196
7180
7188
7172
7196
7188
7180
7188
7180
7180
7196
7172
7204
7188
7204
7180
7196
7180
7196
7196
7180
7180
7188
7180
7188
7172
7180
7172
7196
7188
7172
7196
7180
7180
7188
7148
7204
7172
7172
7172
7180
7188
7172
7196
7180
7197
7180
7188
7180
7196
7188
7180
7196
7196
7188
7180
7156
7188
7204
7196
7180
7180
7180
7188
7172
7188
7196
7188
7172
7188
7172
7196
7196
7188
7188
7172
7188
7188
7180
7180
7196
7172
7188
7196
7172
7188
7180
7180
7188
7196
7164
7188
7188
7204
7196
7188
7180
7180
7196
7156
7196
7196
7180
7188
7188
7188
7188
7196
7196
7180
7196
7188
7196
7180
7180
7196
7188
7180
7188
7188
7196
7196
7196
7188
7140
7188
7188
7188
7164
7188
7204
7188
7188
7180
7180
7180
7180
7188
7196
7172
7180
7196
7188
7204
7196
7188
7188
7188
7180
7180
7188
7196
7180
7180
7188
7204
7180
7204
7196
7188
7196
7196
7180
7196
7196
7197
7204
7180
7180
7164
7188
7196
7180
7180
7164
7220
7180
7196
7188
7172
7188
7188
7188
7172
7164
7180
7188
7188
7172
7188
7180
7180
7196
7188
7196
7164
7220
7196
7180
7196
7188
7188
7188
7188
7196
7220
7188
7180
7180
7196
7188
7188
7204
7180
7196
7188
7188
7196
7188
7196
7172
7188
7180
7188
7188
7196
7180
7196
7188
7204
7204
7204
7188
7188
7180
7188
7164
7188
7212
7172
7188
7164
7172
7188
7196
7180
7188
7196
7196
7180
7172
7172
7196
7172
7180
7196
7172
7172
7188
7188
7196
7164
7180
7196
7188
7180
7204
7172
7196
7156
7180
7196
7172
7180
7188
7180
7204
7196
7188
7212
7188
7188
7196
7188
7180
7164
7188
7172
