8082
8058
8074
8098
8074
8082
8090
8074
8082
8066
8074
8107
8083
8082
8074
8090
8082
8082
8074
8074
8098
8082
8082
8082
8090
8091
8090
8074
8082
8098
8098
8074
8091
8082
8082
8090
8099
8090
8074
8058
8099
8082
8074
8091
8091
8058
8123
8082
8091
8074
8090
8090
8099
8082
8074
8107
8098
8090
8082
8107
8074
8099
8091
8082
8074
8090
8066
8107
8082
8091
8099
8115
8082
8082
8090
8082
8090
8099
8058
8099
8050
8074
8066
8091
8066
8099
8099
8107
8099
8099
8083
8091
8082
8099
8074
8099
8074
8099
8091
8075
8099
8074
8091
8082
8115
8082
8091
8107
8082
8090
8091
8082
8099
8091
8115
8107
8091
8082
8091
8082
8074
8099
8107
8099
8090
8091
8091
8083
8115
8091
8091
8098
8107
8099
8090
8099
8083
8066
8066
8082
8082
8074
8107
8099
8107
8082
8090
8083
8091
8107
8082
8115
8115
8107
8082
8090
8082
8066
8066
8074
8099
8082
8082
8091
8107
8098
8091
8098
8099
8074
8099
8090
8090
8090
8115
8090
8115
8082
8090
8090
8099
8090
8091
8099
8074
8082
8107
8099
8115
8099
8099
8099
8107
8090
8082
8090
8107
8098
8082
8090
8091
8099
8083
8107
8098
8082
8090
8107
8107
8074
8091
8090
8107
8098
8090
8115
8099
8091
8090
8090
8115
8074
8090
8090
8098
8098
8074
8090
8091
8090
8090
8090
8107
8082
8098
8090
8090
8107
8082
8082
8099
8074
8074
8082
8074
8107
8107
8107
8099
8082
8099
8098
8099
8090
8099
8074
8090
8090
8090
8090
8099
8074
8090
8098
8090
8107
8090
8107
8098
8139
8082
8107
8090
8115
8090
8083
8082
8099
8082
8115
8107
8098
8082
8090
8090
8107
8082
8099
8107
8091
8090
8082
8107
8098
8099
8082
8107
8107
8074
8090
8107
8107
8099
8115
8107
8098
8099
8083
8098
8115
8091
8107
8098
8090
8099
8058
8099
8083
8098
8115
8090
8107
8099
8098
8099
8107
8082
8090
8107
8107
8115
8098
8115
8107
8090
8099
8099
8099
8099
8083
8107
8090
8115
8107
8107
8090
8091
8099
8099
8099
8115
8058
8099
8107
8115
8131
8074
8099
8107
8082
8099
8091
8099
8099
8123
8099
8107
8099
8066
8099
8107
8091
8091
8115
8091
8099
8091
8099
8099
8098
8107
8091
8115
8115
8123
8107
8107
8107
8115
8107
8107
8075
8099
8099
8115
8099
8099
8067
8099
8123
8091
8099
8107
8099
8099
8075
8107
8115
8099
8115
8091
8099
8107
8099
8082
8107
8115
8099
8099
8083
8107
8083
8107
8115
8115
8091
8115
8099
8099
8099
8123
8099
8123
8091
8083
8099
8099
8083
8123
8083
8107
8091
8099
8082
8115
8099
8099
8115
8091
8099
8107
8115
8083
8107
8099
8123
8099
8107
8123
8131
8115
8123
8115
8099
8099
8083
8091
8099
8099
8107
8115
8107
8099
8107
8099
8115
8091
8091
8099
8107
8115
8074
8107
8091
8083
8115
8115
8115
8090
8099
8115
8115
8107
8099
8107
8123
8090
8099
8082
8123
8107
8107
8099
8099
8090
8099
8091
8107
8083
8115
8098
8074
8107
8098
8082
8099
8107
8091
8091
8107
8139
8099
8074
8099
8107
8107
8099
8139
8082
8107
8090
8107
8115
8107
8074
8131
8099
8099
8099
8107
8098
8107
8082
8099
8115
8099
8107
8115
8115
8107
8090
8107
8115
8107
8123
8082
8098
8099
8074
8107
8091
8107
8107
8115
8107
8107
8107
8107
8115
8091
8099
8099
8115
8099
8099
8098
8090
8098
8098
8115
8099
8099
8090
8099
8107
8090
8099
8090
8115
8099
8082
8091
8090
8107
8131
8082
8090
8082
8098
8090
8107
8098
8107
8099
8107
8091
8098
8099
8115
8099
8115
8107
8107
8090
8139
8107
8107
8107
8098
8091
8099
8107
8107
8115
8107
8091
8090
8090
8099
8115
8090
8098
8082
8107
8099
8075
8090
8131
8115
8115
8131
8098
8099
8090
8099
8099
8107
8107
8099
8107
8115
8090
8107
8123
8074
8107
8123
8082
8107
8083
8107
8107
8082
8082
8107
8091
8115
8139
8090
8083
8107
8115
8107
8098
8123
8090
8107
8107
8099
8082
8139
8098
8115
8115
8107
8082
8107
8115
8099
8115
8107
8099
8107
8107
8099
8107
8082
8115
8123
8115
8123
8099
8107
8115
8115
8115
8099
8099
8107
8107
8107
8107
8091
8139
8115
8099
8083
8107
8115
8123
8107
8107
8091
8099
8099
8091
8115
8099
8123
8107
8123
8107
8099
8115
8099
8123
8115
8107
8099
8107
8099
8115
8115
8107
8139
8099
8099
8123
8082
8099
8131
8123
8115
8091
8123
8107
8107
8115
8107
8099
8107
8131
8107
8123
8107
8099
8090
8115
8091
8099
8115
8099
8107
8099
8131
8115
8099
8091
8099
8123
8123
8115
8107
8115
8099
8099
8131
8099
8091
8107
8115
8083
8107
8099
8099
8107
8115
8107
8107
8107
8091
8107
8123
8107
8099
8115
8091
8131
8099
8107
8123
8099
8107
8115
8115
8107
8107
8131
8091
8123
8099
8115
8115
8123
8115
8123
8107
8083
8115
8107
8091
8123
8099
8099
8107
8115
8099
8091
8091
8115
8107
8107
8099
8115
8099
8099
8123
8107
8115
8099
8107
8082
8123
8099
8107
8107
8099
8123
8123
8123
8123
8107
8123
8099
8115
8131
8107
8091
8107
8099
8115
8115
8107
8115
8099
8083
8115
8107
8099
8107
8099
8107
8107
8131
8107
8107
8107
8099
8107
8115
8107
8107
8123
8115
8115
8107
8083
8115
8131
8099
8107
8131
8090
8107
8091
8091
8107
8091
8123
8107
8107
8099
8123
8107
8082
8099
8099
8107
8099
8107
8082
8099
8099
8115
8115
8115
8099
8099
8099
8107
8083
8123
8123
8091
8115
8099
8099
8115
8123
8123
8099
8091
8107
8123
8099
8107
8099
8123
8099
8107
8083
8107
8107
8115
8115
8099
8099
8099
8115
8107
8066
8107
8107
8090
8115
8123
8082
8107
8107
8099
8091
8091
8090
8107
8123
8115
8107
8115
8131
8115
8107
8099
8099
8107
8099
8107
8115
8107
8099
8090
8107
8083
8107
8107
8107
8115
8107
8099
8115
8107
