25602
25610
25618
25626
25618
25618
25626
25626
25650
25626
25634
25634
25626
25642
25626
25626
25634
25642
25634
25642
25626
25634
25642
25634
25642
25634
25650
25634
25642
25618
25650
25642
25650
25642
25650
25642
25642
25642
25634
25626
25642
25642
25658
25642
25658
25642
25650
25642
25650
25650
25642
25650
25642
25642
25642
25642
25658
25634
25642
25650
25650
25626
25650
25642
25642
25650
25658
25666
25634
25658
25650
25650
25650
25642
25658
25658
25642
25658
25650
25658
25658
25658
25650
25658
25658
25658
25650
25650
25658
25658
25658
25658
25658
25666
25666
25658
25658
25634
25658
25642
25658
25658
25674
25658
25666
25674
25666
25658
25658
25666
25658
25650
25658
25666
25666
25650
25650
25666
25650
25658
25658
25658
25650
25642
25674
25674
25650
25658
25658
25650
25650
25658
25658
25650
25642
25658
25658
25658
25658
25658
25658
25674
25666
25658
25658
25658
25658
25658
25642
25666
25666
25666
25650
25634
25658
25650
25666
25650
25666
25666
25642
25690
25626
25658
25666
25634
25650
25626
25658
25674
25642
25658
25658
25690
25642
25674
25650
25674
25682
25674
25626
25658
25674
25642
25658
25642
25690
25650
25690
25666
25658
25650
25666
25674
25642
25658
25666
25666
25674
25658
25658
25666
25650
25658
25666
25666
25650
25658
25658
25658
25666
25666
25674
25666
25666
25658
25666
25658
25658
25666
25674
25666
25682
25658
25666
25666
25666
25658
25666
25674
25658
25650
25658
25674
25658
25658
25650
25666
25666
25650
25658
25674
25658
25650
25650
25666
25658
25658
25650
25650
25674
25666
25658
25650
25658
25674
25658
25658
25666
25650
25666
25666
25666
25666
25658
25658
25666
25650
25658
25658
25650
25642
25658
25658
25666
25650
25658
25658
25658
25674
25658
25658
25666
25666
25666
25666
25674
25674
25658
25658
25650
25698
25666
25658
25658
25658
25658
25658
25658
25674
25666
25658
25658
25658
25658
25666
25666
25666
25666
25666
25666
25674
25658
25674
25674
25666
25658
25658
25658
25666
25658
25650
25658
25642
25674
25674
25666
25682
25650
25674
25674
25658
25666
25682
25666
25666
25674
25674
25666
25666
25666
25658
25666
25674
25666
25666
25674
25674
25674
25666
25666
25666
25666
25674
25666
25666
25674
25666
25682
25674
25674
25690
25674
25674
25674
25666
25682
25666
25674
25674
25658
25682
25674
25666
25658
25666
25682
25674
25682
25674
25690
25666
25666
25666
25674
25666
25674
25674
25666
25682
25674
25674
25674
25658
25666
25674
25682
25674
25674
25674
25674
25666
25690
25690
25690
25690
25658
25674
25666
25682
25682
25682
25666
25674
25674
25674
25690
25682
25674
25690
25674
25682
25666
25682
25682
25674
25674
25674
25682
25690
25674
25674
25666
25690
25698
25690
25682
25682
25682
25682
25674
25682
25674
25674
25682
25682
25682
25682
25682
25674
25682
25674
25674
25690
25698
25682
25682
25690
25690
25682
25666
25682
25682
25682
25682
25690
25658
25682
25698
25674
25690
25674
25698
25674
25674
25682
25682
25682
25666
25674
25666
25682
25690
25690
25666
25674
25682
25682
25690
25674
25682
25674
25682
25682
25690
25682
25682
25674
25682
25666
25682
25682
25682
25690
25666
25682
25682
25674
25666
25690
25674
25682
25682
25690
25682
25682
25682
25682
25682
25682
25682
25682
25698
25706
25682
25690
25690
25682
25674
25674
25682
25682
25682
25682
25690
25706
25674
25682
25674
25682
25690
25690
25674
25682
25690
25674
25674
25674
25690
25674
25698
25666
25690
25674
25690
25674
25666
25698
25674
25690
25698
25698
25682
25682
25674
25674
25690
25682
25674
25682
25682
25674
25682
25674
25674
25682
25682
25690
25690
25682
25682
25690
25674
25690
25674
25682
25682
25666
25682
25682
25690
25690
25682
25674
25698
25682
25690
25698
25698
25674
25682
25682
25674
25682
25674
25674
25674
25682
25682
25674
25682
25690
25698
25690
25698
25682
25690
25682
25682
25682
25690
25674
25682
25674
25666
25690
25682
25690
25682
25690
25690
25674
25682
25674
25690
25698
25682
25698
25682
25690
25690
25690
25682
25682
25682
25698
25666
25698
25666
25690
25674
25690
25674
25666
25690
25690
25682
25674
25698
25682
25690
25674
25682
25690
25690
25682
25690
25698
25682
25690
25666
25682
25698
25682
25666
25682
25682
25698
25690
25698
25690
25674
25682
25682
25690
25682
25690
25682
25690
25682
25682
25666
25682
25698
25682
25666
25682
25674
25682
25682
25674
25682
25674
25666
25682
25690
25682
25682
25690
25682
25674
25682
25690
25682
25682
25690
25682
25674
25690
25682
25682
25698
25682
25674
25682
25682
25690
25650
25682
25690
25682
25690
25682
25682
25682
25674
25674
25674
25690
25690
25682
25682
25690
25674
25690
25682
25682
25674
25698
25682
25690
25690
25690
25698
25674
25682
25698
25682
25682
25666
25674
25674
25674
25682
25674
25682
25682
25682
25682
25682
25682
25650
25682
25674
25682
25690
25682
25690
25690
25674
25666
25674
25674
25674
25674
25690
25674
25682
25690
25674
25682
25690
25690
25690
25682
25682
25682
25690
25666
25690
25690
25674
25690
25682
25674
25674
25658
25690
25666
25674
25690
25682
25682
25666
25682
25682
25690
25682
25666
25682
25682
25674
25682
25698
25682
25690
25674
25682
25682
25674
25682
25682
25674
25690
25666
25682
25674
25690
25698
25682
25706
25674
25682
25682
25682
25674
25698
25674
25690
25666
25690
25690
25698
25674
25682
25706
25674
25658
25682
25666
25690
25682
25666
25682
25666
25690
25658
25682
25682
25674
25674
25690
25690
25682
25674
25682
25690
25690
25674
25682
25682
25674
25690
25682
25682
25666
25698
25682
25682
25666
25682
25682
25682
25682
25690
25674
25682
25690
25674
25682
25682
25682
25682
25698
25690
25682
25682
25674
25690
25674
25682
25698
25666
25682
25690
25690
25682
25698
25698
25682
25690
25690
25682
25682
25698
25682
25690
25690
25674
25682
25682
25690
25682
25674
25682
25690
25698
25682
25682
25682
25690
25682
25666
25682
25682
25690
25698
25674
25682
25698
25674
25690
25690
25666
25674
25674
25682
25690
25682
25682
25690
25682
25682
25674
25682
25690
25682
25674
25674
25682
25690
25690
25674
25682
25682
25690
25682
25674
25690
25690
25674
25682
25666
25666
25658
25674
25682
25674
25682
25682
25674
25690
25690
25690
25698
25682
25682
25682
25682
25690
