25884
25876
25876
25900
25900
25876
25876
25892
25892
25868
25884
25908
25876
25892
25892
25900
25908
25908
25892
25900
25892
25900
25900
25892
25892
25908
25900
25916
25892
25916
25908
25908
25908
25916
25900
25924
25900
25908
25900
25916
25916
25916
25908
25916
25916
25908
25908
25908
25908
25924
25924
25916
25924
25908
25924
25916
25940
25908
25916
25924
25908
25932
25924
25916
25916
25908
25924
25924
25932
25916
25940
25916
25924
25924
25924
25908
25900
25924
25924
25908
25932
25908
25932
25916
25932
25908
25924
25916
25932
25940
25916
25924
25940
25916
25916
25924
25940
25924
25924
25924
25916
25924
25924
25908
25940
25916
25916
25932
25932
25924
25924
25924
25924
25924
25932
25932
25932
25932
25940
25916
25916
25940
25932
25932
25932
25924
25908
25932
25924
25916
25924
25924
25924
25924
25916
25924
25916
25932
25924
25924
25932
25932
25932
25924
25924
25916
25924
25916
25916
25932
25924
25932
25948
25932
25932
25916
25932
25916
25924
25916
25924
25932
25932
25924
25932
25932
25924
25932
25916
25908
25916
25916
25916
25916
25916
25924
25924
25932
25908
25916
25924
25916
25908
25916
25916
25932
25924
25924
25916
25916
25924
25924
25916
25924
25916
25908
25932
25892
25900
25908
25924
25924
25900
25924
25924
25916
25932
25908
25924
25916
25916
25924
25908
25924
25948
25916
25932
25940
25908
25924
25948
25908
25908
25924
25924
25924
25916
25924
25916
25932
25924
25924
25916
25916
25924
25932
25916
25924
25916
25932
25908
25916
25932
25908
25924
25916
25916
25924
25924
25940
25924
25932
25932
25924
25916
25924
25932
25924
25932
25924
25916
25924
25932
25948
25932
25924
25924
25940
25924
25924
25916
25924
25924
25924
25932
25940
25924
25940
25932
25932
25940
25940
25940
25940
25932
25932
25932
25940
25940
25932
25932
25932
25940
25924
25932
25932
25932
25916
25924
25932
25932
25948
25940
25940
25932
25948
25940
25932
25932
25932
25940
25916
25924
25924
25948
25908
25924
25924
25932
25924
25940
25916
25940
25940
25916
25924
25924
25932
25932
25932
25932
25932
25940
25932
25932
25940
25940
25932
25932
25932
25932
25932
25932
25940
25940
25924
25924
25916
25948
25940
25932
25932
25932
25940
25940
25932
25932
25940
25940
25924
25940
25932
25932
25916
25932
25940
25932
25924
25932
25940
25924
25932
25916
25932
25948
25948
25924
25932
25948
25932
25932
25924
25932
25924
25924
25924
25932
25932
25916
25932
25940
25932
25924
25940
25924
25916
25916
25916
25932
25956
25924
25916
25924
25924
25932
25924
25940
25940
25932
25924
25916
25924
25924
25924
25924
25916
25924
25924
25924
25932
25924
25924
25908
25908
25924
25932
25908
25916
25924
25924
25908
25932
25932
25924
25924
25916
25924
25932
25924
25924
25924
25924
25932
25900
25924
25940
25932
25916
25924
25916
25924
25940
25932
25916
25892
25924
25932
25932
25940
25916
25924
25916
25940
25924
25932
25924
25932
25940
25908
25924
25932
25940
25924
25924
25924
25924
25924
25940
25940
25932
25924
25924
25908
25908
25932
25940
25932
25948
25932
25940
25932
25932
25924
25940
25932
25932
25924
25932
25932
25940
25932
25932
25924
25932
25932
25940
25932
25940
25940
25924
25956
25932
25924
25940
25932
25932
25956
25956
25940
25940
25948
25940
25940
25924
25940
25940
25940
25924
25932
25932
25924
25932
25932
25948
25948
25932
25908
25940
25940
25932
25948
25932
25948
25924
25940
25916
25932
25932
25948
25932
25940
25940
25940
25940
25932
25940
25940
25924
25940
25940
25932
25940
25940
25940
25908
25932
25940
25940
25932
25940
25932
25932
25924
25940
25932
25940
25932
25932
25932
25940
25924
25932
25924
25940
25940
25900
25924
25940
25932
25932
25932
25940
25932
25932
25932
25932
25924
25956
25924
25932
25940
25940
25924
25940
25940
25932
25940
25940
25924
25940
25924
25940
25932
25940
25940
25916
25932
25932
25932
25932
25924
25932
25932
25932
25908
25932
25932
25924
25916
25940
25924
25916
25924
25932
25932
25932
25924
25932
25932
25932
25932
25940
25916
25924
25948
25924
25940
25924
25924
25924
25932
25932
25932
25924
25924
25932
25932
25940
25908
25940
25916
25932
25932
25924
25924
25916
25924
25924
25924
25940
25940
25924
25940
25940
25940
25924
25932
25924
25932
25924
25916
25940
25948
25916
25948
25924
25908
25932
25932
25932
25916
25940
25924
25924
25932
25948
25932
25940
25940
25916
25932
25932
25932
25916
25924
25932
25940
25948
25932
25932
25916
25932
25940
25948
25932
25924
25924
25924
25940
25948
25932
25924
25932
25924
25948
25948
25948
25948
25940
25924
25940
25940
25940
25948
25940
25948
25924
25948
25932
25940
25932
25940
25940
25924
25932
25940
25940
25932
25940
25940
25948
25940
25932
25932
25940
25940
25932
25948
25924
25948
25940
25956
25948
25956
25948
25932
25948
25940
25940
25948
25932
25940
25940
25932
25940
25932
25948
25916
25940
25908
25932
25948
25940
25932
25940
25948
25932
25940
25940
25940
25932
25916
25932
25940
25940
25940
25932
25932
25932
25940
25932
25916
25932
25948
25932
25916
25940
25932
25940
25932
25932
25932
25948
25932
25932
25948
25940
25916
25948
25940
25948
25948
25940
25932
25908
25924
25924
25956
25932
25940
25924
25932
25932
25924
25932
25932
25932
25948
25932
25940
25932
25924
25956
25956
25924
25940
25924
25932
25932
25940
25916
25932
25924
25916
25924
25924
25908
25924
25932
25948
25932
25940
25932
25932
25948
25932
25924
25924
25924
25924
25932
25932
25924
25932
25924
25932
25940
25932
25932
25932
25924
25924
25932
25924
25924
25932
25908
25940
25940
25940
25940
25932
25924
25940
25932
25932
25924
25932
25948
25932
25932
25924
25932
25916
25924
25924
25924
25948
25932
25932
25924
25916
25924
25932
25932
25948
25940
25932
25940
25932
25932
25932
25940
25932
25932
25940
25932
26013
25924
25916
25948
25932
25940
25916
25924
25940
25924
25924
25948
25932
25940
25932
25924
25948
25940
25940
25948
25940
25932
25924
25940
25940
25932
25932
25956
25940
25940
25932
25940
25940
25940
25948
25948
25932
25924
25940
25940
25932
25940
25932
25948
25932
25940
25940
25932
25932
25948
25948
25932
25940
25940
25948
25932
25916
25940
25956
25948
25956
25932
25940
25948
25940
25932
25932
25932
25956
25932
25940
25948
25940
