25739
25731
25723
25731
25739
25739
25739
25755
25747
25747
25739
25739
25747
25747
25747
25747
25739
25755
25755
25747
25755
25755
25747
25739
25747
25747
25755
25755
25763
25755
25747
25755
25755
25763
25763
25763
25755
25771
25763
25755
25747
25747
25755
25771
25763
25755
25763
25747
25747
25755
25779
25747
25755
25763
25755
25755
25747
25755
25755
25755
25755
25763
25755
25755
25755
25747
25747
25739
25755
25763
25747
25771
25763
25747
25763
25755
25763
25763
25763
25747
25771
25763
25755
25755
25755
25771
25739
25755
25763
25755
25763
25771
25763
25755
25747
25739
25763
25755
25747
25771
25779
25763
25755
25763
25763
25747
25763
25779
25763
25755
25755
25771
25771
25755
25771
25763
25779
25763
25755
25763
25755
25779
25763
25779
25763
25771
25747
25771
25787
25763
25763
25747
25763
25763
25763
25779
25763
25763
25771
25779
25771
25779
25747
25771
25763
25779
25779
25771
25755
25779
25771
25763
25763
25771
25779
25763
25755
25779
25763
25771
25771
25779
25787
25771
25771
25771
25771
25779
25771
25755
25747
25771
25763
25771
25771
25787
25779
25787
25779
25779
25779
25787
25779
25779
25779
25755
25787
25771
25787
25779
25787
25771
25787
25795
25771
25779
25779
25779
25787
25787
25779
25787
25779
25795
25755
25771
25779
25803
25779
25787
25779
25779
25795
25779
25779
25779
25795
25755
25787
25787
25779
25787
25795
25771
25787
25787
25779
25787
25787
25779
25795
25779
25779
25779
25779
25787
25795
25779
25779
25779
25779
25771
25779
25787
25779
25787
25787
25779
25787
25779
25779
25787
25787
25787
25787
25787
25787
25811
25771
25771
25771
25779
25771
25771
25763
25779
25779
25787
25763
25771
25787
25771
25787
25779
25787
25803
25771
25779
25763
25795
25755
25771
25771
25763
25771
25779
25779
25779
25779
25747
25779
25779
25787
25771
25763
25779
25795
25771
25763
25795
25787
25771
25755
25771
25771
25787
25787
25771
25779
25787
25755
25771
25779
25771
25771
25763
25771
25779
25755
25779
25779
25779
25771
25771
25779
25779
25755
25771
25779
25771
25779
25779
25779
25771
25779
25771
25771
25779
25779
25779
25779
25779
25779
25771
25779
25779
25763
25739
25779
25787
25755
25779
25763
25779
25779
25771
25787
25787
25779
25779
25771
25787
25787
25787
25779
25755
25795
25779
25787
25771
25787
25779
25779
25771
25787
25787
25779
25795
25779
25795
25779
25779
25779
25787
25787
25787
25787
25779
25771
25763
25779
25787
25787
25779
25771
25787
25787
25779
25779
25787
25795
25771
25795
25771
25803
25795
25787
25795
25787
25787
25771
25787
25779
25779
25779
25779
25787
25779
25787
25787
25795
25795
25795
25795
25795
25795
25795
25787
25795
25787
25779
25795
25779
25787
25811
25795
25787
25787
25787
25795
25787
25787
25795
25803
25779
25787
25795
25787
25779
25787
25787
25779
25787
25787
25787
25779
25787
25779
25771
25787
25779
25795
25779
25787
25771
25779
25787
25795
25787
25787
25779
25787
25787
25779
25779
25787
25787
25771
25787
25795
25803
25779
25763
25779
25779
25763
25771
25787
25779
25779
25779
25787
25771
25779
25787
25771
25779
25771
25787
25787
25779
25779
25779
25787
25779
25787
25771
25779
25771
25795
25763
25787
25795
25763
25779
25771
25779
25779
25779
25779
25787
25779
25779
25779
25787
25771
25787
25779
25779
25771
25763
25787
25787
25771
25779
25779
25779
25779
25787
25779
25787
25779
25763
25803
25779
25763
25779
25771
25787
25779
25787
25803
25787
25795
25779
25787
25803
25787
25787
25795
25779
25787
25779
25811
25787
25779
25771
25795
25779
25771
25779
25787
25787
25779
25779
25795
25787
25795
25787
25787
25795
25795
25779
25803
25803
25787
25779
25787
25787
25803
25787
25779
25795
25787
25795
25787
25787
25795
25795
25795
25787
25795
25779
25787
25771
25787
25795
25803
25811
25787
25787
25795
25787
25787
25795
25795
25771
25787
25795
25787
25787
25787
25795
25795
25779
25795
25795
25787
25787
25795
25787
25795
25795
25787
25787
25787
25803
25795
25787
25763
25787
25787
25787
25787
25795
25779
25779
25795
25779
25795
25779
25795
25787
25787
25787
25795
25779
25787
25787
25795
25795
25787
25787
25803
25795
25787
25787
25779
25787
25771
25771
25779
25795
25779
25787
25787
25787
25779
25779
25771
25779
25779
25787
25787
25787
25787
25763
25779
25763
25771
25779
25779
25795
25779
25779
25779
25779
25771
25779
25779
25779
25763
25779
25771
25771
25779
25779
25787
25779
25779
25763
25779
25787
25771
25771
25779
25763
25787
25755
25771
25779
25779
25779
25787
25787
25779
25771
25787
25795
25795
25771
25779
25771
25787
25795
25771
25779
25771
25795
25787
25787
25771
25779
25787
25771
25787
25779
25779
25787
25779
25771
25787
25787
25779
25787
25787
25795
25787
25787
25779
25787
25795
25779
25787
25795
25779
25787
25795
25787
25787
25779
25779
25771
25795
25803
25795
25787
25787
25795
25795
25787
25795
25787
25787
25779
25779
25803
25795
25779
25795
25787
25787
25787
25795
25771
25795
25787
25795
25803
25787
25787
25787
25779
25787
25779
25795
25787
25787
25787
25787
25795
25795
25787
25779
25795
25795
25803
25779
25795
25795
25787
25795
25787
25795
25787
25779
25803
25787
25795
25755
25787
25787
25787
25795
25803
25795
25795
25787
25795
25779
25795
25779
25795
25787
25787
25779
25779
25795
25795
25787
25803
25787
25787
25795
25803
25787
25779
25795
25779
25779
25795
25779
25779
25779
25803
25779
25771
25779
25779
25779
25779
25787
25779
25779
25787
25771
25771
25779
25779
25779
25771
25771
25779
25787
25779
25787
25771
25779
25779
25771
25779
25779
25779
25779
25779
25779
25779
25787
25779
25763
25779
25779
25795
25771
25771
25779
25787
25779
25771
25779
25771
25787
25787
25779
25763
25787
25771
25795
25803
25787
25779
25779
25795
25779
25787
25787
25779
25787
25795
25787
25795
25795
25795
25811
25787
25795
25787
25787
25787
25795
25795
25779
25795
25795
25787
25787
25787
25803
25787
25795
25795
25795
25803
25787
25787
25795
25779
25795
25779
25811
25795
25787
25787
25803
25787
25787
25795
25795
25787
25795
25787
25795
25771
25795
25787
25787
25779
25787
25795
25795
25795
25787
25787
25795
25787
25803
25795
25795
25779
25779
25787
25795
25787
25787
25787
25787
25795
25795
25795
25787
