3191	 32991	 25715	 27
3191	 32983	 25715	 27
3192	 32983	 25723	 27
3192	 32975	 25723	 27
3193	 32975	 25731	 27
3193	 33000	 25731	 27
3193	 32983	 25731	 27
3194	 32991	 25739	 27
3193	 32983	 25731	 27
3194	 32991	 25739	 27
3192	 32967	 25723	 27
3194	 32975	 25739	 27
3195	 32991	 25747	 27
3193	 32983	 25731	 27
3193	 32975	 25731	 27
3194	 32983	 25739	 27
3192	 32967	 25723	 27
3194	 32983	 25739	 27
3195	 32967	 25747	 27
3193	 32991	 25731	 27
3194	 32975	 25739	 27
3194	 32991	 25739	 27
3193	 32983	 25731	 27
3194	 32991	 25739	 27
3195	 32991	 25747	 27
3196	 32975	 25755	 27
3194	 32991	 25739	 27
3193	 32983	 25731	 27
3195	 32983	 25747	 27
3197	 32991	 25763	 27
3194	 32991	 25739	 27
3197	 32991	 25763	 27
3196	 32983	 25755	 27
3195	 32983	 25747	 27
3195	 32975	 25747	 27
3194	 32967	 25739	 27
3194	 32983	 25739	 27
3196	 32991	 25755	 27
3196	 33000	 25755	 27
3196	 32983	 25755	 27
3195	 32991	 25747	 27
3196	 32991	 25755	 27
3197	 32983	 25763	 27
3196	 32991	 25755	 27
3196	 33000	 25755	 27
3195	 32975	 25747	 27
3197	 32991	 25763	 27
3197	 32991	 25763	 27
3198	 32991	 25771	 27
3196	 32975	 25755	 27
3196	 32975	 25755	 27
3197	 32967	 25763	 27
3196	 32991	 25755	 27
3196	 32983	 25755	 27
3194	 32991	 25739	 27
3196	 32983	 25755	 27
3196	 32983	 25755	 27
3194	 32983	 25739	 27
3198	 32991	 25771	 27
3197	 32991	 25763	 27
3197	 32983	 25763	 27
3198	 32983	 25771	 27
3196	 32991	 25755	 27
3196	 32983	 25755	 27
3196	 32983	 25755	 27
3195	 32975	 25747	 27
3194	 32983	 25739	 27
3198	 32983	 25771	 27
3197	 32975	 25763	 27
3194	 32983	 25739	 27
3197	 32991	 25763	 27
3195	 32991	 25747	 27
3198	 32983	 25771	 27
3196	 32975	 25755	 27
3197	 32975	 25763	 27
3198	 32991	 25771	 27
3198	 32967	 25771	 27
3195	 32991	 25747	 27
3195	 32991	 25747	 27
3198	 32975	 25771	 27
3197	 32967	 25763	 27
3197	 32983	 25763	 27
3197	 32975	 25763	 27
3197	 32991	 25763	 27
3197	 32975	 25763	 27
3194	 32991	 25739	 27
3196	 32983	 25755	 27
3194	 32975	 25739	 27
3197	 32975	 25763	 27
3197	 32983	 25763	 27
3194	 32983	 25739	 27
3194	 32975	 25739	 27
3194	 32975	 25739	 27
3195	 32975	 25747	 27
3197	 32991	 25763	 27
3196	 32983	 25755	 27
3196	 32983	 25755	 27
3195	 32975	 25747	 27
3196	 32983	 25755	 27
3193	 32983	 25731	 27
3196	 32975	 25755	 27
3197	 32967	 25763	 27
3198	 32983	 25771	 27
3199	 32983	 25779	 27
3196	 32983	 25755	 27
3198	 32991	 25771	 27
3197	 32975	 25763	 27
3196	 32983	 25755	 27
3198	 32983	 25771	 27
3195	 32975	 25747	 27
3197	 32975	 25763	 27
3195	 32967	 25747	 27
3197	 32967	 25763	 27
3197	 32983	 25763	 27
3196	 32983	 25755	 27
3196	 32983	 25755	 27
3198	 32983	 25771	 27
3196	 32967	 25755	 27
3197	 32975	 25763	 27
3197	 32967	 25763	 27
3197	 32975	 25763	 27
3196	 32991	 25755	 27
3197	 32983	 25763	 27
3195	 32991	 25747	 27
3197	 32975	 25763	 27
3197	 32975	 25763	 27
3197	 32967	 25763	 27
3196	 32975	 25755	 27
3195	 32975	 25747	 27
3196	 32975	 25755	 27
3197	 32967	 25763	 27
3196	 32975	 25755	 27
3198	 32967	 25771	 27
3196	 32991	 25755	 27
3196	 32967	 25755	 27
3195	 32983	 25747	 27
3197	 32967	 25763	 27
3195	 32967	 25747	 27
3197	 32967	 25763	 27
3198	 32975	 25771	 27
3197	 32975	 25763	 27
3197	 32911	 25763	 27
3194	 32975	 25739	 27
3197	 32967	 25763	 27
3196	 32983	 25755	 27
3197	 32975	 25763	 27
3197	 32967	 25763	 27
3196	 32983	 25755	 27
3196	 32967	 25755	 27
3197	 32991	 25763	 27
3197	 32959	 25763	 27
3197	 32975	 25763	 27
3195	 32975	 25747	 27
3195	 32975	 25747	 27
3199	 32975	 25779	 27
3196	 32983	 25755	 27
3196	 32967	 25755	 27
3196	 32967	 25755	 27
3198	 32983	 25771	 27
3198	 32983	 25771	 27
3196	 32975	 25755	 27
3197	 32975	 25763	 27
3197	 32967	 25763	 27
3197	 32975	 25763	 27
3197	 32983	 25763	 27
3196	 32975	 25755	 27
3196	 32975	 25755	 27
3196	 32959	 25755	 27
3196	 32959	 25755	 27
3196	 32975	 25755	 27
3196	 32967	 25755	 27
3197	 32975	 25763	 27
3198	 32991	 25771	 27
3198	 32975	 25771	 27
3198	 32959	 25771	 27
3197	 32975	 25763	 27
3196	 32991	 25755	 27
3197	 32983	 25763	 27
3196	 32975	 25755	 27
3197	 32983	 25763	 27
3198	 32975	 25771	 27
3198	 32975	 25771	 27
3199	 32983	 25779	 27
3198	 32975	 25771	 27
3200	 32975	 25787	 27
3197	 32967	 25763	 27
3197	 32983	 25763	 27
3198	 32983	 25771	 27
3197	 32983	 25763	 27
3197	 32983	 25763	 27
3199	 32959	 25779	 27
3197	 32975	 25763	 27
3198	 32967	 25771	 27
3198	 32991	 25771	 27
3198	 32975	 25771	 27
3199	 32975	 25779	 27
3198	 32983	 25771	 27
3198	 32975	 25771	 27
3198	 32967	 25771	 27
3194	 32983	 25739	 27
3197	 32983	 25763	 27
3197	 32983	 25763	 27
3196	 32967	 25755	 27
3199	 32983	 25779	 27
3197	 32983	 25763	 27
3198	 32975	 25771	 27
3196	 32983	 25755	 27
3197	 32983	 25763	 27
3199	 32983	 25779	 27
3197	 32983	 25763	 27
3198	 32967	 25771	 27
3197	 32975	 25763	 27
3198	 32991	 25771	 27
3197	 32975	 25763	 27
3198	 32991	 25771	 27
3198	 32983	 25771	 27
3198	 32983	 25771	 27
3197	 32983	 25763	 27
3198	 32983	 25771	 27
3198	 32983	 25771	 27
3198	 32983	 25771	 27
3198	 32983	 25771	 27
3198	 32983	 25771	 27
3198	 32975	 25771	 27
3198	 32975	 25771	 27
3197	 32983	 25763	 27
3199	 32983	 25779	 27
3197	 32975	 25763	 27
3195	 32975	 25747	 27
3198	 32967	 25771	 27
3195	 32975	 25747	 27
3198	 32991	 25771	 27
3197	 32943	 25763	 27
3198	 32983	 25771	 27
3198	 32975	 25771	 27
3198	 32983	 25771	 27
3199	 32967	 25779	 27
3198	 32983	 25771	 27
3198	 32967	 25771	 27
3198	 32975	 25771	 27
3198	 32991	 25771	 27
3198	 32983	 25771	 27
3200	 32991	 25787	 27
3198	 32975	 25771	 27
3197	 32975	 25763	 27
3192	 32975	 25723	 27
3198	 32991	 25771	 27
3199	 32991	 25779	 27
3199	 32991	 25779	 27
3197	 32983	 25763	 27
3199	 32991	 25779	 27
3197	 32983	 25763	 27
3199	 32983	 25779	 27
3198	 32983	 25771	 27
3199	 32983	 25779	 27
3201	 32991	 25795	 27
3197	 32983	 25763	 27
3198	 32983	 25771	 27
3198	 32991	 25771	 27
3199	 32983	 25779	 27
3200	 32991	 25787	 27
3198	 32991	 25771	 27
3198	 32983	 25771	 27
3199	 32983	 25779	 27
3199	 32991	 25779	 27
3198	 32983	 25771	 27
3199	 32983	 25779	 27
3201	 32991	 25795	 27
3198	 32991	 25771	 27
3200	 32983	 25787	 27
3200	 32967	 25787	 27
3199	 33000	 25779	 27
3197	 32975	 25763	 27
3200	 32991	 25787	 27
3200	 32983	 25787	 27
3200	 32991	 25787	 27
3199	 32991	 25779	 27
3200	 32983	 25787	 27
3199	 32983	 25779	 27
3199	 32975	 25779	 27
3201	 32959	 25795	 27
3197	 32983	 25763	 27
3201	 32983	 25795	 27
3198	 32983	 25771	 27
3200	 32959	 25787	 27
3200	 32991	 25787	 27
3199	 32991	 25779	 27
3200	 32975	 25787	 27
3202	 32991	 25803	 27
3198	 32975	 25771	 27
3200	 32983	 25787	 27
3198	 32983	 25771	 27
3200	 32983	 25787	 27
3198	 32975	 25771	 27
3198	 32991	 25771	 27
3198	 32975	 25771	 27
3199	 32991	 25779	 27
3197	 32991	 25763	 27
3200	 32983	 25787	 27
3200	 32983	 25787	 27
3199	 32975	 25779	 27
3200	 32983	 25787	 27
3199	 32983	 25779	 27
3201	 32991	 25795	 27
3199	 32975	 25779	 27
3199	 32991	 25779	 27
3199	 32983	 25779	 27
3198	 32983	 25771	 27
3200	 32991	 25787	 27
3199	 32983	 25779	 27
3200	 32983	 25787	 27
3200	 32983	 25787	 27
3199	 32991	 25779	 27
3200	 32983	 25787	 27
3200	 32991	 25787	 27
3198	 32983	 25771	 27
3200	 32991	 25787	 27
3201	 32983	 25795	 27
3200	 32983	 25787	 27
3199	 32975	 25779	 27
3199	 32975	 25779	 27
3201	 32983	 25795	 27
3201	 32991	 25795	 27
3197	 32983	 25763	 27
3200	 32983	 25787	 27
3199	 32983	 25779	 27
3199	 32983	 25779	 27
3199	 32983	 25779	 27
3201	 32991	 25795	 27
3200	 32983	 25787	 27
3200	 32983	 25787	 27
3200	 32975	 25787	 27
3199	 32991	 25779	 27
3200	 32983	 25787	 27
3200	 32983	 25787	 27
3199	 32983	 25779	 27
3200	 32983	 25787	 27
3201	 32975	 25795	 27
3201	 32991	 25795	 27
3199	 32983	 25779	 27
3200	 32983	 25787	 27
3200	 32983	 25787	 27
3200	 32983	 25787	 27
3201	 32991	 25795	 27
3198	 32983	 25771	 27
3199	 32975	 25779	 27
3198	 32991	 25771	 27
3198	 32967	 25771	 27
3198	 32975	 25771	 27
3198	 32983	 25771	 27
3197	 32983	 25763	 27
3198	 32983	 25771	 27
3200	 32991	 25787	 27
3199	 32975	 25779	 27
3198	 32983	 25771	 27
3200	 32975	 25787	 27
3198	 32991	 25771	 27
3199	 32983	 25779	 27
3199	 32967	 25779	 27
3200	 32983	 25787	 27
3199	 32975	 25779	 27
3200	 32983	 25787	 27
3197	 32991	 25763	 27
3199	 32991	 25779	 27
3200	 32983	 25787	 27
3200	 32983	 25787	 27
3200	 32991	 25787	 27
3200	 32991	 25787	 27
3198	 32983	 25771	 27
3198	 32983	 25771	 27
3200	 32991	 25787	 27
3200	 32983	 25787	 27
3199	 32983	 25779	 27
3199	 32983	 25779	 27
3199	 32983	 25779	 27
3199	 32983	 25779	 27
3200	 32983	 25787	 27
3199	 32991	 25779	 27
3200	 32983	 25787	 27
3198	 32983	 25771	 27
3200	 32975	 25787	 27
3198	 32983	 25771	 27
3199	 32975	 25779	 27
3200	 32991	 25787	 27
3199	 32975	 25779	 27
3200	 32975	 25787	 27
3200	 32967	 25787	 27
3200	 32975	 25787	 27
3200	 32967	 25787	 27
3199	 32967	 25779	 27
3199	 32967	 25779	 27
3199	 32975	 25779	 27
3199	 32983	 25779	 27
3199	 32975	 25779	 27
3199	 32975	 25779	 27
3198	 32967	 25771	 27
3198	 32983	 25771	 27
3198	 32967	 25771	 27
3201	 32983	 25795	 27
3199	 32975	 25779	 27
3201	 32975	 25795	 27
3196	 32967	 25755	 27
3199	 32975	 25779	 27
3198	 32983	 25771	 27
3198	 32991	 25771	 27
3199	 32983	 25779	 27
3198	 32975	 25771	 27
3199	 32975	 25779	 27
3198	 32983	 25771	 27
3199	 32967	 25779	 27
3199	 32975	 25779	 27
3198	 32975	 25771	 27
3199	 32983	 25779	 27
3199	 32983	 25779	 27
3199	 32983	 25779	 27
3198	 32983	 25771	 27
3197	 32967	 25763	 27
3199	 32967	 25779	 27
3201	 32983	 25795	 27
3200	 32975	 25787	 27
3200	 32975	 25787	 27
3200	 32967	 25787	 27
3200	 32983	 25787	 27
3198	 32983	 25771	 27
3198	 32967	 25771	 27
3198	 32983	 25771	 27
3199	 32983	 25779	 27
3200	 32967	 25787	 27
3199	 32983	 25779	 27
3199	 32983	 25779	 27
3200	 32975	 25787	 27
3198	 32975	 25771	 27
3197	 32967	 25763	 27
3197	 32975	 25763	 27
3200	 32975	 25787	 27
3199	 32983	 25779	 27
3198	 32975	 25771	 27
3199	 32975	 25779	 27
3197	 32967	 25763	 27
3199	 32975	 25779	 27
3201	 32975	 25795	 27
3198	 32983	 25771	 27
3199	 32975	 25779	 27
3200	 32983	 25787	 27
3200	 32983	 25787	 27
3200	 32983	 25787	 27
3199	 32967	 25779	 27
3198	 32967	 25771	 27
3199	 32967	 25779	 27
3199	 32975	 25779	 27
3199	 32991	 25779	 27
3199	 32975	 25779	 27
3198	 32983	 25771	 27
3198	 32991	 25771	 27
3200	 32983	 25787	 27
3198	 32967	 25771	 27
3197	 32983	 25763	 27
3199	 32991	 25779	 27
3199	 32983	 25779	 27
3198	 32975	 25771	 27
3199	 32983	 25779	 27
3198	 32975	 25771	 27
3197	 32975	 25763	 27
3198	 32991	 25771	 27
3197	 32967	 25763	 27
3200	 32991	 25787	 27
3200	 32975	 25787	 27
3199	 32967	 25779	 27
3201	 32975	 25795	 27
3198	 32975	 25771	 27
3199	 32991	 25779	 27
3200	 32983	 25787	 27
3199	 32983	 25779	 27
3198	 32983	 25771	 27
3201	 32983	 25795	 27
3200	 32983	 25787	 27
3199	 32983	 25779	 27
3198	 32967	 25771	 27
3200	 32983	 25787	 27
3200	 32983	 25787	 27
3198	 32975	 25771	 27
3199	 32975	 25779	 27
3199	 32983	 25779	 27
3197	 32959	 25763	 27
3199	 32983	 25779	 27
3198	 32991	 25771	 27
3198	 32967	 25771	 27
3200	 32991	 25787	 27
3199	 32983	 25779	 27
3197	 32959	 25763	 27
3201	 32991	 25795	 27
3200	 32983	 25787	 27
3200	 32975	 25787	 27
3200	 32975	 25787	 27
3200	 32975	 25787	 27
3201	 32991	 25795	 27
3200	 32975	 25787	 27
3201	 32975	 25795	 27
3198	 32983	 25771	 27
3199	 32967	 25779	 27
3197	 32983	 25763	 27
3200	 32975	 25787	 27
3199	 32983	 25779	 27
3200	 32991	 25787	 27
3200	 32983	 25787	 27
3200	 32983	 25787	 27
3199	 32975	 25779	 27
3199	 32967	 25779	 27
3199	 32975	 25779	 27
3200	 32983	 25787	 27
3200	 32975	 25787	 27
3200	 32959	 25787	 27
3199	 32967	 25779	 27
3200	 32991	 25787	 27
3199	 32975	 25779	 27
3200	 32983	 25787	 27
3200	 32983	 25787	 27
3199	 32983	 25779	 27
3200	 32983	 25787	 27
3199	 32983	 25779	 27
3199	 32983	 25779	 27
3200	 32991	 25787	 27
3199	 32983	 25779	 27
3200	 32991	 25787	 27
3200	 32975	 25787	 27
3198	 32983	 25771	 27
3200	 32975	 25787	 27
3200	 32983	 25787	 27
3200	 32975	 25787	 27
3201	 32983	 25795	 27
3201	 32991	 25795	 27
3201	 32983	 25795	 27
3200	 32983	 25787	 27
3202	 32991	 25803	 27
3199	 32983	 25779	 27
3200	 32959	 25787	 27
3199	 32991	 25779	 27
3199	 32991	 25779	 27
3200	 32983	 25787	 27
3199	 32975	 25779	 27
3201	 32991	 25795	 27
3200	 32983	 25787	 27
3200	 32991	 25787	 27
3201	 32983	 25795	 27
3200	 32983	 25787	 27
3201	 32991	 25795	 27
3200	 32991	 25787	 27
3203	 32991	 25811	 27
3199	 32991	 25779	 27
3200	 32975	 25787	 27
3201	 32991	 25795	 27
3201	 32983	 25795	 27
3201	 32967	 25795	 27
3202	 32975	 25803	 27
3200	 32975	 25787	 27
3201	 32991	 25795	 27
3200	 32991	 25787	 27
3197	 32991	 25763	 27
3202	 32983	 25803	 27
3200	 33000	 25787	 27
3200	 32983	 25787	 27
3200	 32991	 25787	 27
3201	 32983	 25795	 27
3200	 32975	 25787	 27
3200	 32991	 25787	 27
3202	 32983	 25803	 27
3201	 32975	 25795	 27
3198	 32991	 25771	 27
3202	 32991	 25803	 27
3202	 32983	 25803	 27
3200	 32991	 25787	 27
3202	 32975	 25803	 27
3201	 32983	 25795	 27
3201	 32983	 25795	 27
3200	 32991	 25787	 27
3200	 32991	 25787	 27
3200	 32991	 25787	 27
3202	 32991	 25803	 27
3201	 32991	 25795	 27
3202	 32983	 25803	 27
3201	 32991	 25795	 27
3202	 32983	 25803	 27
3200	 32991	 25787	 27
3201	 32975	 25795	 27
3197	 32983	 25763	 27
3201	 32991	 25795	 27
3201	 32991	 25795	 27
3201	 32975	 25795	 27
3201	 32975	 25795	 27
3203	 32975	 25811	 27
3201	 32983	 25795	 27
3201	 32991	 25795	 27
3199	 32983	 25779	 27
3202	 32975	 25803	 27
3200	 32983	 25787	 27
3201	 32991	 25795	 27
3201	 32983	 25795	 27
3200	 32983	 25787	 27
3201	 32983	 25795	 27
3203	 32991	 25811	 27
3200	 32991	 25787	 27
3199	 32991	 25779	 27
3202	 32991	 25803	 27
3200	 32967	 25787	 27
3202	 32983	 25803	 27
3201	 32983	 25795	 27
3201	 32991	 25795	 27
3201	 32975	 25795	 27
3199	 32983	 25779	 27
3199	 32983	 25779	 27
3201	 32983	 25795	 27
3201	 32991	 25795	 27
3202	 32975	 25803	 27
3200	 32975	 25787	 27
3201	 32991	 25795	 27
3199	 32991	 25779	 27
3201	 32975	 25795	 27
3200	 32983	 25787	 27
3200	 32991	 25787	 27
3200	 32983	 25787	 27
3201	 32975	 25795	 27
3201	 32975	 25795	 27
3200	 32975	 25787	 27
3199	 32975	 25779	 27
3200	 32983	 25787	 27
3203	 32975	 25811	 27
3202	 32991	 25803	 27
3201	 32983	 25795	 27
3202	 32983	 25803	 27
3202	 32983	 25803	 27
3200	 32983	 25787	 27
3201	 32975	 25795	 27
3200	 33000	 25787	 27
3201	 32975	 25795	 27
3199	 32983	 25779	 27
3200	 32991	 25787	 27
3200	 32983	 25787	 27
3201	 32991	 25795	 27
3203	 32991	 25811	 27
3200	 32975	 25787	 27
3200	 32983	 25787	 27
3203	 32991	 25811	 27
3199	 32983	 25779	 27
3201	 32983	 25795	 27
3199	 33000	 25779	 27
3201	 32991	 25795	 27
3201	 32983	 25795	 27
3200	 33000	 25787	 27
3200	 32975	 25787	 27
3199	 32983	 25779	 27
3202	 32975	 25803	 27
3201	 32983	 25795	 27
3198	 32967	 25771	 27
3201	 33000	 25795	 27
3199	 32975	 25779	 27
3200	 32975	 25787	 27
3203	 32975	 25811	 27
3200	 32983	 25787	 27
3201	 32975	 25795	 27
3201	 32975	 25795	 27
3201	 32975	 25795	 27
3199	 32983	 25779	 27
3201	 32991	 25795	 27
3200	 32983	 25787	 27
3201	 32975	 25795	 27
3202	 32991	 25803	 27
3201	 32983	 25795	 27
3202	 32983	 25803	 27
3200	 32983	 25787	 27
3200	 32975	 25787	 27
3202	 32975	 25803	 27
3201	 32975	 25795	 27
3201	 32983	 25795	 27
3199	 32983	 25779	 27
3200	 32975	 25787	 27
3200	 32975	 25787	 27
3201	 32975	 25795	 27
3201	 32975	 25795	 27
3201	 32983	 25795	 27
3198	 32991	 25771	 27
3200	 32975	 25787	 27
3201	 32991	 25795	 27
3200	 32975	 25787	 27
3199	 32983	 25779	 27
3200	 32991	 25787	 27
3200	 32991	 25787	 27
3201	 32975	 25795	 27
3199	 32975	 25779	 27
3200	 32983	 25787	 27
3202	 32975	 25803	 27
3200	 32967	 25787	 27
3200	 32975	 25787	 27
3199	 32983	 25779	 27
3200	 32959	 25787	 27
3199	 32991	 25779	 27
3202	 32983	 25803	 27
3198	 32983	 25771	 27
3199	 32983	 25779	 27
3201	 32983	 25795	 27
3201	 32975	 25795	 27
3199	 32983	 25779	 27
3201	 32983	 25795	 27
3200	 32991	 25787	 27
3200	 32991	 25787	 27
3200	 32975	 25787	 27
3200	 32959	 25787	 27
3200	 32975	 25787	 27
3200	 32983	 25787	 27
3199	 32967	 25779	 27
3200	 32959	 25787	 27
3197	 32983	 25763	 27
3200	 32983	 25787	 27
3202	 32967	 25803	 27
3198	 32983	 25771	 27
3200	 32983	 25787	 27
3198	 32975	 25771	 27
3198	 32975	 25771	 27
3200	 32975	 25787	 27
3199	 32983	 25779	 27
3199	 32983	 25779	 27
3200	 32967	 25787	 27
3200	 32975	 25787	 27
3199	 32975	 25779	 27
3201	 32975	 25795	 27
3200	 32975	 25787	 27
3198	 32983	 25771	 27
3200	 32959	 25787	 27
3201	 32967	 25795	 27
3199	 32975	 25779	 27
3198	 32983	 25771	 27
3200	 32975	 25787	 27
3200	 32983	 25787	 27
3202	 32967	 25803	 27
3200	 32975	 25787	 27
3200	 32975	 25787	 27
3200	 32967	 25787	 27
3200	 32967	 25787	 27
3198	 32983	 25771	 27
3201	 32975	 25795	 27
3199	 32959	 25779	 27
3200	 32975	 25787	 27
3199	 32983	 25779	 27
3200	 32991	 25787	 27
3199	 32983	 25779	 27
3199	 32983	 25779	 27
3200	 32983	 25787	 27
3199	 32967	 25779	 27
3201	 32975	 25795	 27
3201	 32983	 25795	 27
3200	 32967	 25787	 27
3202	 32983	 25803	 27
3199	 32967	 25779	 27
3201	 32983	 25795	 27
3199	 32991	 25779	 27
3200	 32983	 25787	 27
3198	 32959	 25771	 27
3202	 32983	 25803	 27
3199	 32975	 25779	 27
3200	 32967	 25787	 27
3200	 32983	 25787	 27
3198	 32983	 25771	 27
3199	 32991	 25779	 27
3200	 32983	 25787	 27
3200	 32967	 25787	 27
3203	 32975	 25811	 27
3199	 32975	 25779	 27
3201	 32975	 25795	 27
3201	 32967	 25795	 27
3201	 32983	 25795	 27
3199	 32983	 25779	 27
3199	 32975	 25779	 27
3200	 32975	 25787	 27
3199	 32959	 25779	 27
3201	 32983	 25795	 27
3199	 32975	 25779	 27
3201	 32975	 25795	 27
3201	 32983	 25795	 27
3198	 32967	 25771	 27
3200	 32975	 25787	 27
3201	 32975	 25795	 27
3200	 32983	 25787	 27
3198	 32967	 25771	 27
3199	 32967	 25779	 27
3199	 32975	 25779	 27
3199	 32975	 25779	 27
3199	 32991	 25779	 27
3200	 32975	 25787	 27
3198	 32975	 25771	 27
3200	 32991	 25787	 27
3200	 32983	 25787	 27
3197	 32975	 25763	 27
3200	 32975	 25787	 27
3202	 32983	 25803	 27
3200	 32983	 25787	 27
3200	 32983	 25787	 27
3199	 32983	 25779	 27
3198	 32975	 25771	 27
3199	 32975	 25779	 27
3200	 32983	 25787	 27
3201	 32983	 25795	 27
3200	 32983	 25787	 27
3201	 32967	 25795	 27
3201	 32975	 25795	 27
3200	 32983	 25787	 27
3201	 32967	 25795	 27
3199	 32967	 25779	 27
3202	 32975	 25803	 27
3198	 32975	 25771	 27
3199	 32983	 25779	 27
3200	 32975	 25787	 27
3200	 32975	 25787	 27
3202	 32967	 25803	 27
3201	 32983	 25795	 27
3199	 32975	 25779	 27
3201	 32975	 25795	 27
3199	 33000	 25779	 27
3199	 32991	 25779	 27
3201	 32975	 25795	 27
3199	 32983	 25779	 27
3202	 32991	 25803	 27
3200	 32975	 25787	 27
3200	 32975	 25787	 27
3200	 32975	 25787	 27
3200	 32975	 25787	 27
3201	 32983	 25795	 27
3201	 32967	 25795	 27
3200	 32959	 25787	 27
3201	 32991	 25795	 27
3201	 32991	 25795	 27
3201	 32991	 25795	 27
3201	 32983	 25795	 27
3201	 32983	 25795	 27
3200	 32983	 25787	 27
3201	 33000	 25795	 27
3200	 33000	 25787	 27
3202	 32983	 25803	 27
3200	 32991	 25787	 27
3202	 32983	 25803	 27
3199	 32991	 25779	 27
3201	 32975	 25795	 27
3198	 32983	 25771	 27
3200	 32975	 25787	 27
3200	 32983	 25787	 27
3201	 32983	 25795	 27
3200	 32959	 25787	 27
3201	 32991	 25795	 27
3200	 32991	 25787	 27
3199	 32967	 25779	 27
3201	 32967	 25795	 27
3201	 32975	 25795	 27
3200	 32991	 25787	 27
3199	 32983	 25779	 27
3201	 32991	 25795	 27
3199	 32991	 25779	 27
3201	 32983	 25795	 27
3203	 32983	 25811	 27
3200	 32983	 25787	 27
3202	 32991	 25803	 27
3200	 32975	 25787	 27
3201	 32983	 25795	 27
3200	 32983	 25787	 27
3200	 32975	 25787	 27
3201	 32983	 25795	 27
3201	 32991	 25795	 27
3200	 32983	 25787	 27
3200	 32991	 25787	 27
3200	 32983	 25787	 27
3201	 32983	 25795	 27
3202	 32983	 25803	 27
3201	 32975	 25795	 27
3201	 32983	 25795	 27
3200	 32983	 25787	 27
3201	 32975	 25795	 27
3200	 32991	 25787	 27
3200	 32991	 25787	 27
3202	 32983	 25803	 27
3200	 32991	 25787	 27
3202	 32983	 25803	 27
3200	 32983	 25787	 27
3200	 32975	 25787	 27
3201	 32983	 25795	 27
3203	 32983	 25811	 27
3200	 32983	 25787	 27
3200	 32991	 25787	 27
3200	 32991	 25787	 27
3201	 32983	 25795	 27
3200	 32983	 25787	 27
3201	 32975	 25795	 27
3201	 32983	 25795	 27
3202	 32983	 25803	 27
3201	 32991	 25795	 27
3202	 32991	 25803	 27
3201	 32983	 25795	 27
3204	 32983	 25819	 27
3200	 32983	 25787	 27
3200	 32983	 25787	 27
3201	 32983	 25795	 27
3202	 32991	 25803	 27
3200	 32991	 25787	 27
3203	 32991	 25811	 27
3202	 32983	 25803	 27
3201	 32983	 25795	 27
3201	 32983	 25795	 27
3201	 32991	 25795	 27
3201	 32983	 25795	 27
3201	 32983	 25795	 27
3202	 32983	 25803	 27
3202	 32975	 25803	 27
3203	 32983	 25811	 27
3200	 32991	 25787	 27
3201	 32983	 25795	 27
3200	 32983	 25787	 27
3202	 32991	 25803	 27
3201	 32983	 25795	 27
3201	 32975	 25795	 27
3201	 32967	 25795	 27
3198	 32967	 25771	 27
3203	 33000	 25811	 27
3201	 32983	 25795	 27
3201	 32991	 25795	 27
3200	 32983	 25787	 27
3199	 32991	 25779	 27
3203	 32983	 25811	 27
3202	 32983	 25803	 27
3200	 32967	 25787	 27
3202	 32983	 25803	 27
3202	 32975	 25803	 27
3200	 32967	 25787	 27
3201	 32991	 25795	 27
3202	 32983	 25803	 27
3201	 32983	 25795	 27
3202	 32983	 25803	 27
3200	 32991	 25787	 27
3201	 32991	 25795	 27
3202	 32983	 25803	 27
3201	 32975	 25795	 27
3201	 32975	 25795	 27
3202	 32983	 25803	 27
3201	 32991	 25795	 27
3202	 32975	 25803	 27
3202	 32983	 25803	 27
3201	 32983	 25795	 27
3204	 32975	 25819	 27
3201	 32983	 25795	 27
3202	 32983	 25803	 27
3199	 32991	 25779	 27
3202	 32951	 25803	 27
3200	 32983	 25787	 27
3202	 32991	 25803	 27
3204	 32983	 25819	 27
3201	 32991	 25795	 27
3201	 32975	 25795	 27
3201	 32991	 25795	 27
3199	 32983	 25779	 27
3201	 32991	 25795	 27
3201	 32991	 25795	 27
3202	 32983	 25803	 27
3203	 32975	 25811	 27
3202	 32983	 25803	 27
3202	 32983	 25803	 27
3202	 33000	 25803	 27
3200	 32983	 25787	 27
3201	 32983	 25795	 27
3199	 32983	 25779	 27
3203	 32983	 25811	 27
3200	 32975	 25787	 27
3201	 32983	 25795	 27
3202	 32967	 25803	 27
3202	 32983	 25803	 27
3200	 32983	 25787	 27
3200	 32983	 25787	 27
3202	 32991	 25803	 27
3200	 32983	 25787	 27
3200	 32991	 25787	 27
3202	 32967	 25803	 27
3201	 32983	 25795	 27
3201	 32991	 25795	 27
3201	 32975	 25795	 27
3201	 32975	 25795	 27
3200	 32991	 25787	 27
3199	 32975	 25779	 27
3201	 32991	 25795	 27
3202	 32983	 25803	 27
3200	 32975	 25787	 27
3200	 32975	 25787	 27
3202	 32983	 25803	 27
3201	 32967	 25795	 27
3200	 32991	 25787	 27
3201	 32991	 25795	 27
3202	 32983	 25803	 27
3200	 32983	 25787	 27
3200	 32975	 25787	 27
3202	 32967	 25803	 27
3203	 32975	 25811	 27
3199	 32983	 25779	 27
3201	 32991	 25795	 27
3202	 32983	 25803	 27
3200	 32975	 25787	 27
3200	 32975	 25787	 27
3202	 32975	 25803	 27
