3216	 32967	 25916	 34
3217	 32983	 25924	 34
3217	 32983	 25924	 34
3217	 32983	 25924	 34
3215	 32991	 25908	 34
3216	 32991	 25916	 34
3217	 32991	 25924	 34
3217	 32991	 25924	 34
3216	 32975	 25916	 34
3216	 32983	 25916	 34
3217	 32959	 25924	 34
3216	 32967	 25916	 34
3218	 32983	 25932	 34
3216	 32991	 25916	 34
3215	 32975	 25908	 34
3216	 32983	 25916	 34
3216	 32983	 25916	 34
3216	 32967	 25916	 34
3217	 32983	 25924	 34
3216	 32991	 25916	 34
3216	 32967	 25916	 34
3218	 32991	 25932	 34
3215	 32983	 25908	 34
3217	 32983	 25924	 34
3217	 32919	 25924	 34
3217	 32991	 25924	 34
3217	 32975	 25924	 34
3215	 32975	 25908	 34
3215	 32967	 25908	 34
3217	 32975	 25924	 34
3216	 32991	 25916	 34
3217	 32967	 25924	 34
3215	 32991	 25908	 34
3215	 32983	 25908	 34
3217	 32975	 25924	 34
3217	 32983	 25924	 34
3217	 32975	 25924	 34
3220	 32975	 25948	 34
3217	 32991	 25924	 34
3216	 32983	 25916	 34
3218	 32967	 25932	 34
3217	 32983	 25924	 34
3216	 32991	 25916	 34
3216	 32991	 25916	 34
3219	 32991	 25940	 34
3218	 32983	 25932	 34
3216	 32975	 25916	 34
3216	 32991	 25916	 34
3215	 32983	 25908	 34
3216	 32983	 25916	 34
3214	 32991	 25900	 34
3218	 32967	 25932	 34
3216	 32983	 25916	 34
3217	 32983	 25924	 34
3217	 32975	 25924	 34
3215	 32967	 25908	 34
3217	 32991	 25924	 34
3217	 32975	 25924	 34
3217	 32975	 25924	 34
3217	 32983	 25924	 34
3217	 32983	 25924	 34
3216	 32967	 25916	 34
3216	 32975	 25916	 34
3215	 32975	 25908	 34
3215	 32967	 25908	 34
3216	 32983	 25916	 34
3215	 32975	 25908	 34
3218	 32991	 25932	 34
3217	 32975	 25924	 34
3218	 32983	 25932	 34
3215	 32975	 25908	 34
3216	 32983	 25916	 34
3215	 32959	 25908	 34
3216	 32967	 25916	 34
3216	 32967	 25916	 34
3216	 32983	 25916	 34
3217	 32967	 25924	 34
3217	 32975	 25924	 34
3218	 32991	 25932	 34
3218	 32983	 25932	 34
3217	 32967	 25924	 34
3215	 32959	 25908	 34
3218	 32983	 25932	 34
3217	 32975	 25924	 34
3216	 32975	 25916	 34
3214	 32975	 25900	 34
3215	 32975	 25908	 34
3216	 32975	 25916	 34
3215	 32975	 25908	 34
3216	 32959	 25916	 34
3218	 32975	 25932	 34
3218	 32983	 25932	 34
3214	 32983	 25900	 34
3216	 32983	 25916	 34
3217	 32975	 25924	 34
3216	 32975	 25916	 34
3218	 32983	 25932	 34
3215	 32983	 25908	 34
3215	 32991	 25908	 34
3217	 32983	 25924	 34
3217	 32983	 25924	 34
3217	 32983	 25924	 34
3218	 32983	 25932	 34
3215	 32975	 25908	 34
3215	 32967	 25908	 34
3217	 32991	 25924	 34
3215	 32975	 25908	 34
3216	 32967	 25916	 34
3213	 32975	 25892	 34
3213	 32975	 25892	 34
3215	 32975	 25908	 34
3214	 32983	 25900	 34
3214	 32975	 25900	 34
3217	 32967	 25924	 34
3213	 32959	 25892	 34
3215	 32991	 25908	 34
3213	 32975	 25892	 34
3216	 32975	 25916	 34
3215	 32967	 25908	 34
3215	 32983	 25908	 34
3215	 32983	 25908	 34
3216	 32975	 25916	 34
3215	 32959	 25908	 34
3215	 32975	 25908	 34
3216	 32983	 25916	 34
3215	 32975	 25908	 34
3216	 32975	 25916	 34
3215	 32991	 25908	 34
3214	 32975	 25900	 34
3216	 32975	 25916	 34
3216	 32967	 25916	 34
3216	 32967	 25916	 34
3216	 32991	 25916	 34
3216	 32975	 25916	 34
3216	 32991	 25916	 34
3213	 32983	 25892	 34
3217	 32991	 25924	 34
3216	 32975	 25916	 34
3216	 32983	 25916	 34
3214	 32975	 25900	 34
3217	 32983	 25924	 34
3215	 32975	 25908	 34
3214	 32983	 25900	 34
3216	 32983	 25916	 34
3216	 32983	 25916	 34
3214	 32975	 25900	 34
3214	 32983	 25900	 34
3215	 32967	 25908	 34
3213	 32959	 25892	 34
3215	 32983	 25908	 34
3216	 32975	 25916	 34
3218	 32983	 25932	 34
3214	 32983	 25900	 34
3213	 32983	 25892	 34
3217	 32975	 25924	 34
3214	 32983	 25900	 34
3217	 32983	 25924	 34
3218	 32983	 25932	 34
3214	 32983	 25900	 34
3215	 32975	 25908	 34
3214	 32983	 25900	 34
3216	 32975	 25916	 34
3217	 32983	 25924	 34
3215	 32991	 25908	 34
3213	 32983	 25892	 34
3216	 32959	 25916	 34
3216	 32975	 25916	 34
3216	 32991	 25916	 34
3218	 32983	 25932	 34
3215	 32967	 25908	 34
3213	 32975	 25892	 34
3215	 32975	 25908	 34
3215	 32975	 25908	 34
3216	 32991	 25916	 34
3213	 32983	 25892	 34
3214	 32983	 25900	 34
3215	 32975	 25908	 34
3215	 32967	 25908	 34
3217	 32975	 25924	 34
3216	 32983	 25916	 34
3217	 32975	 25924	 34
3215	 32983	 25908	 34
3215	 32983	 25908	 34
3216	 32975	 25916	 34
3215	 32975	 25908	 34
3217	 32983	 25924	 34
3213	 32967	 25892	 34
3213	 32975	 25892	 34
3215	 32967	 25908	 34
3213	 32975	 25892	 34
3214	 32975	 25900	 34
3215	 32967	 25908	 34
3216	 32991	 25916	 34
3213	 32967	 25892	 34
3216	 32967	 25916	 34
3215	 32975	 25908	 34
3216	 32967	 25916	 34
3217	 32967	 25924	 34
3212	 32983	 25884	 34
3216	 32983	 25916	 34
3213	 32967	 25892	 34
3215	 32975	 25908	 34
3217	 32975	 25924	 34
3217	 32975	 25924	 34
3216	 32975	 25916	 34
3215	 32975	 25908	 34
3216	 32983	 25916	 34
3216	 32975	 25916	 34
3214	 32975	 25900	 34
3216	 32991	 25916	 34
3214	 32967	 25900	 34
3217	 32967	 25924	 34
3216	 32991	 25916	 34
3216	 32975	 25916	 34
3215	 32975	 25908	 34
3216	 32983	 25916	 34
3216	 32959	 25916	 34
3217	 32959	 25924	 34
3216	 32967	 25916	 34
3212	 32967	 25884	 34
3216	 32975	 25916	 34
3215	 32975	 25908	 34
3215	 32975	 25908	 34
3216	 32967	 25916	 34
3214	 32983	 25900	 34
3216	 32967	 25916	 34
3216	 32975	 25916	 34
3216	 32975	 25916	 34
3214	 32975	 25900	 34
3215	 32983	 25908	 34
3215	 32983	 25908	 34
3215	 32959	 25908	 34
3215	 32975	 25908	 34
3215	 32975	 25908	 34
3214	 32983	 25900	 34
3216	 32991	 25916	 34
3216	 32975	 25916	 34
3216	 32991	 25916	 34
3215	 32991	 25908	 34
3215	 32983	 25908	 34
3215	 32975	 25908	 34
3213	 32975	 25892	 34
3216	 32983	 25916	 34
3218	 32959	 25932	 34
3212	 32975	 25884	 34
3216	 32975	 25916	 34
3215	 32975	 25908	 34
3215	 32959	 25908	 34
3213	 32975	 25892	 34
3216	 32983	 25916	 34
3214	 32983	 25900	 34
3216	 32991	 25916	 34
3216	 32975	 25916	 34
3214	 32967	 25900	 34
3215	 32975	 25908	 34
3212	 32967	 25884	 34
3216	 32983	 25916	 34
3216	 32975	 25916	 34
3215	 32975	 25908	 34
3216	 32975	 25916	 34
3214	 32959	 25900	 34
3216	 32983	 25916	 34
3216	 32983	 25916	 34
3214	 32975	 25900	 34
3216	 32983	 25916	 34
3216	 32983	 25916	 34
3216	 32983	 25916	 34
3214	 32983	 25900	 34
3216	 32983	 25916	 34
3216	 32967	 25916	 34
3217	 32983	 25924	 34
3216	 32983	 25916	 34
3214	 32975	 25900	 34
3214	 32967	 25900	 34
3215	 32967	 25908	 34
3216	 32991	 25916	 34
3216	 32959	 25916	 34
3216	 32975	 25916	 34
3213	 32983	 25892	 34
3215	 32967	 25908	 34
3215	 32975	 25908	 34
3216	 32983	 25916	 34
3216	 32991	 25916	 34
3216	 32983	 25916	 34
3216	 32991	 25916	 34
3214	 32975	 25900	 34
3217	 32983	 25924	 34
3216	 32983	 25916	 34
3216	 32967	 25916	 34
3216	 32983	 25916	 34
3215	 32975	 25908	 34
3215	 32967	 25908	 34
3215	 32967	 25908	 34
3216	 32983	 25916	 34
3215	 32983	 25908	 34
3216	 32975	 25916	 34
3215	 32975	 25908	 34
3215	 32967	 25908	 34
3215	 32975	 25908	 34
3215	 32983	 25908	 34
3215	 32983	 25908	 34
3215	 32983	 25908	 34
3214	 32975	 25900	 34
3214	 32983	 25900	 34
3215	 32975	 25908	 34
3216	 32983	 25916	 34
3215	 32975	 25908	 34
3215	 32975	 25908	 34
3213	 32991	 25892	 34
3215	 32975	 25908	 34
3215	 32983	 25908	 34
3215	 32975	 25908	 34
3215	 32975	 25908	 34
3214	 32967	 25900	 34
3216	 32983	 25916	 34
3216	 32975	 25916	 34
3212	 32983	 25884	 34
3216	 32967	 25916	 34
3216	 32975	 25916	 34
3215	 32967	 25908	 34
3214	 32975	 25900	 34
3216	 32975	 25916	 34
3215	 32975	 25908	 34
3218	 32983	 25932	 34
3216	 32975	 25916	 34
3215	 32975	 25908	 34
3216	 32975	 25916	 34
3214	 32967	 25900	 34
3217	 32967	 25924	 34
3215	 32967	 25908	 34
3215	 32983	 25908	 34
3217	 32991	 25924	 34
3216	 32975	 25916	 34
3215	 32975	 25908	 34
3214	 32975	 25900	 34
3216	 32967	 25916	 34
3214	 32975	 25900	 34
3215	 32975	 25908	 34
3215	 32975	 25908	 34
3216	 32975	 25916	 34
3213	 32975	 25892	 34
3216	 32983	 25916	 34
3215	 32983	 25908	 34
3217	 32991	 25924	 34
3215	 32983	 25908	 34
3215	 32967	 25908	 34
3215	 32991	 25908	 34
3215	 32991	 25908	 34
3215	 32967	 25908	 34
3213	 32975	 25892	 34
3214	 32967	 25900	 34
3215	 32983	 25908	 34
3216	 32975	 25916	 34
3216	 32983	 25916	 34
3215	 32967	 25908	 34
3216	 32975	 25916	 34
3214	 32975	 25900	 34
3213	 32975	 25892	 34
3216	 32967	 25916	 34
3216	 32983	 25916	 34
3216	 32983	 25916	 34
3214	 32975	 25900	 34
3215	 32991	 25908	 34
3215	 32975	 25908	 34
3216	 32991	 25916	 34
3215	 32983	 25908	 34
3214	 32983	 25900	 34
3214	 32983	 25900	 34
3216	 32967	 25916	 34
3215	 32975	 25908	 34
3215	 32975	 25908	 34
3214	 32975	 25900	 34
3216	 32975	 25916	 34
3216	 32983	 25916	 34
3213	 32975	 25892	 34
3215	 32975	 25908	 34
3216	 32983	 25916	 34
3213	 32967	 25892	 34
3215	 32975	 25908	 34
3216	 32975	 25916	 34
3216	 32951	 25916	 34
3213	 32983	 25892	 34
3215	 32983	 25908	 34
3214	 32983	 25900	 34
3216	 32983	 25916	 34
3216	 32975	 25916	 34
3214	 32967	 25900	 34
3214	 32959	 25900	 34
3214	 32983	 25900	 34
3215	 32975	 25908	 34
3215	 32983	 25908	 34
3216	 32983	 25916	 34
3216	 32983	 25916	 34
3214	 32975	 25900	 34
3213	 32967	 25892	 34
3215	 32991	 25908	 34
3215	 32983	 25908	 34
3216	 32975	 25916	 34
3216	 32975	 25916	 34
3216	 32967	 25916	 34
3216	 32983	 25916	 34
3217	 32991	 25924	 34
3215	 32983	 25908	 34
3215	 32983	 25908	 34
3214	 32975	 25900	 34
3216	 32975	 25916	 34
3214	 32975	 25900	 34
3216	 32975	 25916	 34
3214	 32983	 25900	 34
3216	 32975	 25916	 34
3216	 32975	 25916	 34
3215	 32983	 25908	 34
3215	 32983	 25908	 34
3218	 32983	 25932	 34
3214	 32975	 25900	 34
3216	 32991	 25916	 34
3216	 32983	 25916	 34
3216	 32975	 25916	 34
3216	 32975	 25916	 34
3216	 32975	 25916	 34
3214	 32983	 25900	 34
3215	 32983	 25908	 34
3215	 32983	 25908	 34
3216	 32991	 25916	 34
3214	 32991	 25900	 34
3215	 32983	 25908	 34
3216	 32967	 25916	 34
3215	 32967	 25908	 34
3215	 32983	 25908	 34
3214	 32983	 25900	 34
3215	 32967	 25908	 34
3214	 32983	 25900	 34
3215	 32983	 25908	 34
3215	 32983	 25908	 34
3216	 32983	 25916	 34
3216	 32975	 25916	 34
3213	 32983	 25892	 34
3215	 32975	 25908	 34
3213	 32983	 25892	 34
3216	 32967	 25916	 34
3215	 32959	 25908	 34
3215	 32983	 25908	 34
3216	 32983	 25916	 34
3214	 32975	 25900	 34
3218	 32983	 25932	 34
3217	 32991	 25924	 34
3215	 32983	 25908	 34
3216	 32983	 25916	 34
3217	 32975	 25924	 34
3215	 32983	 25908	 34
3215	 32983	 25908	 34
3213	 32983	 25892	 34
3216	 32967	 25916	 34
3214	 32983	 25900	 34
3215	 32967	 25908	 34
3216	 32975	 25916	 34
3216	 32991	 25916	 34
3216	 32967	 25916	 34
3215	 32983	 25908	 34
3215	 32983	 25908	 34
3214	 32983	 25900	 34
3216	 32975	 25916	 34
3215	 32991	 25908	 34
3215	 32967	 25908	 34
3216	 32975	 25916	 34
3215	 32975	 25908	 34
3214	 32991	 25900	 34
3214	 32983	 25900	 34
3215	 32975	 25908	 34
3215	 32967	 25908	 34
3218	 32991	 25932	 34
3216	 32991	 25916	 34
3214	 32975	 25900	 34
3215	 32983	 25908	 34
3216	 32983	 25916	 34
3215	 32991	 25908	 34
3214	 32983	 25900	 34
3215	 32975	 25908	 34
3215	 32983	 25908	 34
3215	 32991	 25908	 34
3218	 32991	 25932	 34
3215	 32991	 25908	 34
3216	 32991	 25916	 34
3217	 32983	 25924	 34
3217	 32975	 25924	 34
3215	 32967	 25908	 34
3215	 32991	 25908	 34
3218	 32967	 25932	 34
3215	 32975	 25908	 34
3215	 32983	 25908	 34
3215	 32983	 25908	 34
3216	 32975	 25916	 34
3214	 32975	 25900	 34
3216	 32983	 25916	 34
3216	 32975	 25916	 34
3216	 32991	 25916	 34
3217	 32983	 25924	 34
3214	 32975	 25900	 34
3216	 32983	 25916	 34
3215	 32975	 25908	 34
3216	 32983	 25916	 34
3216	 32975	 25916	 34
3215	 32983	 25908	 34
3216	 32983	 25916	 34
3215	 32983	 25908	 34
3215	 32983	 25908	 34
3215	 32991	 25908	 34
3215	 32975	 25908	 34
3216	 32991	 25916	 34
3216	 32991	 25916	 34
3214	 32991	 25900	 34
3216	 32983	 25916	 34
3215	 32991	 25908	 34
3215	 32983	 25908	 34
3217	 32991	 25924	 34
3215	 32983	 25908	 34
3213	 32975	 25892	 34
3214	 32983	 25900	 34
3217	 32967	 25924	 34
3217	 32983	 25924	 34
3215	 32983	 25908	 34
3217	 32991	 25924	 34
3216	 32975	 25916	 34
3216	 32975	 25916	 34
3217	 32991	 25924	 34
3216	 32991	 25916	 34
3216	 32983	 25916	 34
3216	 32991	 25916	 34
3217	 32991	 25924	 34
3215	 32983	 25908	 34
3217	 32975	 25924	 34
3215	 32983	 25908	 34
3215	 32983	 25908	 34
3216	 32991	 25916	 34
3216	 32975	 25916	 34
3218	 32983	 25932	 34
3217	 32983	 25924	 34
3216	 32983	 25916	 34
3216	 32983	 25916	 34
3219	 32991	 25940	 34
3217	 32983	 25924	 34
3216	 32991	 25916	 34
3214	 32975	 25900	 34
3216	 32983	 25916	 34
3217	 32983	 25924	 34
3214	 32983	 25900	 34
3216	 32983	 25916	 34
3215	 32983	 25908	 34
3216	 32975	 25916	 34
3216	 32975	 25916	 34
3216	 32975	 25916	 34
3216	 32991	 25916	 34
3216	 32983	 25916	 34
3216	 32983	 25916	 34
3216	 32983	 25916	 34
3217	 32991	 25924	 34
3216	 32991	 25916	 34
3214	 32983	 25900	 34
3218	 32991	 25932	 34
3216	 32983	 25916	 34
3214	 32983	 25900	 34
3217	 32983	 25924	 34
3216	 32975	 25916	 34
3217	 32983	 25924	 34
3216	 32983	 25916	 34
3218	 32983	 25932	 34
3217	 32991	 25924	 34
3217	 32983	 25924	 34
3217	 32967	 25924	 34
3215	 33000	 25908	 34
3214	 32975	 25900	 34
3219	 32991	 25940	 34
3217	 32983	 25924	 34
3215	 32983	 25908	 34
3217	 32991	 25924	 34
3214	 32991	 25900	 34
3216	 32991	 25916	 34
3216	 32991	 25916	 34
3216	 32983	 25916	 34
3216	 32975	 25916	 34
3216	 32967	 25916	 34
3217	 32983	 25924	 34
3217	 32983	 25924	 34
3213	 32991	 25892	 34
3214	 32975	 25900	 34
3216	 32991	 25916	 34
3219	 32983	 25940	 34
3216	 32975	 25916	 34
3213	 32983	 25892	 34
3216	 33000	 25916	 34
3216	 32983	 25916	 34
3215	 32991	 25908	 34
3217	 32983	 25924	 34
3217	 32991	 25924	 34
3216	 32983	 25916	 34
3216	 32967	 25916	 34
3216	 32975	 25916	 34
3219	 32991	 25940	 34
3216	 32983	 25916	 34
3216	 32983	 25916	 34
3216	 32991	 25916	 34
3216	 32983	 25916	 34
3215	 32991	 25908	 34
3217	 32991	 25924	 34
3216	 32959	 25916	 34
3217	 32975	 25924	 34
3218	 32975	 25932	 34
3220	 32991	 25948	 34
3216	 32975	 25916	 34
3222	 32991	 25964	 34
3214	 32967	 25900	 34
3217	 32975	 25924	 34
3216	 32983	 25916	 34
3218	 32975	 25932	 34
3217	 32983	 25924	 34
3218	 32983	 25932	 34
3216	 32983	 25916	 34
3217	 32991	 25924	 34
3216	 32991	 25916	 34
3216	 32983	 25916	 34
3218	 32991	 25932	 34
3217	 32983	 25924	 34
3217	 32975	 25924	 34
3219	 32975	 25940	 34
3218	 32991	 25932	 34
3216	 32991	 25916	 34
3217	 32991	 25924	 34
3217	 32983	 25924	 34
3216	 33000	 25916	 34
3217	 32991	 25924	 34
3217	 32983	 25924	 34
3215	 32983	 25908	 34
3216	 32983	 25916	 34
3216	 32991	 25916	 34
3219	 32991	 25940	 34
3215	 32983	 25908	 34
3217	 32983	 25924	 34
3216	 32991	 25916	 34
3216	 32975	 25916	 34
3217	 32983	 25924	 34
3217	 32983	 25924	 34
3215	 32991	 25908	 34
3216	 32983	 25916	 34
3216	 32991	 25916	 34
3216	 32983	 25916	 34
3216	 32991	 25916	 34
3216	 32983	 25916	 34
3217	 32975	 25924	 34
3214	 32983	 25900	 34
3215	 32983	 25908	 34
3215	 32967	 25908	 34
3216	 32991	 25916	 34
3216	 32983	 25916	 34
3216	 32983	 25916	 34
3216	 32991	 25916	 34
3216	 32983	 25916	 34
3216	 32983	 25916	 34
3217	 32967	 25924	 34
3215	 32983	 25908	 34
3215	 32991	 25908	 34
3217	 32975	 25924	 34
3215	 32983	 25908	 34
3217	 32983	 25924	 34
3215	 32983	 25908	 34
3216	 32951	 25916	 34
3216	 32983	 25916	 34
3218	 32991	 25932	 34
3212	 32983	 25884	 34
3217	 32983	 25924	 34
3216	 32983	 25916	 34
3217	 32967	 25924	 34
3217	 32975	 25924	 34
3217	 32975	 25924	 34
3215	 32983	 25908	 34
3217	 32975	 25924	 34
3217	 32983	 25924	 34
3216	 32991	 25916	 34
3215	 32991	 25908	 34
3215	 32983	 25908	 34
3216	 32991	 25916	 34
3215	 32991	 25908	 34
3217	 32975	 25924	 34
3216	 32975	 25916	 34
3216	 32991	 25916	 34
3217	 32991	 25924	 34
3218	 32975	 25932	 34
3216	 32991	 25916	 34
3216	 32991	 25916	 34
3218	 32975	 25932	 34
3214	 32991	 25900	 34
3216	 32983	 25916	 34
3214	 32967	 25900	 34
3214	 32983	 25900	 34
3216	 32991	 25916	 34
3217	 32991	 25924	 34
3217	 32991	 25924	 34
3215	 32983	 25908	 34
3216	 32991	 25916	 34
3216	 32975	 25916	 34
3216	 32983	 25916	 34
3215	 32975	 25908	 34
3216	 32991	 25916	 34
3216	 32983	 25916	 34
3218	 32991	 25932	 34
3216	 32983	 25916	 34
3216	 33000	 25916	 34
3217	 32983	 25924	 34
3217	 32983	 25924	 34
3215	 32991	 25908	 34
3216	 32983	 25916	 34
3215	 32991	 25908	 34
3217	 32983	 25924	 34
3215	 32991	 25908	 34
3218	 32983	 25932	 34
3217	 32983	 25924	 34
3216	 32991	 25916	 34
3216	 32991	 25916	 34
3216	 32975	 25916	 34
3215	 32991	 25908	 34
3214	 32991	 25900	 34
3216	 32991	 25916	 34
3212	 32991	 25884	 34
3216	 32991	 25916	 34
3218	 32983	 25932	 34
3215	 32991	 25908	 34
3214	 32983	 25900	 34
3217	 32991	 25924	 34
3216	 32991	 25916	 34
3216	 32983	 25916	 34
3216	 32983	 25916	 34
3217	 32991	 25924	 34
3215	 33000	 25908	 34
3216	 32967	 25916	 34
3217	 32975	 25924	 34
3218	 32975	 25932	 34
3218	 32991	 25932	 34
3215	 32975	 25908	 34
3216	 32983	 25916	 34
3215	 32983	 25908	 34
3214	 32983	 25900	 34
3214	 32983	 25900	 34
3216	 32983	 25916	 34
3216	 32991	 25916	 34
3215	 32983	 25908	 34
3217	 32983	 25924	 34
3215	 32991	 25908	 34
3216	 32991	 25916	 34
3217	 32991	 25924	 34
3214	 32983	 25900	 34
3214	 32975	 25900	 34
3216	 32983	 25916	 34
3217	 32991	 25924	 34
3215	 32983	 25908	 34
3216	 32983	 25916	 34
3216	 32983	 25916	 34
3216	 32991	 25916	 34
3215	 32983	 25908	 34
3216	 32983	 25916	 34
3215	 32983	 25908	 34
3217	 32983	 25924	 34
3216	 32975	 25916	 34
3212	 32983	 25884	 34
3216	 32983	 25916	 34
3216	 32975	 25916	 34
3217	 32983	 25924	 34
3216	 32975	 25916	 34
3214	 32991	 25900	 34
3215	 32983	 25908	 34
3216	 32991	 25916	 34
3218	 32983	 25932	 34
3216	 32983	 25916	 34
3215	 33000	 25908	 34
3217	 32975	 25924	 34
3216	 32983	 25916	 34
3216	 32991	 25916	 34
3215	 32991	 25908	 34
3216	 32975	 25916	 34
3216	 32967	 25916	 34
3216	 32975	 25916	 34
3216	 32991	 25916	 34
3216	 32975	 25916	 34
3216	 32983	 25916	 34
3216	 32975	 25916	 34
3216	 32975	 25916	 34
3216	 32983	 25916	 34
3216	 32975	 25916	 34
3216	 32991	 25916	 34
3216	 32991	 25916	 34
3216	 32991	 25916	 34
3214	 32967	 25900	 34
3214	 32991	 25900	 34
3216	 32983	 25916	 34
3216	 32975	 25916	 34
3216	 32983	 25916	 34
3215	 32983	 25908	 34
3217	 32991	 25924	 34
3216	 32991	 25916	 34
3216	 32983	 25916	 34
3215	 33000	 25908	 34
3217	 32983	 25924	 34
3215	 32991	 25908	 34
3216	 32991	 25916	 34
3214	 32975	 25900	 34
3215	 32983	 25908	 34
3217	 32983	 25924	 34
3216	 32983	 25916	 34
3217	 32991	 25924	 34
3216	 32991	 25916	 34
3216	 32991	 25916	 34
3217	 32991	 25924	 34
3217	 32991	 25924	 34
3216	 32991	 25916	 34
3214	 32975	 25900	 34
3216	 32975	 25916	 34
3216	 33000	 25916	 34
3215	 32991	 25908	 34
3216	 32983	 25916	 34
3216	 32983	 25916	 34
3216	 33000	 25916	 34
3218	 32983	 25932	 34
3218	 32991	 25932	 34
3218	 32983	 25932	 34
3213	 32975	 25892	 34
3216	 32991	 25916	 34
3217	 32983	 25924	 34
3216	 32983	 25916	 34
3217	 32983	 25924	 34
3217	 32951	 25924	 34
3215	 32983	 25908	 34
3216	 32975	 25916	 34
3217	 32991	 25924	 34
3215	 32983	 25908	 34
3216	 32983	 25916	 34
3214	 32991	 25900	 34
3216	 32991	 25916	 34
3215	 32983	 25908	 34
3216	 32991	 25916	 34
3215	 32991	 25908	 34
3216	 32983	 25916	 34
3215	 32991	 25908	 34
3216	 32983	 25916	 34
3216	 32975	 25916	 34
3217	 32991	 25924	 34
3217	 32991	 25924	 34
3216	 32983	 25916	 34
3215	 32975	 25908	 34
3216	 32991	 25916	 34
3216	 32991	 25916	 34
3217	 32983	 25924	 34
3216	 32983	 25916	 34
3216	 32975	 25916	 34
3216	 32975	 25916	 34
3216	 32991	 25916	 34
3216	 32975	 25916	 34
3217	 32975	 25924	 34
3217	 32983	 25924	 34
3215	 32991	 25908	 34
3216	 32991	 25916	 34
3216	 32983	 25916	 34
3214	 32983	 25900	 34
3217	 32983	 25924	 34
3216	 32967	 25916	 34
3216	 32991	 25916	 34
3216	 32983	 25916	 34
3217	 32983	 25924	 34
3218	 33000	 25932	 34
3216	 33000	 25916	 34
3218	 32983	 25932	 34
3215	 32991	 25908	 34
3216	 32991	 25916	 34
3215	 32975	 25908	 34
3217	 32991	 25924	 34
3217	 32991	 25924	 34
3216	 32991	 25916	 34
3216	 32983	 25916	 34
3216	 32967	 25916	 34
3216	 32991	 25916	 34
3217	 32959	 25924	 34
3217	 32991	 25924	 34
3217	 32975	 25924	 34
3214	 32991	 25900	 34
3216	 32975	 25916	 34
3218	 32975	 25932	 34
3216	 32991	 25916	 34
3216	 32991	 25916	 34
3215	 32983	 25908	 34
3215	 32975	 25908	 34
3216	 32991	 25916	 34
3217	 32983	 25924	 34
3215	 32983	 25908	 34
3215	 32983	 25908	 34
3216	 32975	 25916	 34
3217	 32983	 25924	 34
3214	 32983	 25900	 34
3216	 32983	 25916	 34
3215	 32983	 25908	 34
3215	 32983	 25908	 34
3216	 32983	 25916	 34
3217	 32975	 25924	 34
3217	 32991	 25924	 34
3214	 32967	 25900	 34
3216	 32983	 25916	 34
3217	 32983	 25924	 34
3216	 32983	 25916	 34
3217	 32967	 25924	 34
3218	 32983	 25932	 34
3216	 32983	 25916	 34
3216	 32983	 25916	 34
3216	 32991	 25916	 34
3216	 32983	 25916	 34
3216	 32983	 25916	 34
3213	 32967	 25892	 34
3214	 32983	 25900	 34
3215	 32983	 25908	 34
3216	 32991	 25916	 34
3216	 32975	 25916	 34
3215	 32983	 25908	 34
3215	 32983	 25908	 34
3215	 32991	 25908	 34
3216	 32983	 25916	 34
3215	 32975	 25908	 34
3217	 32991	 25924	 34
3216	 32983	 25916	 34
3212	 32975	 25884	 34
3216	 32991	 25916	 34
3216	 32983	 25916	 34
3215	 32975	 25908	 34
3215	 32983	 25908	 34
3217	 32983	 25924	 34
3217	 32967	 25924	 34
3215	 32983	 25908	 34
3215	 32991	 25908	 34
3216	 32991	 25916	 34
3216	 32983	 25916	 34
3213	 32991	 25892	 34
3216	 32991	 25916	 34
3214	 32991	 25900	 34
3216	 32983	 25916	 34
3216	 33000	 25916	 34
3214	 32983	 25900	 34
3214	 32983	 25900	 34
3211	 32991	 25876	 34
3213	 32983	 25892	 34
3210	 32975	 25868	 34
3216	 32991	 25916	 34
3217	 32983	 25924	 34
3215	 32991	 25908	 34
3215	 32991	 25908	 34
3216	 32975	 25916	 34
3216	 32983	 25916	 34
3214	 32991	 25900	 34
3216	 32991	 25916	 34
3217	 32975	 25924	 34
3216	 32975	 25916	 34
3214	 32991	 25900	 34
3213	 32991	 25892	 34
3215	 32983	 25908	 34
3216	 32991	 25916	 34
3218	 32991	 25932	 34
3217	 32983	 25924	 34
3215	 32983	 25908	 34
3215	 33000	 25908	 34
3216	 32991	 25916	 34
3213	 32991	 25892	 34
3216	 32983	 25916	 34
3214	 32983	 25900	 34
3216	 32983	 25916	 34
3216	 32991	 25916	 34
3215	 32991	 25908	 34
3216	 32975	 25916	 34
3215	 32983	 25908	 34
3216	 32975	 25916	 34
3217	 32983	 25924	 34
3216	 32983	 25916	 34
3218	 32991	 25932	 34
3216	 32975	 25916	 34
3217	 32983	 25924	 34
3216	 32991	 25916	 34
3226	 32975	 25997	 34
3217	 32975	 25924	 34
3214	 32983	 25900	 34
3215	 32983	 25908	 34
3215	 32975	 25908	 34
3215	 32983	 25908	 34
3214	 32991	 25900	 34
3216	 32991	 25916	 34
3215	 32975	 25908	 34
3215	 32991	 25908	 34
3215	 32983	 25908	 34
3216	 32983	 25916	 34
3216	 32975	 25916	 34
3214	 32975	 25900	 34
3218	 32983	 25932	 34
3214	 32991	 25900	 34
3220	 32983	 25948	 34
3216	 32983	 25916	 34
3215	 32983	 25908	 34
3216	 32975	 25916	 34
3215	 32983	 25908	 34
3215	 32983	 25908	 34
