3208	 32975	 25852	 30
3210	 32991	 25868	 30
3205	 32983	 25827	 30
3209	 32967	 25860	 30
3208	 32967	 25852	 30
3209	 32967	 25860	 30
3209	 32983	 25860	 30
3209	 32983	 25860	 30
3208	 32983	 25852	 30
3208	 32991	 25852	 30
3208	 32983	 25852	 30
3210	 32975	 25868	 30
3211	 32991	 25876	 30
3211	 32991	 25876	 30
3210	 32983	 25868	 30
3211	 32991	 25876	 30
3209	 32991	 25860	 30
3211	 32951	 25876	 30
3211	 32983	 25876	 30
3210	 32983	 25868	 30
3211	 32991	 25876	 30
3210	 32991	 25868	 30
3212	 32983	 25884	 30
3210	 32991	 25868	 30
3211	 32991	 25876	 30
3210	 32983	 25868	 30
3209	 32975	 25860	 30
3211	 32991	 25876	 30
3210	 32983	 25868	 30
3211	 32991	 25876	 30
3212	 32983	 25884	 30
3211	 32983	 25876	 30
3212	 32983	 25884	 30
3211	 32975	 25876	 30
3212	 32991	 25884	 30
3212	 32967	 25884	 30
3210	 32975	 25868	 30
3212	 32983	 25884	 30
3211	 32975	 25876	 30
3212	 32983	 25884	 30
3212	 32983	 25884	 30
3211	 32983	 25876	 30
3211	 32991	 25876	 30
3212	 32983	 25884	 30
3211	 32991	 25876	 30
3211	 32959	 25876	 30
3212	 32983	 25884	 30
3211	 32975	 25876	 30
3212	 32991	 25884	 30
3213	 32983	 25892	 30
3210	 32991	 25868	 30
3210	 32991	 25868	 30
3213	 32983	 25892	 30
3212	 32991	 25884	 30
3216	 32967	 25916	 30
3213	 32991	 25892	 30
3212	 32959	 25884	 30
3212	 32991	 25884	 30
3212	 32975	 25884	 30
3213	 32967	 25892	 30
3213	 32991	 25892	 30
3213	 32983	 25892	 30
3212	 32983	 25884	 30
3212	 32983	 25884	 30
3214	 33000	 25900	 30
3212	 32991	 25884	 30
3213	 32991	 25892	 30
3212	 32975	 25884	 30
3210	 32983	 25868	 30
3213	 32975	 25892	 30
3214	 32983	 25900	 30
3214	 32967	 25900	 30
3214	 32983	 25900	 30
3212	 32983	 25884	 30
3212	 32983	 25884	 30
3213	 32983	 25892	 30
3210	 32975	 25868	 30
3213	 32983	 25892	 30
3211	 32983	 25876	 30
3212	 32983	 25884	 30
3214	 32983	 25900	 30
3214	 32983	 25900	 30
3213	 32991	 25892	 30
3216	 32975	 25916	 30
3212	 32975	 25884	 30
3213	 32983	 25892	 30
3213	 32991	 25892	 30
3214	 32991	 25900	 30
3212	 32983	 25884	 30
3212	 32975	 25884	 30
3214	 32983	 25900	 30
3214	 33000	 25900	 30
3215	 32983	 25908	 30
3212	 32991	 25884	 30
3214	 32991	 25900	 30
3213	 32991	 25892	 30
3215	 32983	 25908	 30
3211	 32991	 25876	 30
3214	 32991	 25900	 30
3216	 32983	 25916	 30
3213	 32983	 25892	 30
3212	 32983	 25884	 30
3213	 32983	 25892	 30
3214	 32991	 25900	 30
3214	 32983	 25900	 30
3212	 32983	 25884	 30
3214	 32991	 25900	 30
3213	 32983	 25892	 30
3213	 32991	 25892	 30
3213	 32975	 25892	 30
3213	 32991	 25892	 30
3213	 32991	 25892	 30
3212	 32983	 25884	 30
3214	 32983	 25900	 30
3215	 32983	 25908	 30
3213	 32975	 25892	 30
3213	 32991	 25892	 30
3215	 32991	 25908	 30
3214	 32991	 25900	 30
3214	 32983	 25900	 30
3216	 32983	 25916	 30
3215	 32983	 25908	 30
3213	 32991	 25892	 30
3214	 32975	 25900	 30
3214	 32991	 25900	 30
3215	 32975	 25908	 30
3214	 32983	 25900	 30
3215	 33000	 25908	 30
3213	 32983	 25892	 30
3214	 32983	 25900	 30
3215	 32975	 25908	 30
3213	 32983	 25892	 30
3215	 32991	 25908	 30
3212	 32991	 25884	 30
3215	 32991	 25908	 30
3215	 32983	 25908	 30
3215	 32991	 25908	 30
3216	 32983	 25916	 30
3215	 32991	 25908	 30
3214	 32975	 25900	 30
3212	 32983	 25884	 30
3213	 32991	 25892	 30
3213	 32991	 25892	 30
3214	 32975	 25900	 30
3213	 32983	 25892	 30
3214	 32983	 25900	 30
3215	 32975	 25908	 30
3214	 32975	 25900	 30
3214	 32983	 25900	 30
3215	 32991	 25908	 30
3216	 32983	 25916	 30
3214	 32975	 25900	 30
3214	 32983	 25900	 30
3214	 32991	 25900	 30
3214	 32983	 25900	 30
3217	 32991	 25924	 30
3214	 32991	 25900	 30
3214	 32983	 25900	 30
3213	 32983	 25892	 30
3214	 32991	 25900	 30
3214	 32991	 25900	 30
3215	 32991	 25908	 30
3213	 32983	 25892	 30
3214	 32983	 25900	 30
3214	 32991	 25900	 30
3214	 32975	 25900	 30
3214	 32991	 25900	 30
3214	 32983	 25900	 30
3214	 32983	 25900	 30
3214	 32975	 25900	 30
3214	 32975	 25900	 30
3215	 32983	 25908	 30
3214	 32991	 25900	 30
3215	 32983	 25908	 30
3214	 32983	 25900	 30
3214	 32991	 25900	 30
3216	 32983	 25916	 30
3213	 32975	 25892	 30
3215	 32991	 25908	 30
3216	 32983	 25916	 30
3214	 32991	 25900	 30
3216	 32991	 25916	 30
3212	 32983	 25884	 30
3214	 32983	 25900	 30
3214	 32983	 25900	 30
3214	 32975	 25900	 30
3215	 32991	 25908	 30
3215	 32983	 25908	 30
3215	 32983	 25908	 30
3217	 32991	 25924	 30
3216	 32983	 25916	 30
3216	 32975	 25916	 30
3215	 32983	 25908	 30
3216	 32975	 25916	 30
3215	 33000	 25908	 30
3214	 32983	 25900	 30
3215	 32975	 25908	 30
3213	 32991	 25892	 30
3215	 32991	 25908	 30
3216	 32983	 25916	 30
3216	 32991	 25916	 30
3216	 32983	 25916	 30
3216	 32983	 25916	 30
3216	 32991	 25916	 30
3215	 32991	 25908	 30
3213	 33000	 25892	 30
3214	 32991	 25900	 30
3213	 32983	 25892	 30
3214	 32983	 25900	 30
3214	 32983	 25900	 30
3214	 32983	 25900	 30
3214	 32991	 25900	 30
3211	 32991	 25876	 30
3215	 32991	 25908	 30
3215	 32991	 25908	 30
3215	 32983	 25908	 30
3215	 32983	 25908	 30
3216	 32983	 25916	 30
3214	 32983	 25900	 30
3214	 32983	 25900	 30
3215	 32991	 25908	 30
3216	 32991	 25916	 30
3215	 32975	 25908	 30
3215	 32983	 25908	 30
3216	 32959	 25916	 30
3214	 32991	 25900	 30
3216	 32991	 25916	 30
3216	 32991	 25916	 30
3214	 32975	 25900	 30
3215	 32991	 25908	 30
3214	 32991	 25900	 30
3217	 32975	 25924	 30
3214	 32983	 25900	 30
3215	 32991	 25908	 30
3216	 32983	 25916	 30
3216	 32975	 25916	 30
3216	 32983	 25916	 30
3215	 32975	 25908	 30
3216	 32983	 25916	 30
3216	 32975	 25916	 30
3215	 32975	 25908	 30
3216	 32991	 25916	 30
3212	 32959	 25884	 30
3216	 32991	 25916	 30
3215	 33000	 25908	 30
3215	 32991	 25908	 30
3215	 32983	 25908	 30
3217	 32983	 25924	 30
3214	 32983	 25900	 30
3215	 32991	 25908	 30
3216	 32983	 25916	 30
3214	 32975	 25900	 30
3214	 32983	 25900	 30
3216	 32991	 25916	 30
3215	 32991	 25908	 30
3214	 32983	 25900	 30
3215	 32991	 25908	 30
3217	 32983	 25924	 30
3216	 32991	 25916	 30
3217	 32983	 25924	 30
3216	 32975	 25916	 30
3214	 32967	 25900	 30
3216	 32983	 25916	 30
3217	 32983	 25924	 30
3215	 32991	 25908	 30
3216	 32991	 25916	 30
3215	 32983	 25908	 30
3214	 32991	 25900	 30
3215	 32983	 25908	 30
3214	 32991	 25900	 30
3215	 32983	 25908	 30
3215	 32983	 25908	 30
3216	 32983	 25916	 30
3214	 32967	 25900	 30
3216	 32975	 25916	 30
3216	 32991	 25916	 30
3214	 32983	 25900	 30
3216	 32983	 25916	 30
3215	 32983	 25908	 30
3214	 32991	 25900	 30
3216	 32991	 25916	 30
3214	 32991	 25900	 30
3216	 32991	 25916	 30
3214	 32983	 25900	 30
3213	 32983	 25892	 30
3215	 32967	 25908	 30
3215	 32975	 25908	 30
3216	 32983	 25916	 30
3216	 32991	 25916	 30
3216	 32983	 25916	 30
3216	 32975	 25916	 30
3217	 32951	 25924	 30
3215	 32983	 25908	 30
3216	 32983	 25916	 30
3216	 32983	 25916	 30
3216	 32967	 25916	 30
3217	 32983	 25924	 30
3216	 32991	 25916	 30
3215	 32975	 25908	 30
3215	 32975	 25908	 30
3214	 32991	 25900	 30
3215	 32983	 25908	 30
3214	 32975	 25900	 30
3217	 32983	 25924	 30
3216	 32983	 25916	 30
3215	 32991	 25908	 30
3215	 32983	 25908	 30
3216	 32983	 25916	 30
3216	 32967	 25916	 30
3217	 32983	 25924	 30
3216	 32983	 25916	 30
3215	 32991	 25908	 30
3216	 32983	 25916	 30
3217	 32991	 25924	 30
3215	 33000	 25908	 30
3216	 32975	 25916	 30
3216	 32991	 25916	 30
3214	 32983	 25900	 30
3214	 32983	 25900	 30
3216	 32983	 25916	 30
3217	 32983	 25924	 30
3216	 32991	 25916	 30
3215	 32991	 25908	 30
3214	 32991	 25900	 30
3214	 32975	 25900	 30
3216	 32983	 25916	 30
3216	 32983	 25916	 30
3220	 32991	 25948	 30
3217	 32983	 25924	 30
3213	 32975	 25892	 30
3215	 32983	 25908	 30
3217	 32983	 25924	 30
3215	 33000	 25908	 30
3215	 32975	 25908	 30
3215	 32983	 25908	 30
3216	 32983	 25916	 30
3215	 32983	 25908	 30
3216	 32983	 25916	 30
3214	 32983	 25900	 30
3215	 32967	 25908	 30
3216	 32975	 25916	 30
3217	 32983	 25924	 30
3215	 32991	 25908	 30
3216	 32983	 25916	 30
3217	 32991	 25924	 30
3216	 32983	 25916	 30
3217	 32975	 25924	 30
3215	 32983	 25908	 30
3216	 32991	 25916	 30
3215	 32983	 25908	 30
3216	 32983	 25916	 30
3215	 32991	 25908	 30
3216	 32991	 25916	 30
3217	 32983	 25924	 30
3214	 32983	 25900	 30
3216	 32983	 25916	 30
3216	 32975	 25916	 30
3214	 32983	 25900	 30
3216	 32983	 25916	 30
3217	 33000	 25924	 30
3217	 32975	 25924	 30
3216	 32991	 25916	 30
3219	 32991	 25940	 30
3215	 32975	 25908	 30
3213	 32983	 25892	 30
3218	 32983	 25932	 30
3217	 32983	 25924	 30
3216	 32983	 25916	 30
3217	 32991	 25924	 30
3216	 32975	 25916	 30
3217	 32983	 25924	 30
3217	 32983	 25924	 30
3217	 32983	 25924	 30
3217	 32983	 25924	 30
3214	 32975	 25900	 30
3217	 32983	 25924	 30
3217	 32983	 25924	 30
3216	 32991	 25916	 30
3216	 32983	 25916	 30
3214	 32991	 25900	 30
3218	 32991	 25932	 30
3217	 32983	 25924	 30
3216	 32983	 25916	 30
3216	 32983	 25916	 30
3218	 32983	 25932	 30
3215	 32991	 25908	 30
3217	 32975	 25924	 30
3217	 32983	 25924	 30
3216	 32991	 25916	 30
3216	 32991	 25916	 30
3216	 32983	 25916	 30
3214	 32991	 25900	 30
3218	 32991	 25932	 30
3217	 32983	 25924	 30
3216	 32983	 25916	 30
3217	 32991	 25924	 30
3218	 32975	 25932	 30
3215	 32983	 25908	 30
3216	 32983	 25916	 30
3217	 32991	 25924	 30
3217	 32983	 25924	 30
3216	 32991	 25916	 30
3217	 32975	 25924	 30
3217	 32959	 25924	 30
3216	 32975	 25916	 30
3216	 32991	 25916	 30
3218	 32983	 25932	 30
3214	 32983	 25900	 30
3216	 32983	 25916	 30
3216	 32983	 25916	 30
3215	 32983	 25908	 30
3212	 32975	 25884	 30
3218	 32983	 25932	 30
3216	 32983	 25916	 30
3216	 32983	 25916	 30
3215	 32975	 25908	 30
3217	 32983	 25924	 30
3216	 32983	 25916	 30
3216	 32975	 25916	 30
3218	 32991	 25932	 30
3217	 32991	 25924	 30
3216	 32983	 25916	 30
3217	 32983	 25924	 30
3216	 32991	 25916	 30
3217	 32991	 25924	 30
3215	 32975	 25908	 30
3216	 32991	 25916	 30
3217	 32983	 25924	 30
3216	 32983	 25916	 30
3217	 32991	 25924	 30
3214	 32991	 25900	 30
3218	 32991	 25932	 30
3216	 32975	 25916	 30
3215	 32983	 25908	 30
3215	 32991	 25908	 30
3218	 32983	 25932	 30
3216	 32975	 25916	 30
3217	 32991	 25924	 30
3215	 33000	 25908	 30
3216	 32967	 25916	 30
3218	 32983	 25932	 30
3216	 32983	 25916	 30
3215	 32983	 25908	 30
3217	 32983	 25924	 30
3215	 32983	 25908	 30
3220	 32991	 25948	 30
3217	 32991	 25924	 30
3215	 32983	 25908	 30
3217	 32991	 25924	 30
3216	 32975	 25916	 30
3216	 32983	 25916	 30
3216	 32991	 25916	 30
3217	 32991	 25924	 30
3217	 32991	 25924	 30
3218	 32983	 25932	 30
3218	 32991	 25932	 30
3216	 32991	 25916	 30
3216	 32991	 25916	 30
3216	 32991	 25916	 30
3214	 32991	 25900	 30
3217	 32991	 25924	 30
3217	 32975	 25924	 30
3217	 32983	 25924	 30
3217	 32983	 25924	 30
3215	 32983	 25908	 30
3216	 32959	 25916	 30
3217	 32983	 25924	 30
3218	 32983	 25932	 30
3216	 32983	 25916	 30
3217	 32991	 25924	 30
3219	 32975	 25940	 30
3214	 32975	 25900	 30
3219	 32983	 25940	 30
3216	 32983	 25916	 30
3217	 32975	 25924	 30
3217	 32991	 25924	 30
3217	 32991	 25924	 30
3216	 32983	 25916	 30
3217	 32975	 25924	 30
3217	 32975	 25924	 30
3217	 32991	 25924	 30
3216	 32991	 25916	 30
3216	 32975	 25916	 30
3216	 32991	 25916	 30
3219	 32983	 25940	 30
3218	 32983	 25932	 30
3215	 32951	 25908	 30
3217	 32975	 25924	 30
3218	 32983	 25932	 30
3216	 32983	 25916	 30
3217	 32991	 25924	 30
3217	 32983	 25924	 30
3216	 32975	 25916	 30
3217	 32975	 25924	 30
3217	 32975	 25924	 30
3218	 32975	 25932	 30
3217	 32983	 25924	 30
3218	 32983	 25932	 30
3217	 32991	 25924	 30
3216	 32983	 25916	 30
3216	 32983	 25916	 30
3218	 32983	 25932	 30
3216	 32975	 25916	 30
3216	 32991	 25916	 30
3217	 32967	 25924	 30
3216	 32991	 25916	 30
3217	 32983	 25924	 30
3217	 32983	 25924	 30
3216	 32983	 25916	 30
3218	 32991	 25932	 30
3218	 32983	 25932	 30
3217	 32983	 25924	 30
3217	 32983	 25924	 30
3219	 32983	 25940	 30
3217	 32983	 25924	 30
3217	 32983	 25924	 30
3216	 32991	 25916	 30
3216	 32983	 25916	 30
3215	 32983	 25908	 30
3217	 33000	 25924	 30
3216	 32983	 25916	 30
3214	 32983	 25900	 30
3215	 32983	 25908	 30
3217	 32991	 25924	 30
3216	 32967	 25916	 30
3218	 32991	 25932	 30
3217	 32991	 25924	 30
3216	 32991	 25916	 30
3217	 32975	 25924	 30
3217	 32975	 25924	 30
3217	 32983	 25924	 30
3216	 32991	 25916	 30
3216	 32983	 25916	 30
3217	 32983	 25924	 30
3218	 32975	 25932	 30
3216	 32983	 25916	 30
3216	 32983	 25916	 30
3218	 32991	 25932	 30
3216	 32983	 25916	 30
3217	 32991	 25924	 30
3216	 32991	 25916	 30
3216	 32983	 25916	 30
3216	 32975	 25916	 30
3215	 32983	 25908	 30
3217	 32983	 25924	 30
3218	 33000	 25932	 30
3218	 32991	 25932	 30
3216	 32983	 25916	 30
3216	 32983	 25916	 30
3219	 32975	 25940	 30
3215	 32975	 25908	 30
3216	 32983	 25916	 30
3217	 32991	 25924	 30
3217	 32991	 25924	 30
3219	 32991	 25940	 30
3217	 32983	 25924	 30
3218	 32991	 25932	 30
3217	 32991	 25924	 30
3218	 32983	 25932	 30
3217	 32983	 25924	 30
3217	 32983	 25924	 30
3217	 32983	 25924	 30
3216	 32983	 25916	 30
3220	 32991	 25948	 30
3215	 32991	 25908	 30
3217	 32983	 25924	 30
3217	 32991	 25924	 30
3216	 32991	 25916	 30
3217	 32991	 25924	 30
3218	 32967	 25932	 30
3216	 32991	 25916	 30
3216	 32983	 25916	 30
3216	 32983	 25916	 30
3217	 32959	 25924	 30
3216	 32983	 25916	 30
3215	 32983	 25908	 30
3217	 32983	 25924	 30
3217	 32975	 25924	 30
3216	 32991	 25916	 30
3217	 32991	 25924	 30
3216	 32991	 25916	 30
3216	 32975	 25916	 30
3218	 32991	 25932	 30
3216	 32991	 25916	 30
3216	 32975	 25916	 30
3216	 32975	 25916	 30
3214	 32991	 25900	 30
3217	 32991	 25924	 30
3216	 32991	 25916	 30
3216	 32967	 25916	 30
3217	 32983	 25924	 30
3216	 32991	 25916	 30
3215	 32967	 25908	 30
3216	 32991	 25916	 30
3216	 32991	 25916	 30
3218	 32991	 25932	 30
3216	 32975	 25916	 30
3217	 32983	 25924	 30
3218	 32983	 25932	 30
3217	 32983	 25924	 30
3217	 32983	 25924	 30
3217	 32991	 25924	 30
3218	 32991	 25932	 30
3216	 32991	 25916	 30
3216	 32983	 25916	 30
3217	 32983	 25924	 30
3218	 32991	 25932	 30
3216	 32991	 25916	 30
3220	 32983	 25948	 30
3216	 32991	 25916	 30
3216	 32983	 25916	 30
3217	 32975	 25924	 30
3215	 32991	 25908	 30
3217	 32991	 25924	 30
3217	 32983	 25924	 30
3217	 32991	 25924	 30
3216	 32983	 25916	 30
3216	 32983	 25916	 30
3217	 32991	 25924	 30
3218	 32991	 25932	 30
3217	 32991	 25924	 30
3216	 32975	 25916	 30
3217	 32983	 25924	 30
3217	 32975	 25924	 30
3218	 32983	 25932	 30
3217	 32991	 25924	 30
3218	 32991	 25932	 30
3216	 32983	 25916	 30
3215	 32991	 25908	 30
3216	 32983	 25916	 30
3218	 32983	 25932	 30
3217	 32959	 25924	 30
3218	 32983	 25932	 30
3217	 32991	 25924	 30
3216	 32991	 25916	 30
3216	 32991	 25916	 30
3217	 32991	 25924	 30
3217	 32991	 25924	 30
3216	 32991	 25916	 30
3217	 32991	 25924	 30
3215	 32991	 25908	 30
3217	 32983	 25924	 30
3217	 32991	 25924	 30
3218	 32975	 25932	 30
3217	 32991	 25924	 30
3216	 32975	 25916	 30
3218	 32991	 25932	 30
3215	 32983	 25908	 30
3218	 32991	 25932	 30
3219	 32983	 25940	 30
3217	 32983	 25924	 30
3217	 32991	 25924	 30
3215	 32983	 25908	 30
3217	 32983	 25924	 30
3217	 32975	 25924	 30
3216	 32975	 25916	 30
3218	 32991	 25932	 30
3215	 32975	 25908	 30
3217	 32983	 25924	 30
3218	 32983	 25932	 30
3217	 32983	 25924	 30
3215	 32983	 25908	 30
3217	 32991	 25924	 30
3218	 32991	 25932	 30
3218	 32991	 25932	 30
3217	 32991	 25924	 30
3217	 32967	 25924	 30
3217	 32991	 25924	 30
3217	 32991	 25924	 30
3217	 32983	 25924	 30
3219	 32983	 25940	 30
3217	 32991	 25924	 30
3216	 32975	 25916	 30
3218	 32983	 25932	 30
3217	 32983	 25924	 30
3217	 32991	 25924	 30
3217	 32983	 25924	 30
3217	 32983	 25924	 30
3216	 32975	 25916	 30
3219	 32983	 25940	 30
3216	 32991	 25916	 30
3217	 32983	 25924	 30
3216	 32983	 25916	 30
3218	 32983	 25932	 30
3217	 32975	 25924	 30
3217	 32975	 25924	 30
3217	 32991	 25924	 30
3216	 32983	 25916	 30
3217	 32975	 25924	 30
3217	 32983	 25924	 30
3217	 32991	 25924	 30
3219	 32983	 25940	 30
3216	 32975	 25916	 30
3217	 32975	 25924	 30
3218	 32983	 25932	 30
3217	 32983	 25924	 30
3217	 32975	 25924	 30
3217	 32991	 25924	 30
3218	 32991	 25932	 30
3218	 32991	 25932	 30
3214	 32991	 25900	 30
3218	 32975	 25932	 30
3217	 32991	 25924	 30
3217	 32991	 25924	 30
3217	 32991	 25924	 30
3217	 32991	 25924	 30
3218	 32991	 25932	 30
3219	 32983	 25940	 30
3216	 32983	 25916	 30
3215	 32983	 25908	 30
3218	 32991	 25932	 30
3220	 32975	 25948	 30
3217	 32983	 25924	 30
3218	 32975	 25932	 30
3217	 32991	 25924	 30
3216	 32975	 25916	 30
3219	 32983	 25940	 30
3218	 32983	 25932	 30
3219	 32983	 25940	 30
3217	 32983	 25924	 30
3218	 32975	 25932	 30
3219	 32983	 25940	 30
3220	 32991	 25948	 30
3218	 32967	 25932	 30
3217	 32983	 25924	 30
3217	 32975	 25924	 30
3215	 32983	 25908	 30
3218	 32983	 25932	 30
3218	 32991	 25932	 30
3218	 32991	 25932	 30
3217	 32983	 25924	 30
3218	 32983	 25932	 30
3217	 32991	 25924	 30
3218	 32983	 25932	 30
3215	 32991	 25908	 30
3217	 32983	 25924	 30
3217	 32983	 25924	 30
3216	 32983	 25916	 30
3217	 32983	 25924	 30
3218	 32991	 25932	 30
3219	 32983	 25940	 30
3217	 32967	 25924	 30
3217	 32983	 25924	 30
3215	 32983	 25908	 30
3216	 32991	 25916	 30
3217	 32983	 25924	 30
3217	 32983	 25924	 30
3218	 32991	 25932	 30
3218	 32983	 25932	 30
3217	 32983	 25924	 30
3216	 32967	 25916	 30
3217	 32975	 25924	 30
3218	 32983	 25932	 30
3216	 32991	 25916	 30
3217	 32983	 25924	 30
3219	 32991	 25940	 30
3218	 32991	 25932	 30
3217	 32975	 25924	 30
3218	 32991	 25932	 30
3215	 32991	 25908	 30
3217	 32983	 25924	 30
3218	 32983	 25932	 30
3215	 32983	 25908	 30
3218	 32983	 25932	 30
3217	 32959	 25924	 30
3218	 32983	 25932	 30
3218	 32991	 25932	 30
3216	 32991	 25916	 30
3215	 32983	 25908	 30
3218	 32991	 25932	 30
3217	 32991	 25924	 30
3217	 32983	 25924	 30
3213	 32983	 25892	 30
3217	 32983	 25924	 30
3217	 32975	 25924	 30
3216	 32983	 25916	 30
3218	 32983	 25932	 30
3216	 33000	 25916	 30
3216	 32991	 25916	 30
3215	 32983	 25908	 30
3217	 32983	 25924	 30
3217	 32975	 25924	 30
3215	 32983	 25908	 30
3217	 32991	 25924	 30
3219	 32991	 25940	 30
3218	 32975	 25932	 30
3218	 32967	 25932	 30
3218	 32991	 25932	 30
3218	 32983	 25932	 30
3217	 32983	 25924	 30
3216	 32983	 25916	 30
3216	 32991	 25916	 30
3216	 32991	 25916	 30
3215	 32983	 25908	 30
3218	 32975	 25932	 30
3218	 32991	 25932	 30
3219	 32991	 25940	 30
3217	 32967	 25924	 30
3216	 32975	 25916	 30
3215	 32991	 25908	 30
3218	 32991	 25932	 30
3220	 32991	 25948	 30
3218	 32975	 25932	 30
3218	 32983	 25932	 30
3218	 32975	 25932	 30
3217	 32967	 25924	 30
3217	 32991	 25924	 30
3217	 32983	 25924	 30
3217	 32983	 25924	 30
3217	 32983	 25924	 30
3217	 32975	 25924	 30
3218	 32991	 25932	 30
3217	 32983	 25924	 30
3215	 32991	 25908	 30
3217	 32959	 25924	 30
3217	 32983	 25924	 30
3217	 32983	 25924	 30
3217	 32991	 25924	 30
3216	 32991	 25916	 30
3215	 32991	 25908	 30
3217	 32975	 25924	 30
3218	 32983	 25932	 30
3217	 32983	 25924	 30
3217	 32975	 25924	 30
3217	 32975	 25924	 30
3217	 32983	 25924	 30
3215	 32991	 25908	 30
3217	 32983	 25924	 30
3217	 32991	 25924	 30
3217	 32975	 25924	 30
3217	 32975	 25924	 30
3217	 32991	 25924	 30
3217	 32975	 25924	 30
3217	 32975	 25924	 30
3218	 32991	 25932	 30
3217	 32983	 25924	 30
3216	 32983	 25916	 30
3217	 32983	 25924	 30
3217	 32975	 25924	 30
3218	 32983	 25932	 30
3217	 32983	 25924	 30
3217	 32967	 25924	 30
3216	 32983	 25916	 30
3216	 32991	 25916	 30
3218	 32983	 25932	 30
3216	 32975	 25916	 30
3217	 32975	 25924	 30
3218	 32975	 25932	 30
3218	 32967	 25932	 30
3217	 32975	 25924	 30
3218	 32975	 25932	 30
3218	 32975	 25932	 30
3219	 32983	 25940	 30
3217	 32975	 25924	 30
3218	 32983	 25932	 30
3216	 32975	 25916	 30
3216	 32983	 25916	 30
3217	 32983	 25924	 30
3216	 32975	 25916	 30
3216	 32975	 25916	 30
3216	 32967	 25916	 30
3219	 32983	 25940	 30
3217	 32983	 25924	 30
3216	 32991	 25916	 30
3217	 32983	 25924	 30
3215	 32991	 25908	 30
3217	 32991	 25924	 30
3216	 32983	 25916	 30
3215	 32967	 25908	 30
3218	 32983	 25932	 30
3218	 32991	 25932	 30
3216	 32991	 25916	 30
3216	 32975	 25916	 30
3217	 32991	 25924	 30
3218	 32983	 25932	 30
3217	 32975	 25924	 30
3215	 32975	 25908	 30
3218	 32983	 25932	 30
3216	 32983	 25916	 30
3216	 32983	 25916	 30
3218	 32983	 25932	 30
3217	 32983	 25924	 30
3217	 32991	 25924	 30
3216	 32975	 25916	 30
3219	 32983	 25940	 30
3215	 32951	 25908	 30
3217	 32983	 25924	 30
3217	 32975	 25924	 30
3216	 32959	 25916	 30
3216	 32983	 25916	 30
3217	 32983	 25924	 30
3216	 32983	 25916	 30
3217	 32983	 25924	 30
3218	 32967	 25932	 30
3217	 32975	 25924	 30
3219	 32983	 25940	 30
3217	 32983	 25924	 30
3217	 33000	 25924	 30
3217	 32975	 25924	 30
3217	 32983	 25924	 30
3215	 32983	 25908	 30
3216	 32967	 25916	 30
3215	 32991	 25908	 30
3219	 32983	 25940	 30
3216	 32983	 25916	 30
3215	 32975	 25908	 30
3217	 32983	 25924	 30
3217	 32967	 25924	 30
3217	 32967	 25924	 30
3217	 32975	 25924	 30
3218	 32975	 25932	 30
3218	 32975	 25932	 30
3219	 32991	 25940	 30
3217	 32975	 25924	 30
3217	 32991	 25924	 30
3218	 32983	 25932	 30
3216	 32983	 25916	 30
3217	 32983	 25924	 30
3217	 32991	 25924	 30
3218	 32967	 25932	 30
3215	 32975	 25908	 30
3215	 32975	 25908	 30
3217	 32975	 25924	 30
3219	 32983	 25940	 30
3216	 32991	 25916	 30
3215	 32975	 25908	 30
3215	 32967	 25908	 30
3216	 32991	 25916	 30
3216	 32983	 25916	 30
3215	 32983	 25908	 30
3218	 32991	 25932	 30
3216	 32983	 25916	 30
3216	 32975	 25916	 30
3216	 32991	 25916	 30
3218	 32983	 25932	 30
3217	 32975	 25924	 30
3217	 32991	 25924	 30
3217	 32975	 25924	 30
3216	 32991	 25916	 30
3218	 32983	 25932	 30
3218	 32975	 25932	 30
3216	 32983	 25916	 30
3217	 32975	 25924	 30
3216	 32967	 25916	 30
3215	 32983	 25908	 30
3218	 32967	 25932	 30
3217	 32975	 25924	 30
3216	 32983	 25916	 30
3220	 32983	 25948	 30
3215	 32991	 25908	 30
3217	 32975	 25924	 30
3216	 32983	 25916	 30
3216	 32991	 25916	 30
3218	 32967	 25932	 30
3217	 32983	 25924	 30
3217	 32983	 25924	 30
3217	 32967	 25924	 30
3218	 32991	 25932	 30
3216	 32975	 25916	 30
3216	 32975	 25916	 30
3216	 32991	 25916	 30
3217	 32975	 25924	 30
3218	 32975	 25932	 30
3217	 32991	 25924	 30
3218	 32983	 25932	 30
3217	 32975	 25924	 30
3218	 32983	 25932	 30
3215	 32983	 25908	 30
3217	 32983	 25924	 30
3217	 32983	 25924	 30
3218	 32975	 25932	 30
3216	 32983	 25916	 30
3218	 32967	 25932	 30
3215	 32991	 25908	 30
3218	 32959	 25932	 30
3217	 32975	 25924	 30
3215	 32975	 25908	 30
3217	 32975	 25924	 30
3216	 32975	 25916	 30
3218	 32983	 25932	 30
3217	 32983	 25924	 30
3217	 32991	 25924	 30
3218	 32967	 25932	 30
3218	 32975	 25932	 30
3219	 32991	 25940	 30
3218	 32991	 25932	 30
3218	 32991	 25932	 30
3217	 32991	 25924	 30
3218	 32967	 25932	 30
3216	 32991	 25916	 30
3218	 32991	 25932	 30
3216	 32983	 25916	 30
3217	 32991	 25924	 30
3218	 32975	 25932	 30
3216	 32983	 25916	 30
3216	 32983	 25916	 30
3216	 32991	 25916	 30
3215	 32983	 25908	 30
3217	 32975	 25924	 30
3216	 32983	 25916	 30
