3218	 32983	 25932	 40
3217	 32975	 25924	 40
3215	 32975	 25908	 40
3215	 32967	 25908	 40
3219	 32983	 25940	 40
3220	 32975	 25948	 40
3218	 32975	 25932	 40
3219	 32983	 25940	 40
3217	 32975	 25924	 40
3218	 32983	 25932	 40
3217	 32991	 25924	 40
3220	 32983	 25948	 40
3218	 32991	 25932	 40
3215	 32983	 25908	 40
3217	 32967	 25924	 40
3217	 32983	 25924	 40
3219	 32983	 25940	 40
3218	 32983	 25932	 40
3218	 32975	 25932	 40
3216	 32967	 25916	 40
3217	 32959	 25924	 40
3218	 32983	 25932	 40
3218	 32975	 25932	 40
3218	 32975	 25932	 40
3218	 32983	 25932	 40
3216	 32975	 25916	 40
3218	 32967	 25932	 40
3218	 32991	 25932	 40
3218	 32983	 25932	 40
3218	 32983	 25932	 40
3220	 32967	 25948	 40
3217	 32975	 25924	 40
3218	 32967	 25932	 40
3216	 32975	 25916	 40
3218	 32975	 25932	 40
3218	 32951	 25932	 40
3215	 32975	 25908	 40
3218	 32991	 25932	 40
3219	 32983	 25940	 40
3218	 32983	 25932	 40
3218	 32967	 25932	 40
3220	 32983	 25948	 40
3218	 32975	 25932	 40
3218	 32983	 25932	 40
3217	 32975	 25924	 40
3217	 32983	 25924	 40
3217	 32991	 25924	 40
3219	 32967	 25940	 40
3217	 32967	 25924	 40
3219	 32983	 25940	 40
3218	 32967	 25932	 40
3219	 32975	 25940	 40
3218	 32983	 25932	 40
3218	 32959	 25932	 40
3217	 32983	 25924	 40
3219	 32991	 25940	 40
3218	 32975	 25932	 40
3217	 32975	 25924	 40
3217	 32959	 25924	 40
3218	 32983	 25932	 40
3220	 32975	 25948	 40
3218	 32983	 25932	 40
3218	 32967	 25932	 40
3219	 32983	 25940	 40
3218	 32975	 25932	 40
3217	 32975	 25924	 40
3219	 32983	 25940	 40
3219	 32975	 25940	 40
3218	 32983	 25932	 40
3217	 32991	 25924	 40
3217	 32983	 25924	 40
3219	 32967	 25940	 40
3220	 32991	 25948	 40
3218	 32975	 25932	 40
3218	 32983	 25932	 40
3221	 32983	 25956	 40
3218	 32991	 25932	 40
3220	 32991	 25948	 40
3218	 32991	 25932	 40
3220	 32991	 25948	 40
3218	 32975	 25932	 40
3218	 32983	 25932	 40
3219	 32991	 25940	 40
3220	 32975	 25948	 40
3217	 32991	 25924	 40
3219	 32975	 25940	 40
3217	 32991	 25924	 40
3217	 32983	 25924	 40
3217	 32983	 25924	 40
3219	 32967	 25940	 40
3219	 32983	 25940	 40
3217	 32983	 25924	 40
3219	 32991	 25940	 40
3218	 32983	 25932	 40
3217	 32991	 25924	 40
3217	 32975	 25924	 40
3220	 32991	 25948	 40
3220	 32983	 25948	 40
3220	 32983	 25948	 40
3220	 32983	 25948	 40
3219	 32983	 25940	 40
3220	 32991	 25948	 40
3218	 32991	 25932	 40
3217	 32983	 25924	 40
3220	 32983	 25948	 40
3220	 32983	 25948	 40
3218	 32983	 25932	 40
3220	 32991	 25948	 40
3220	 32991	 25948	 40
3219	 32983	 25940	 40
3218	 32975	 25932	 40
3219	 32983	 25940	 40
3220	 32983	 25948	 40
3217	 32991	 25924	 40
3219	 32991	 25940	 40
3219	 32991	 25940	 40
3219	 32983	 25940	 40
3219	 32991	 25940	 40
3220	 32967	 25948	 40
3218	 32983	 25932	 40
3219	 32991	 25940	 40
3221	 32983	 25956	 40
3220	 32983	 25948	 40
3219	 32983	 25940	 40
3220	 32983	 25948	 40
3221	 32983	 25956	 40
3220	 32983	 25948	 40
3218	 32991	 25932	 40
3219	 32983	 25940	 40
3221	 33000	 25956	 40
3221	 32983	 25956	 40
3220	 32991	 25948	 40
3220	 32991	 25948	 40
3219	 32991	 25940	 40
3220	 32967	 25948	 40
3218	 32991	 25932	 40
3220	 32975	 25948	 40
3220	 32975	 25948	 40
3217	 32975	 25924	 40
3218	 32991	 25932	 40
3220	 32975	 25948	 40
3219	 32991	 25940	 40
3220	 32983	 25948	 40
3222	 32975	 25964	 40
3220	 32983	 25948	 40
3219	 32975	 25940	 40
3219	 32975	 25940	 40
3218	 32983	 25932	 40
3218	 32991	 25932	 40
3218	 32991	 25932	 40
3220	 32983	 25948	 40
3217	 32991	 25924	 40
3217	 32991	 25924	 40
3217	 32991	 25924	 40
3220	 32991	 25948	 40
3219	 32983	 25940	 40
3219	 32991	 25940	 40
3218	 32975	 25932	 40
3218	 32975	 25932	 40
3220	 32983	 25948	 40
3220	 32991	 25948	 40
3219	 32991	 25940	 40
3219	 32975	 25940	 40
3218	 32975	 25932	 40
3218	 32991	 25932	 40
3221	 32983	 25956	 40
3219	 32975	 25940	 40
3219	 32975	 25940	 40
3219	 32983	 25940	 40
3217	 32975	 25924	 40
3220	 32975	 25948	 40
3219	 32983	 25940	 40
3220	 32975	 25948	 40
3219	 32991	 25940	 40
3219	 32991	 25940	 40
3218	 32983	 25932	 40
3218	 32991	 25932	 40
3217	 32967	 25924	 40
3218	 32975	 25932	 40
3217	 32983	 25924	 40
3219	 32983	 25940	 40
3218	 32967	 25932	 40
3218	 32975	 25932	 40
3217	 32975	 25924	 40
3219	 32983	 25940	 40
3216	 32983	 25916	 40
3220	 32975	 25948	 40
3217	 32975	 25924	 40
3218	 32983	 25932	 40
3218	 32983	 25932	 40
3218	 32983	 25932	 40
3218	 32975	 25932	 40
3216	 32951	 25916	 40
3219	 32983	 25940	 40
3216	 32967	 25916	 40
3218	 32983	 25932	 40
3221	 32983	 25956	 40
3216	 32975	 25916	 40
3216	 32967	 25916	 40
3219	 32983	 25940	 40
3217	 32967	 25924	 40
3217	 32983	 25924	 40
3222	 32991	 25964	 40
3218	 32975	 25932	 40
3218	 32975	 25932	 40
3219	 32983	 25940	 40
3218	 32983	 25932	 40
3219	 32983	 25940	 40
3216	 32991	 25916	 40
3218	 32975	 25932	 40
3219	 32975	 25940	 40
3216	 32975	 25916	 40
3218	 32967	 25932	 40
3216	 32975	 25916	 40
3220	 32991	 25948	 40
3219	 32983	 25940	 40
3218	 32983	 25932	 40
3218	 32983	 25932	 40
3216	 32975	 25916	 40
3219	 32983	 25940	 40
3215	 32975	 25908	 40
3218	 32983	 25932	 40
3218	 32983	 25932	 40
3220	 32975	 25948	 40
3218	 32967	 25932	 40
3218	 32967	 25932	 40
3216	 32975	 25916	 40
3219	 32975	 25940	 40
3218	 32983	 25932	 40
3217	 32983	 25924	 40
3218	 32975	 25932	 40
3219	 32983	 25940	 40
3219	 32991	 25940	 40
3219	 32983	 25940	 40
3218	 32983	 25932	 40
3218	 32983	 25932	 40
3217	 32975	 25924	 40
3218	 32975	 25932	 40
3220	 32991	 25948	 40
3219	 32975	 25940	 40
3218	 32975	 25932	 40
3218	 32983	 25932	 40
3221	 32967	 25956	 40
3218	 32991	 25932	 40
3219	 32983	 25940	 40
3219	 32975	 25940	 40
3217	 32991	 25924	 40
3209	 32991	 25860	 40
3220	 32951	 25948	 40
3219	 32983	 25940	 40
3219	 32975	 25940	 40
3219	 32983	 25940	 40
3218	 32983	 25932	 40
3221	 32983	 25956	 40
3218	 32967	 25932	 40
3220	 32983	 25948	 40
3218	 32975	 25932	 40
3217	 32983	 25924	 40
3218	 32991	 25932	 40
3217	 32975	 25924	 40
3217	 32967	 25924	 40
3217	 32975	 25924	 40
3218	 32991	 25932	 40
3219	 32983	 25940	 40
3217	 32983	 25924	 40
3218	 32959	 25932	 40
3219	 32991	 25940	 40
3218	 32991	 25932	 40
3217	 32959	 25924	 40
3219	 32983	 25940	 40
3221	 32983	 25956	 40
3220	 32967	 25948	 40
3221	 32975	 25956	 40
3220	 32983	 25948	 40
3220	 32975	 25948	 40
3218	 32991	 25932	 40
3220	 32959	 25948	 40
3220	 32975	 25948	 40
3219	 33000	 25940	 40
3219	 32991	 25940	 40
3218	 32975	 25932	 40
3219	 32991	 25940	 40
3219	 32991	 25940	 40
3219	 32991	 25940	 40
3219	 32983	 25940	 40
3219	 32991	 25940	 40
3218	 32991	 25932	 40
3218	 32983	 25932	 40
3219	 32991	 25940	 40
3218	 32983	 25932	 40
3219	 32983	 25940	 40
3220	 32983	 25948	 40
3220	 32975	 25948	 40
3217	 32991	 25924	 40
3222	 32983	 25964	 40
3219	 32975	 25940	 40
3216	 32983	 25916	 40
3218	 32967	 25932	 40
3221	 32975	 25956	 40
3220	 32951	 25948	 40
3218	 32967	 25932	 40
3217	 32983	 25924	 40
3218	 32991	 25932	 40
3218	 32991	 25932	 40
3220	 32991	 25948	 40
3219	 32991	 25940	 40
3220	 32983	 25948	 40
3220	 32991	 25948	 40
3218	 32983	 25932	 40
3221	 32967	 25956	 40
3218	 32983	 25932	 40
3220	 33000	 25948	 40
3221	 32983	 25956	 40
3219	 32983	 25940	 40
3220	 32991	 25948	 40
3221	 32983	 25956	 40
3219	 32991	 25940	 40
3218	 32975	 25932	 40
3218	 32983	 25932	 40
3217	 32991	 25924	 40
3216	 32983	 25916	 40
3217	 32983	 25924	 40
3218	 32975	 25932	 40
3217	 32991	 25924	 40
3220	 32975	 25948	 40
3219	 32983	 25940	 40
3217	 32991	 25924	 40
3218	 32983	 25932	 40
3218	 32975	 25932	 40
3220	 32975	 25948	 40
3219	 32967	 25940	 40
3216	 32991	 25916	 40
3219	 32983	 25940	 40
3223	 32959	 25972	 40
3217	 32983	 25924	 40
3218	 32983	 25932	 40
3219	 32983	 25940	 40
3219	 32975	 25940	 40
3218	 32967	 25932	 40
3217	 32983	 25924	 40
3216	 32983	 25916	 40
3219	 32991	 25940	 40
3219	 32991	 25940	 40
3219	 32975	 25940	 40
3218	 32975	 25932	 40
3218	 32983	 25932	 40
3218	 32991	 25932	 40
3219	 32967	 25940	 40
3217	 32967	 25924	 40
3217	 32983	 25924	 40
3217	 32991	 25924	 40
3216	 32983	 25916	 40
3218	 32959	 25932	 40
3218	 32983	 25932	 40
3218	 32967	 25932	 40
3217	 32983	 25924	 40
3218	 32967	 25932	 40
3217	 32951	 25924	 40
3217	 32975	 25924	 40
3218	 32959	 25932	 40
3218	 32959	 25932	 40
3218	 32975	 25932	 40
3219	 32967	 25940	 40
3218	 32967	 25932	 40
3218	 32983	 25932	 40
3217	 32991	 25924	 40
3217	 32975	 25924	 40
3218	 32983	 25932	 40
3219	 32975	 25940	 40
3217	 32983	 25924	 40
3217	 32975	 25924	 40
3217	 32951	 25924	 40
3221	 32975	 25956	 40
3218	 32967	 25932	 40
3218	 32975	 25932	 40
3220	 32967	 25948	 40
3215	 32983	 25908	 40
3217	 32959	 25924	 40
3217	 32967	 25924	 40
3217	 32975	 25924	 40
3216	 32967	 25916	 40
3215	 32991	 25908	 40
3218	 32975	 25932	 40
3220	 32975	 25948	 40
3218	 32975	 25932	 40
3219	 32975	 25940	 40
3218	 32975	 25932	 40
3216	 32983	 25916	 40
3218	 32951	 25932	 40
3219	 32975	 25940	 40
3216	 32983	 25916	 40
3217	 32983	 25924	 40
3218	 32959	 25932	 40
3217	 32975	 25924	 40
3219	 32991	 25940	 40
3218	 32991	 25932	 40
3217	 32975	 25924	 40
3216	 32975	 25916	 40
3218	 32983	 25932	 40
3218	 32983	 25932	 40
3219	 32975	 25940	 40
3217	 32991	 25924	 40
3215	 32975	 25908	 40
3215	 32991	 25908	 40
3220	 32991	 25948	 40
3219	 32983	 25940	 40
3218	 32983	 25932	 40
3218	 32983	 25932	 40
3217	 32975	 25924	 40
3220	 32975	 25948	 40
3218	 32983	 25932	 40
3217	 32983	 25924	 40
3219	 32991	 25940	 40
3219	 32983	 25940	 40
3218	 32983	 25932	 40
3219	 32975	 25940	 40
3218	 32983	 25932	 40
3220	 32975	 25948	 40
3217	 32967	 25924	 40
3218	 32975	 25932	 40
3217	 32991	 25924	 40
3217	 32983	 25924	 40
3217	 32975	 25924	 40
3218	 32983	 25932	 40
3218	 32983	 25932	 40
3218	 32991	 25932	 40
3218	 32975	 25932	 40
3217	 32991	 25924	 40
3219	 32975	 25940	 40
3218	 32975	 25932	 40
3218	 32975	 25932	 40
3217	 32983	 25924	 40
3218	 32983	 25932	 40
3217	 32983	 25924	 40
3219	 32983	 25940	 40
3219	 32983	 25940	 40
3219	 32983	 25940	 40
3219	 32991	 25940	 40
3219	 32991	 25940	 40
3218	 33000	 25932	 40
3219	 32975	 25940	 40
3217	 32991	 25924	 40
3220	 32983	 25948	 40
3220	 32991	 25948	 40
3218	 32983	 25932	 40
3219	 32983	 25940	 40
3218	 32991	 25932	 40
3217	 32983	 25924	 40
3220	 32991	 25948	 40
3221	 32991	 25956	 40
3218	 32991	 25932	 40
3216	 32983	 25916	 40
3218	 32983	 25932	 40
3217	 32983	 25924	 40
3218	 32975	 25932	 40
3221	 32991	 25956	 40
3221	 32991	 25956	 40
3219	 32983	 25940	 40
3218	 32983	 25932	 40
3218	 32991	 25932	 40
3218	 32983	 25932	 40
3219	 32975	 25940	 40
3217	 32991	 25924	 40
3219	 32983	 25940	 40
3218	 32983	 25932	 40
3216	 32983	 25916	 40
3218	 32983	 25932	 40
3218	 32991	 25932	 40
3218	 32975	 25932	 40
3218	 32991	 25932	 40
3220	 32991	 25948	 40
3219	 32991	 25940	 40
3218	 32975	 25932	 40
3219	 32975	 25940	 40
3219	 32983	 25940	 40
3218	 32991	 25932	 40
3219	 32983	 25940	 40
3217	 33000	 25924	 40
3216	 32991	 25916	 40
3220	 32991	 25948	 40
3217	 32991	 25924	 40
3216	 32991	 25916	 40
3219	 32975	 25940	 40
3218	 32983	 25932	 40
3220	 32991	 25948	 40
3218	 32991	 25932	 40
3219	 32975	 25940	 40
3217	 32983	 25924	 40
3219	 32991	 25940	 40
3219	 32983	 25940	 40
3219	 32991	 25940	 40
3217	 33000	 25924	 40
3219	 32983	 25940	 40
3218	 32959	 25932	 40
3220	 32983	 25948	 40
3219	 33000	 25940	 40
3220	 32991	 25948	 40
3219	 32991	 25940	 40
3218	 32967	 25932	 40
3218	 32975	 25932	 40
3218	 32991	 25932	 40
3220	 32983	 25948	 40
3219	 32983	 25940	 40
3219	 32991	 25940	 40
3218	 32983	 25932	 40
3219	 32975	 25940	 40
3218	 32975	 25932	 40
3219	 32975	 25940	 40
3220	 32983	 25948	 40
3218	 32991	 25932	 40
3218	 32983	 25932	 40
3216	 32991	 25916	 40
3219	 32975	 25940	 40
3219	 32991	 25940	 40
3218	 32983	 25932	 40
3218	 32975	 25932	 40
3220	 32959	 25948	 40
3219	 32983	 25940	 40
3218	 32983	 25932	 40
3216	 32991	 25916	 40
3219	 32975	 25940	 40
3218	 32975	 25932	 40
3219	 32983	 25940	 40
3218	 32967	 25932	 40
3217	 32975	 25924	 40
3217	 32975	 25924	 40
3220	 32991	 25948	 40
3219	 32983	 25940	 40
3218	 32983	 25932	 40
3220	 32975	 25948	 40
3217	 32983	 25924	 40
3218	 32967	 25932	 40
3220	 32983	 25948	 40
3219	 32975	 25940	 40
3217	 32975	 25924	 40
3216	 32983	 25916	 40
3218	 32975	 25932	 40
3220	 32991	 25948	 40
3217	 32983	 25924	 40
3221	 32983	 25956	 40
3219	 32983	 25940	 40
3216	 32983	 25916	 40
3223	 32983	 25972	 40
3219	 32983	 25940	 40
3219	 32975	 25940	 40
3219	 32983	 25940	 40
3222	 32975	 25964	 40
3218	 32991	 25932	 40
3218	 32975	 25932	 40
3219	 32991	 25940	 40
3216	 32983	 25916	 40
3218	 32983	 25932	 40
3220	 32991	 25948	 40
3219	 32959	 25940	 40
3217	 32975	 25924	 40
3220	 32975	 25948	 40
3219	 32975	 25940	 40
3218	 32967	 25932	 40
3219	 32975	 25940	 40
3217	 32983	 25924	 40
3217	 32983	 25924	 40
3218	 32975	 25932	 40
3216	 32967	 25916	 40
3217	 32983	 25924	 40
3215	 32983	 25908	 40
3218	 32975	 25932	 40
3217	 32967	 25924	 40
3217	 32983	 25924	 40
3218	 32983	 25932	 40
3217	 32983	 25924	 40
3216	 32983	 25916	 40
3217	 32967	 25924	 40
3216	 32975	 25916	 40
3220	 32975	 25948	 40
3217	 32975	 25924	 40
3213	 32991	 25892	 40
3217	 32967	 25924	 40
3216	 32983	 25916	 40
3217	 32983	 25924	 40
3219	 32983	 25940	 40
3218	 32975	 25932	 40
3218	 32959	 25932	 40
3216	 32991	 25916	 40
3215	 32975	 25908	 40
3216	 32983	 25916	 40
3215	 32951	 25908	 40
3216	 32975	 25916	 40
3216	 32967	 25916	 40
3216	 32975	 25916	 40
3218	 32967	 25932	 40
3219	 32983	 25940	 40
3217	 32975	 25924	 40
3218	 32975	 25932	 40
3218	 32991	 25932	 40
3216	 32975	 25916	 40
3218	 32983	 25932	 40
3215	 32983	 25908	 40
3218	 32983	 25932	 40
3215	 32983	 25908	 40
3217	 32975	 25924	 40
3218	 32991	 25932	 40
3219	 32967	 25940	 40
3215	 32983	 25908	 40
3218	 32967	 25932	 40
3217	 32983	 25924	 40
3216	 32967	 25916	 40
3217	 32983	 25924	 40
3219	 32975	 25940	 40
3218	 32967	 25932	 40
3219	 32975	 25940	 40
3217	 32991	 25924	 40
3217	 32975	 25924	 40
3218	 32991	 25932	 40
3217	 32975	 25924	 40
3215	 32983	 25908	 40
3216	 32967	 25916	 40
3218	 32991	 25932	 40
3218	 32975	 25932	 40
3215	 32983	 25908	 40
3219	 32983	 25940	 40
3217	 32975	 25924	 40
3218	 32975	 25932	 40
3219	 32975	 25940	 40
3218	 32959	 25932	 40
3216	 32991	 25916	 40
3216	 32983	 25916	 40
3219	 32983	 25940	 40
3216	 32983	 25916	 40
3217	 32983	 25924	 40
3218	 32975	 25932	 40
3217	 32975	 25924	 40
3218	 32983	 25932	 40
3217	 32975	 25924	 40
3218	 32967	 25932	 40
3218	 32991	 25932	 40
3216	 32975	 25916	 40
3214	 32975	 25900	 40
3221	 32991	 25956	 40
3218	 32991	 25932	 40
3218	 32983	 25932	 40
3217	 32967	 25924	 40
3217	 32959	 25924	 40
3218	 32975	 25932	 40
3210	 32975	 25868	 40
3218	 32967	 25932	 40
3219	 32959	 25940	 40
3215	 32967	 25908	 40
3217	 32983	 25924	 40
3220	 32951	 25948	 40
3218	 32983	 25932	 40
3216	 32983	 25916	 40
3218	 32991	 25932	 40
3218	 32975	 25932	 40
3216	 32975	 25916	 40
3216	 32983	 25916	 40
3216	 32967	 25916	 40
3217	 32983	 25924	 40
3217	 32959	 25924	 40
3216	 32967	 25916	 40
3216	 32983	 25916	 40
3215	 32983	 25908	 40
3217	 32991	 25924	 40
3218	 32983	 25932	 40
3218	 32983	 25932	 40
3217	 32991	 25924	 40
3216	 32975	 25916	 40
3216	 32975	 25916	 40
3218	 32983	 25932	 40
3218	 32975	 25932	 40
3217	 32975	 25924	 40
3217	 32975	 25924	 40
3217	 32983	 25924	 40
3216	 32983	 25916	 40
3219	 32967	 25940	 40
3217	 32983	 25924	 40
3217	 32991	 25924	 40
3217	 32975	 25924	 40
3216	 32975	 25916	 40
3217	 32991	 25924	 40
3218	 32975	 25932	 40
3218	 32983	 25932	 40
3216	 32991	 25916	 40
3215	 32959	 25908	 40
3216	 32967	 25916	 40
3217	 32991	 25924	 40
3221	 32983	 25956	 40
3219	 32975	 25940	 40
3219	 32975	 25940	 40
3217	 32983	 25924	 40
3219	 32983	 25940	 40
3218	 32975	 25932	 40
3216	 32991	 25916	 40
3217	 32959	 25924	 40
3216	 32967	 25916	 40
3216	 32983	 25916	 40
3219	 32983	 25940	 40
3219	 32975	 25940	 40
3218	 32967	 25932	 40
3217	 32983	 25924	 40
3216	 32991	 25916	 40
3217	 32975	 25924	 40
3217	 32991	 25924	 40
3219	 32975	 25940	 40
3219	 32967	 25940	 40
3219	 32975	 25940	 40
3219	 32983	 25940	 40
3219	 32967	 25940	 40
3217	 32991	 25924	 40
3218	 32967	 25932	 40
3217	 32967	 25924	 40
3219	 32975	 25940	 40
3218	 32991	 25932	 40
3215	 32983	 25908	 40
3217	 32983	 25924	 40
3219	 32991	 25940	 40
3218	 32991	 25932	 40
3215	 32983	 25908	 40
3218	 32975	 25932	 40
3217	 32991	 25924	 40
3218	 32991	 25932	 40
3215	 32975	 25908	 40
3217	 32983	 25924	 40
3217	 32975	 25924	 40
3217	 32967	 25924	 40
3219	 32975	 25940	 40
3217	 32983	 25924	 40
3219	 32983	 25940	 40
3217	 32983	 25924	 40
3222	 32991	 25964	 40
3219	 32975	 25940	 40
3216	 32967	 25916	 40
3218	 32983	 25932	 40
3220	 32991	 25948	 40
3218	 32967	 25932	 40
3219	 32975	 25940	 40
3220	 32983	 25948	 40
3219	 32991	 25940	 40
3220	 32975	 25948	 40
3219	 32983	 25940	 40
3219	 32983	 25940	 40
3218	 33000	 25932	 40
3218	 32991	 25932	 40
3218	 32983	 25932	 40
3220	 32991	 25948	 40
3219	 32983	 25940	 40
3219	 32983	 25940	 40
3220	 32983	 25948	 40
3219	 32983	 25940	 40
3218	 32983	 25932	 40
3216	 32983	 25916	 40
3218	 32983	 25932	 40
3219	 32967	 25940	 40
3220	 32975	 25948	 40
3220	 32967	 25948	 40
3217	 32983	 25924	 40
3218	 32991	 25932	 40
3220	 32991	 25948	 40
3218	 32983	 25932	 40
3218	 32991	 25932	 40
3218	 32991	 25932	 40
3217	 32991	 25924	 40
3218	 32991	 25932	 40
3219	 32983	 25940	 40
3219	 32991	 25940	 40
3217	 32983	 25924	 40
3220	 32991	 25948	 40
3218	 32983	 25932	 40
3218	 32975	 25932	 40
3220	 32975	 25948	 40
3219	 32991	 25940	 40
3218	 32991	 25932	 40
3219	 32975	 25940	 40
3220	 32983	 25948	 40
3219	 32975	 25940	 40
3218	 32991	 25932	 40
3217	 32991	 25924	 40
3219	 32991	 25940	 40
3218	 32983	 25932	 40
3220	 32983	 25948	 40
3219	 32983	 25940	 40
3218	 32983	 25932	 40
3219	 32983	 25940	 40
3216	 32975	 25916	 40
3219	 32983	 25940	 40
3219	 32975	 25940	 40
3219	 32991	 25940	 40
3219	 32983	 25940	 40
3214	 32991	 25900	 40
3219	 32991	 25940	 40
3219	 32967	 25940	 40
3218	 32983	 25932	 40
3219	 32975	 25940	 40
3220	 32983	 25948	 40
3219	 32983	 25940	 40
3219	 32991	 25940	 40
3218	 32991	 25932	 40
3217	 32983	 25924	 40
3218	 32991	 25932	 40
3217	 32983	 25924	 40
3215	 32975	 25908	 40
3218	 32991	 25932	 40
3220	 32983	 25948	 40
3218	 32983	 25932	 40
3215	 32991	 25908	 40
3220	 32983	 25948	 40
3218	 32983	 25932	 40
3219	 32983	 25940	 40
3218	 32983	 25932	 40
3220	 32983	 25948	 40
3216	 32983	 25916	 40
3218	 32991	 25932	 40
3219	 32975	 25940	 40
3219	 32975	 25940	 40
3217	 32983	 25924	 40
3218	 32991	 25932	 40
3219	 32991	 25940	 40
3219	 32991	 25940	 40
3219	 32983	 25940	 40
3216	 32991	 25916	 40
3217	 32991	 25924	 40
3220	 32967	 25948	 40
3218	 32991	 25932	 40
3218	 32983	 25932	 40
3218	 32975	 25932	 40
3219	 32983	 25940	 40
3219	 32991	 25940	 40
3221	 32983	 25956	 40
3220	 32991	 25948	 40
3219	 32975	 25940	 40
3219	 32983	 25940	 40
3219	 32983	 25940	 40
3219	 32983	 25940	 40
3219	 32983	 25940	 40
3217	 32975	 25924	 40
3219	 32975	 25940	 40
3216	 32975	 25916	 40
3218	 32983	 25932	 40
3219	 32991	 25940	 40
3219	 32991	 25940	 40
3217	 32983	 25924	 40
3216	 32975	 25916	 40
3220	 32991	 25948	 40
3219	 32983	 25940	 40
3219	 32983	 25940	 40
3220	 32983	 25948	 40
3219	 32983	 25940	 40
3218	 32991	 25932	 40
3219	 32991	 25940	 40
3219	 32975	 25940	 40
3218	 32983	 25932	 40
3220	 32967	 25948	 40
3217	 32983	 25924	 40
3219	 32983	 25940	 40
3217	 32983	 25924	 40
3217	 32983	 25924	 40
3217	 32983	 25924	 40
3219	 32983	 25940	 40
3218	 32983	 25932	 40
3216	 32983	 25916	 40
3216	 32991	 25916	 40
3217	 32975	 25924	 40
3218	 32975	 25932	 40
3218	 32991	 25932	 40
3218	 32975	 25932	 40
3218	 32991	 25932	 40
3219	 32975	 25940	 40
3218	 32983	 25932	 40
3218	 32975	 25932	 40
3218	 32975	 25932	 40
3218	 32959	 25932	 40
3218	 32975	 25932	 40
3216	 32983	 25916	 40
3217	 32983	 25924	 40
3218	 32975	 25932	 40
3219	 32991	 25940	 40
3217	 32975	 25924	 40
3219	 32967	 25940	 40
3217	 32991	 25924	 40
3218	 32983	 25932	 40
3217	 32983	 25924	 40
3218	 32983	 25932	 40
3218	 32975	 25932	 40
3218	 32967	 25932	 40
3218	 32983	 25932	 40
3218	 32975	 25932	 40
3218	 32975	 25932	 40
3217	 32991	 25924	 40
3219	 32975	 25940	 40
3220	 32983	 25948	 40
3218	 32991	 25932	 40
3218	 32991	 25932	 40
3217	 32975	 25924	 40
3218	 32983	 25932	 40
3217	 32983	 25924	 40
3219	 32975	 25940	 40
3218	 32975	 25932	 40
3219	 32991	 25940	 40
3217	 32983	 25924	 40
3216	 32991	 25916	 40
3219	 32967	 25940	 40
3219	 32975	 25940	 40
3219	 32967	 25940	 40
3218	 32983	 25932	 40
3217	 32975	 25924	 40
3218	 32991	 25932	 40
3219	 32983	 25940	 40
3217	 32983	 25924	 40
3218	 32975	 25932	 40
3217	 32983	 25924	 40
3218	 32983	 25932	 40
3218	 32967	 25932	 40
3218	 32967	 25932	 40
3217	 32975	 25924	 40
3216	 32975	 25916	 40
3216	 32967	 25916	 40
3217	 32983	 25924	 40
3216	 32975	 25916	 40
3217	 32967	 25924	 40
3216	 32967	 25916	 40
3217	 32983	 25924	 40
3217	 32983	 25924	 40
3216	 32975	 25916	 40
3216	 32983	 25916	 40
3217	 32983	 25924	 40
3217	 32983	 25924	 40
3216	 32975	 25916	 40
3216	 32983	 25916	 40
3217	 32983	 25924	 40
3216	 32967	 25916	 40
3216	 32991	 25916	 40
3217	 32983	 25924	 40
3216	 32983	 25916	 40
3217	 32991	 25924	 40
3218	 32975	 25932	 40
3216	 32991	 25916	 40
3216	 32967	 25916	 40
3218	 32975	 25932	 40
3218	 32983	 25932	 40
3215	 32975	 25908	 40
3218	 32967	 25932	 40
3217	 32959	 25924	 40
3217	 32975	 25924	 40
3217	 32983	 25924	 40
3216	 32983	 25916	 40
3216	 32983	 25916	 40
3217	 32975	 25924	 40
3217	 32967	 25924	 40
3216	 32967	 25916	 40
3216	 32975	 25916	 40
3220	 32983	 25948	 40
3217	 32975	 25924	 40
3218	 32983	 25932	 40
3217	 32983	 25924	 40
3218	 32983	 25932	 40
3217	 32975	 25924	 40
3216	 32983	 25916	 40
3218	 32983	 25932	 40
3217	 32975	 25924	 40
3215	 32991	 25908	 40
3218	 32975	 25932	 40
3218	 32975	 25932	 40
3219	 32975	 25940	 40
3219	 32967	 25940	 40
3220	 32967	 25948	 40
3216	 32975	 25916	 40
3217	 32983	 25924	 40
3217	 32983	 25924	 40
3217	 32983	 25924	 40
3217	 32975	 25924	 40
3217	 32975	 25924	 40
3217	 32975	 25924	 40
3215	 32975	 25908	 40
3217	 33000	 25924	 40
3217	 32975	 25924	 40
3217	 32975	 25924	 40
3217	 32975	 25924	 40
3216	 32975	 25916	 40
3217	 32975	 25924	 40
3217	 32967	 25924	 40
3218	 32959	 25932	 40
3218	 32983	 25932	 40
3218	 32983	 25932	 40
3218	 32983	 25932	 40
3216	 32967	 25916	 40
3218	 32975	 25932	 40
3215	 32991	 25908	 40
3219	 32975	 25940	 40
3220	 32967	 25948	 40
3217	 32967	 25924	 40
3215	 32983	 25908	 40
3217	 32975	 25924	 40
3216	 32991	 25916	 40
3218	 32975	 25932	 40
3219	 32967	 25940	 40
3217	 32991	 25924	 40
3216	 32983	 25916	 40
3216	 32983	 25916	 40
3218	 32967	 25932	 40
3217	 32975	 25924	 40
3219	 32967	 25940	 40
