
562
562
57A
562
57A
58A
56A
572
56A
56A
572
572
572
572
559
56A
56A
56A
56A
572
56A
56A
559
562
559
56A
57A
582
57A
551
58A
5B2
58A
57A
582
58A
56A
562
5A2
58A
58A
56A
562
56A
57A
56A
57A
56A
582
572
56A
5BA
57A
551
56A
541
592
572
56A
56A
57A
57A
562
582
56A
551
57A
57A
559
56A
57A
57A
582
559
562
56A
58A
57A
56A
58A
572
572
572
562
56A
56A
572
572
551
56A
56A
582
57A
56A
56A
57A
562
58A
582
57A
559
559
551
58A
56A
56A
58A
572
582
56A
5A2
58A
56A
56A
58A
57A
56A
559
572
582
592
56A
57A
572
56A
58A
57A
572
59A
572
56A
56A
56A
57A
56A
582
562
56A
57A
57A
572
572
572
56A
56A
57A
572
572
572
57A
57A
57A
582
562
56A
56A
58A
549
57A
56A
572
56A
58A
559
582
56A
56A
559
572
549
57A
57A
572
572
5B2
57A
582
57A
57A
56A
592
57A
56A
572
562
57A
57A
57A
592
582
56A
57A
56A
56A
559
57A
56A
549
551
58A
559
57A
57A
56A
56A
57A
549
58A
572
56A
572
572
56A
57A
559
572
58A
541
56A
592
56A
57A
58A
57A
59A
592
57A
58A
57A
56A
56A
572
572
57A
56A
572
56A
551
559
58A
529
56A
572
572
572
592
58A
572
551
58A
56A
56A
509
541
572
582
572
56A
56A
57A
57A
56A
572
572
56A
572
57A
56A
56A
582
559
56A
572
57A
572
57A
58A
562
572
562
57A
572
57A
56A
56A
541
5A2
56A
592
56A
56A
57A
56A
57A
582
57A
57A
56A
551
58A
57A
56A
56A
551
582
572
559
56A
572
572
57A
582
56A
57A
56A
562
572
57A
562
572
56A
582
57A
5B2
572
519
562
582
57A
572
572
572
58A
56A
56A
562
56A
57A
57A
57A
559
572
562
56A
572
572
572
582
57A
57A
57A
572
58A
562
57A
562
572
58A
56A
56A
56A
562
56A
549
559
582
57A
56A
572
572
57A
57A
58A
572
57A
572
58A
56A
59A
58A
58A
57A
56A
572
562
572
572
57A
559
562
58A
572
57A
592
58A
57A
58A
572
5C2
59A
56A
559
582
572
562
57A
56A
57A
562
572
58A
58A
56A
572
541
57A
572
57A
57A
572
572
56A
56A
5AA
58A
582
572
572
582
58A
56A
57A
56A
57A
582
57A
572
572
57A
58A
572
58A
56A
582
572
58A
582
57A
56A
551
56A
57A
57A
5CA
58A
56A
529
58A
57A
58A
572
562
582
582
56A
57A
57A
572
57A
57A
56A
57A
56A
57A
56A
56A
56A
58A
58A
57A
56A
56A
572
56A
58A
56A
572
56A
58A
56A
57A
582
572
572
57A
57A
56A
572
57A
572
57A
582
572
572
572
58A
572
57A
572
572
559
562
57A
56A
572
572
59A
572
56A
58A
559
519
56A
57A
57A
57A
572
58A
57A
562
57A
572
57A
572
57A
531
56A
58A
562
57A
56A
56A
57A
56A
56A
57A
56A
58A
56A
58A
592
572
56A
56A
58A
56A
582
56A
572
582
56A
572
559
56A
56A
57A
551
57A
559
57A
572
56A
549
562
56A
58A
56A
562
56A
559
57A
572
56A
57A
5A2
592
572
56A
56A
56A
562
58A
56A
572
56A
57A
572
56A
57A
58A
56A
572
57A
57A
57A
56A
559
572
559
58A
572
56A
572
582
572
56A
57A
57A
57A
56A
559
572
572
572
56A
57A
56A
56A
56A
582
572
572
56A
551
56A
549
57A
57A
58A
562
56A
559
572
562
56A
58A
56A
57A
541
572
56A
57A
5AA
57A
56A
57A
582
58A
57A
551
56A
57A
572
57A
559
57A
57A
562
582
57A
572
582
56A
56A
56A
57A
58A
562
56A
5B2
57A
56A
572
56A
562
572
56A
56A
562
572
572
572
572
572
56A
56A
582
56A
572
562
572
562
562
56A
582
572
56A
56A
572
572
57A
56A
58A
572
572
56A
572
56A
582
562
57A
58A
57A
572
57A
572
562
57A
592
572
562
572
582
562
57A
582
57A
572
58A
57A
57A
56A
57A
562
58A
56A
57A
582
57A
4F1
57A
549
57A
56A
56A
56A
56A
56A
58A
57A
56A
56A
572
57A
562
57A
562
56A
58A
572
58A
56A
551
56A
572
57A
549
56A
572
56A
58A
572
56A
57A
57A
551
58A
582
562
562
549
56A
56A
58A
58A
57A
58A
57A
572
572
56A
57A
559
56A
582
56A
56A
592
57A
572
572
56A
56A
572
58A
58A
56A
57A
57A
58A
56A
56A
551
58A
582
572
562
572
56A
56A
58A
56A
559
559
58A
572
56A
572
562
56A
572
562
57A
58A
592
572
56A
57A
56A
56A
582
58A
572
57A
549
56A
57A
572
56A
562
562
58A
58A
572
562
56A
57A
58A
57A
559
572
57A
5A2
57A
57A
58A
57A
559
559
57A
541
572
58A
572
562
56A
58A
572
57A
58A
57A
582
56A
56A
56A
562
572
5B2
57A
551
57A
582
559
572
56A
562
57A
572
572
562
582
572
582
57A
57A
582
56A
562
572
56A
56A
541
56A
58A
58A
56A
56A
582
572
572
572
56A
582
562
562
562
58A
562
57A
582
572
572
56A
572
58A
56A
582
582
57A
58A
562
582
572
57A
57A
56A
572
57A
551
56A
58A
59A
582
57A
562
559
57A
562
56A
57A
58A
56A
562
56A
57A
572
562
562
572
562
57A
582
541
592
58A
56A
562
57A
562
56A
56A
559
57A
572
562
57A
572
559
56A
56A