
4FCC
3CE1
3CF1
3CF9
3D29
3D01
3D09
3D01
3D09
3CF9
3D09
3D01
3D01
3CF1
3CF9
3CF9
3CF1
3D11
3CF1
3D01
3D11
3CF9
3D11
3D19
3D11
3D11
3D11
3D01
3D11
3D11
3D29
3D21
3D29
3D19
3D21
3D01
3D11
3D29
3D21
3D19
3D11
3D19
3CD1
3D19
3D11
3D09
3D11
3D21
3D21
3D09
3D21
3D11
3D11
3D4A
3D19
3D11
3D21
3D09
3D52
3CB0
3D29
3D11
3D11
3D11
3D21
3D11
3D29
3D11
3D29
3D19
3D11
3D21
3D29
3D19
3D21
3D11
3D19
3D29
3D11
3CF9
3D21
3D09
3D19
3D42
3D39
3D39
3D39
3D39
3D4A
3D39
3D62
3D39
3D52
3D29
3D42
3D21
3D42
3D31
3D39
3D31
3D4A
3D4A
3D42
3D29
3D42
3D42
3D42
3D31
3D39
3D21
3D29
3D21
3D29
3D29
3D29
3D31
3D39
3D21
3D31
3D19
3D52
3D31
3D31
3D42
3D29
3D29
3D21
3D21
3D29
3D29
3D21
3D31
3D29
3D21
3D42
3D21
3D11
3D31
3D31
3D21
3D21
3D19
3D21
3D29
3D29
3D19
3D19
3D39
3D11
3D31
3D19
3D11
3D29
3D21
3D21
3D21
3D29
3D11
3D31
3D19
3D19
3D11
3D21
3D19
3D11
3D11
3D4A
3D19
3D11
3D21
3D11
3D11
3D29
3D21
3D11
3D09
3D21
3D11
3D29
3D19
3D19
3D4A
3D29
3D21
3D11
3D11
3D31
3D19
3D11
3D29
3D31
3D31
3D29
3D21
3D31
3D21
3D29
3D21
3D29
3D42
3D19
3D11
3D31
3D19
3D31
3D29
3D29
3D11
3D19
3D29
3D19
3D39
3D21
3D19
3D21
3D11
3D29
3D01
3D39
3D19
3D19
3D31
3D29
3D29
3D42
3D21
3D29
3D21
3D21
3D21
3D21
3D29
3D29
3D29
3D29
3D39
3D5A
3D31
3D21
3D21
3D19
3D21
3D29
3D29
3D4A
3D29
3D29
3D21
3D19
3D29
3D39
3D11
3D21
3D29
3D21
3D19
3D29
3D29
3D21
3D11
3D29
3D42
3D29
3D21
3D31
3D52
3D19
3D19
3D19
3D42
3D29
3D19
3D19
3D19
3D21
3D19
3D21
3D39
3D31
3D21
3D39
3D21
3D29
3D11
3D39
3D19
3D21
3D21
3D29
3D29
3D31
3D29
3D31
3D19
3D29
3D39
3D31
3D31
3D11
3CF9
3D29
3D29
3D31
3D29
3D11
3D19
3D21
3D19
3D29
3D31
3D31
3D11
3D19
3D19
3D19
3D29
3D42
3D29
3D31
3D19
3D31
3D19
3D31
3D31
3D29
3D21
3D29
3D29
3D21
3D29
3D29
3D31
3D21
3D21
3D39
3D29
3D21
3D21
3D52
3D29
3D29
3D39
3D21
3D42
3D21
3D21
3D42
3D29
3D19
3D39
3D39
3D31
3D29
3D31
3D4A
3D19
3D39
3D21
3D39
3D39
3D29
3D29
3D31
3D42
3D29
3D29
3D52
3CD9
3D21
3D31
3D29
3D42
3D31
3D21
3D39
3D21
3D31
3D29
3D4A
3D29
3D19
3D31
3D39
3D21
3D29
3D21
3D31
3D31
3D29
3D29
3D29
3D21
3D31
3D39
3D21
3D39
3D29
3D21
3D39
3D39
3D42
3D29
3D31
3D29
3D42
3D29
3D21
3D21
3D31
3D21
3D4A
3D29
3D29
3D42
3D29
3D31
3D31
3D31
3D42
3D21
3D39
3CF1
3D42
3D19
3D4A
3D29
3D39
3D29
3D21
3D31
3D29
3D29
3D29
3D39
3D29
3D31
3D31
3D31
3D42
3D29
3D42
3D21
3D19
3D21
3D29
3D29
3D52
3D4A
3D42
3D31
3D42
3D29
3D42
3D42
3D29
3D21
3D29
3D29
3D42
3D21
3D39
3D31
3D31
3D39
3D42
3D21
3D42
3D42
3D39
3D29
3D4A
3D39
3D42
3D29
3D42
3D29
3D29
3D42
3D39
3D29
3D21
3D42
3D42
3D29
3D52
3D42
3D4A
3D29
3D31
3D29
3D31
3D52
3D29
3D29
3D72
3D39
3D52
3D62
3D5A
3D42
3D42
3D39
3D31
3D5A
3D21
3D52
3D4A
3D31
3D39
3D29
3D42
3D21
3D4A
3D29
3D31
3D42
3D31
3D31
3D39
3D31
3D4A
3D39
3D4A
3D31
3D42
3D39
3D4A
3D4A
3D4A
3D31
3D4A
3D31
3D42
3D29
3D31
3D4A
3D39
3D39
3D39
3D42
3D42
3D39
3D39
3D21
3D52
3D31
3D42
3D42
3D5A
3D21
3D31
3D42
3D52
3D42
3D52
3D39
3D39
3D5A
3D39
3D4A
3D4A
3D42
3D4A
3D42
3D4A
3D42
3D4A
3D39
3D52
3D29
3D42
3D4A
3D4A
3D72
3D42
3D52
3D52
3D4A
3D4A
3D4A
3D42
3D42
3D29
3D4A
3D4A
3D39
3D52
3D39
3D52
3D29
3D52
3D29
3D42
3D42
3D4A
3D42
3D62
3D42
3D5A
3D4A
3D82
3D29
3D42
3D42
3D4A
3D39
3D42
3D31
3D6A
3D52
3D52
3D4A
3D5A
3D42
3D42
3D42
3D6A
3D6A
3D39
3D39
3D4A
3D4A
3D52
3D42
3D4A
3D39
3D4A
3D42
3D5A
3D31
3D4A
3D31
3D52
3D4A
3D52
3D39
3D52
3D52
3D52
3D42
3D52
3D4A
3D52
3D39
3D39
3D52
3D52
3D42
3D52
3D39
3D42
3D4A
3D39
3D4A
3D4A
3D52
3D52
3D62
3D82
3D42
3D52
3D42
3D31
3D39
3D39
3D52
3D39
3D39
3D39
3D4A
3D4A
3D29
3D29
3D42
3D42
3D29
3D42
3D31
3D42
3D39
3D42
3D42
3D39
3D42
3D42
3D39
3D29
3D42
3D42
3D19
3D42
3D29
3D39
3D6A
3D31
3D42
3D42
3D39
3D52
3D62
3D52
3D42
3D42
3D39
3D52
3D52
3D42
3D72
3D6A
3D42
3D62
3D62
3D42
3D31
3D39
3D4A
3D39
3D31
3D39
3D5A
3D6A
3D39
3D39
3D39
3D29
3D4A
3D52
3D4A
3D42
3D52
3D4A
3D4A
3D11
3D5A
3D52
3D42
3D31
3D4A
3D29
3CF9
3D42
3D52
3D42
3D52
3D92
3D31
3D42
3D4A
3D52
3D52
3D31
3D52
3D52
3D39
3D6A
3D82
3D4A
3D52
3D52
3D52
3D62
3D62
3D42
3D52
3D52
3D4A
3D39
3D42
3D62
3D62
3D52
3D42
3D52
3D52
3D42
3D72
3D5A
3D5A
3D52
3D42
3D42
3D4A
3D52
3D39
3D42
3D92
3D52
3D52
3D62
3D31
3D5A
3D39
3D52
3D4A
3D4A
3D5A
3D52
3D42
3D31
3D7A
3D5A
3D5A
3D42
3D52
3D5A
3D6A
3D52
3D4A
3D5A
3D52
3D52
3D6A
3D5A
3D42
3D5A
3D39
3D52
3D4A
3D52
3D4A
3D52
3D42
3D5A
3D52
3D42
3D42
3D4A
3D42
3D52
3D42
3D62
3D52
3D42
3D39
3D6A
3D5A
3D31
3D39
3D4A
3D31
3D39
3D6A
3D42
3D42
3D4A
3D39
3D4A
3D42
3D42
3D42
3D62
3D39
3D4A
3D5A
3D21
3D42
3D31
3D4A
3D42
3D39
3D42
3D39
3D52
3D39
3D52
3D39
3D4A
3D42
3D52
3D52
3D4A
3D42
3D39
3D42
3D4A
3D42
3D42
3D39
3D29
3D7A
3D42
3D4A
3D4A
3D42
3D5A
3D52
3D62
3D62
3D62
3D5A
3D52
3D82
3D52
3D5A
3D5A
3D6A
3D5A
3D52
3D52
3D52
3D72
3D62
3D4A
3D52
3D4A
3D62
3D52
3D52
3D62
3D52
3D6A
3D42
3D82
3D5A
3D52
3D39
3D52
3D5A
3D31
3D5A
3D39
3D62
3D5A
3D52
3D4A
3D52
3D62
3D52
3D62
3D39
3D62
3D4A
3D4A
3D62
3D5A
3D62
3D42
3D52
3D42
3D52
3D42
3D52
3D5A
3D5A
3D62
3D52
3D52
3D62
3D4A
3D62
3D62
3D72
3D52
3D52
3D5A
3D52
3D29
3D4A
3D39
3D5A
3D62
3D5A
3D4A
3D52
3D5A
3D6A
3CF9
3D31
3D6A
3D4A
3D62
3D52
3D62
3D62
3D5A
3D42
3D62
3D62
3D52
3D4A
3D6A
3D4A
3D42
3D5A
3D5A
3D62
3D6A
3D52
3D52
3D62
3D4A
3D4A
3D62
3D52
3D52
3D6A
3D72
3D6A
3D52
3D52