1571
1563
1571
1571
1579
1571
1571
1571
1579
1579
1571
1563
1579
1587
1571
1587
1571
1571
1571
1563
1579
1563
1571
1571
1579
1579
1563
1579
1555
1579
1563
1571
1571
1579
1587
1563
1571
1579
1571
1579
1579
1571
1571
1587
1587
1571
1571
1571
1571
1571
1571
1579
1571
1563
1579
1579
1571
1563
1579
1579
1571
1579
1555
1579
1571
1571
1571
1587
1579
1571
1563
1555
1571
1571
1571
1579
1579
1571
1571
1579
1579
1571
1555
1579
1579
1579
1579
1579
1563
1579
1571
1579
1587
1579
1579
1571
1571
1571
1555
1571
1579
1571
1571
1579
1571
1579
1571
1571
1579
1579
1571
1579
1571
1579
1587
1571
1579
1571
1579
1579
1571
1571
1571
1571
1571
1571
1571
1571
1571
1571
1563
1579
1587
1571
1587
1571
1579
1579
1571
1579
1571
1579
1571
1563
1563
1571
1555
1595
1579
1571
1555
1571
1563
1579
1579
1571
1571
1579
1563
1563
1571
1571
1555
1571
1571
1571
1571
1571
1587
1587
1563
1571
1571
1579
1571
1579
1571
1579
1571
1579
1563
1571
1579
1587
1571
1555
1571
1571
1571
1579
1563
1571
1587
1571
1579
1571
1579
1571
1555
1579
1571
1571
1579
1571
1587
1579
1571
1571
1571
1571
1579
1555
1571
1595
1547
1563
1579
1563
1563
1571
1579
1579
1587
1571
1571
1571
1571
1571
1579
1587
1579
1571
1571
1579
1579
1579
1579
1579
1571
1571
1587
1579
1579
1555
1579
1579
1579
1587
1579
1579
1579
1579
1571
1579
1571
1563
1571
1563
1571
1571
1555
1555
1579
1571
1563
1571
1579
1571
1555
1579
1579
1571
1571
1571
1579
1587
1571
1579
1571
1571
1563
1563
1579
1587
1579
1587
1571
1579
1571
1571
1555
1571
1579
1603
1571
1579
1579
1579
1571
1571
1571
1579
1555
1571
1571
1571
1587
1579
1579
1571
1571
1587
1571
1571
1587
1579
1579
1571
1571
1571
1571
1571
1571
1571
1563
1571
1571
1587
1579
1571
1579
1571
1595
1579
1563
1563
1579
1571
1571
1571
1579
1571
1579
1571
1579
1571
1579
1579
1571
1595
1571
1579
1579
1579
1547
1555
1571
1579
1579
1579
1579
1579
1579
1579
1571
1611
1571
1571
1571
1571
1571
1571
1579
1571
1571
1571
1571
1571
1571
1579
1571
1563
1571
1579
1579
1587
1579
1587
1563
1571
1571
1595
1571
1579
1579
1579
1571
1571
1571
1587
1579
1563
1579
1571
1555
1571
1579
1587
1571
1571
1571
1579
1571
1579
1571
1571
1571
1571
1571
1579
1571
1571
1587
1571
1579
1579
1571
1571
1571
1579
1579
1563
1579
1579
1587
1579
1579
1555
1579
1579
1579
1579
1571
1571
1563
1563
1579
1571
1579
1587
1587
1579
1571
1571
1579
1587
1563
1571
1571
1579
1563
1579
1563
1587
1587
1571
1579
1563
1571
1571
1587
1579
1579
1571
1571
1579
1579
1587
1571
1587
1571
1571
1571
1563
1571
1571
1579
1563
1571
1579
1571
1563
1579
1579
1571
1571
1571
1571
1571
1563
1571
1563
1571
1579
1579
1571
1563
1579
1571
1563
1571
1579
1587
1571
1579
1571
1571
1571
1555
1579
1571
1571
1571
1571
1571
1539
1571
1571
1571
1571
1579
1571
1571
1571
1571
1571
1563
1571
1579
1563
1571
1579
1563
1571
1579
1571
1579
1571
1571
1563
1571
1579
1579
1571
1571
1571
1571
1579
1587
1579
1571
1579
1579
1571
1587
1579
1579
1563
1571
1563
1571
1579
1555
1563
1579
1563
1563
1579
1571
1571
1587
1579
1579
1571
1579
1571
1579
1563
1579
1579
1579
1571
1579
1579
1571
1571
1571
1579
1571
1571
1579
1571
1571
1587
1587
1579
1579
1571
1579
1571
1571
1571
1579
1579
1579
1571
1563
1571
1571
1571
1571
1571
1579
1579
1555
1579
1547
1579
1579
1571
1587
1587
1579
1571
1571
1563
1563
1555
1563
1587
1563
1571
1571
1571
1571
1571
1579
1571
1571
1579
1571
1563
1563
1579
1579
1579
1579
1571
1571
1571
1563
1555
1579
1563
1571
1571
1579
1555
1579
1587
1571
1579
1579
1563
1571
1587
1571
1579
1571
1571
1571
1579
1571
1579
1571
1587
1571
1587
1571
1571
1579
1571
1579
1571
1563
1571
1571
1563
1579
1571
1571
1571
1587
1571
1571
1571
1563
1571
1579
1571
1571
1579
1571
1587
1547
1563
1579
1563
1579
1555
1587
1571
1587
1579
1579
1579
1579
1587
1579
1579
1571
1579
1587
1563
1571
1587
1571
1579
1571
1571
1579
1571
1571
1571
1571
1603
1587
1571
1563
1571
1579
1579
1571
1563
1579
1571
1571
1587
1571
1579
1571
1563
1571
1571
1571
1563
1571
1587
1579
1571
1571
1579
1571
1555
1579
1571
1571
1563
1579
1587
1571
1579
1571
1579
1563
1579
1571
1571
1579
1571
1579
1571
1563
1571
1571
1571
1579
1579
1571
1563
1563
1563
1571
1571
1579
1563
1571
1571
1579
1579
1571
1579
1579
1579
1571
1579
1587
1579
1579
1579
1563
1571
1571
1571
1579
1579
1571
1563
1571
1571
1571
1579
1571
1571
1587
1571
1571
1571
1571
1587
1547
1571
1587
1571
1579
1579
1571
1595
1571
1571
1571
1579
1571
1587
1563
1571
1579
1563
1579
1563
1579
1571
1571
1571
1563
1595
1563
1571
1571
1555
1579
1571
1571
1571
1595
1571
1571
1571
1571
1571
1587
1571
1571
1595
1587
1571
1579
1579
1579
1563
1563
1571
1563
1571
1563
1579
1571
1579
1579
1579
1563
1579
1579
1587
1563
1579
1579
1571
1579
1571
1587
1579
1571
1579
1571
1563
1571
1587
1571
1587
1587
1571
1579
1571
1571
1595
1571
1579
1563
1579
1571
1563
1571
1571
1571
1587
1571
1571
1571
1571
1571
1563
1579
1571
1571
1571
1571
1563
1587
1571
1563
1579
1571
1571
1579
1571
1571
1571
1571
1571
1571
1579
1579
1571
1571
1571
1571
1579
1571
1571
1563
1563
1571
1579
1579
1579
1579
1563
1579
1579
1571
1571
1571
1579
1579
1547
1571
1571
1571
1579
1571
1571
1571
1571
1571
1579
1571
1579
1579
1579
