1281
1281
1289
1281
1289
1281
1281
1289
1281
1289
1281
1289
1281
1289
1273
1281
1281
1281
1289
1281
1281
1265
1305
1281
1289
1273
1289
1297
1273
1281
1305
1281
1281
1281
1281
1281
1281
1273
1281
1289
1281
1273
1297
1273
1289
1281
1289
1289
1281
1297
1289
1273
1281
1273
1281
1297
1289
1289
1289
1265
1289
1297
1289
1289
1281
1281
1281
1289
1281
1281
1273
1273
1281
1289
1289
1273
1289
1281
1273
1281
1289
1289
1289
1281
1281
1289
1281
1281
1289
1297
1289
1289
1281
1273
1281
1273
1281
1297
1297
1273
1281
1273
1289
1289
1281
1281
1281
1273
1281
1289
1289
1281
1281
1281
1281
1273
1297
1289
1281
1281
1281
1281
1281
1273
1273
1273
1281
1289
1289
1265
1289
1289
1281
1265
1273
1289
1281
1297
1289
1281
1281
1289
1289
1281
1289
1289
1281
1289
1289
1289
1273
1281
1281
1289
1289
1297
1305
1265
1289
1281
1289
1273
1289
1273
1297
1289
1281
1297
1273
1289
1281
1289
1273
1289
1281
1289
1289
1289
1289
1289
1281
1289
1281
1289
1289
1281
1281
1273
1273
1289
1289
1289
1281
1281
1281
1289
1297
1273
1289
1289
1289
1273
1273
1281
1281
1281
1289
1281
1289
1289
1281
1281
1273
1281
1281
1281
1281
1281
1281
1281
1297
1281
1265
1281
1273
1273
1281
1281
1297
1289
1281
1297
1281
1297
1273
1289
1281
1281
1289
1289
1289
1281
1281
1281
1289
1289
1281
1281
1265
1273
1289
1289
1281
1289
1281
1281
1289
1273
1281
1281
1273
1289
1273
1289
1281
1289
1281
1281
1281
1281
1281
1281
1289
1273
1297
1281
1289
1273
1281
1281
1281
1281
1289
1281
1273
1281
1289
1281
1273
1289
1289
1281
1281
1281
1281
1281
1281
1281
1289
1289
1289
1289
1281
1297
1289
1289
1281
1289
1281
1289
1281
1289
1281
1289
1281
1281
1281
1289
1289
1289
1289
1297
1289
1289
1289
1281
1281
1289
1281
1289
1273
1281
1289
1281
1281
1273
1265
1281
1273
1281
1305
1281
1281
1289
1281
1281
1289
1289
1281
1281
1257
1281
1289
1289
1281
1289
1281
1281
1281
1281
1289
1281
1297
1281
1281
1281
1289
1281
1273
1281
1289
1281
1281
1289
1289
1281
1281
1281
1289
1289
1281
1281
1281
1289
1281
1265
1273
1273
1281
1297
1289
1297
1297
1289
1289
1289
1289
1297
1281
1281
1305
1265
1289
1273
1297
1281
1289
1281
1289
1281
1289
1281
1281
1281
1281
1273
1281
1305
1305
1289
1281
1281
1281
1281
1289
1305
1281
1289
1289
1289
1297
1281
1289
1297
1289
1289
1281
1289
1289
1289
1289
1289
1281
1289
1273
1281
1289
1281
1289
1273
1281
1273
1265
1265
1281
1289
1281
1273
1289
1289
1289
1297
1273
1281
1281
1289
1281
1297
1281
1273
1289
1265
1273
1281
1281
1289
1297
1281
1281
1273
1281
1281
1257
1289
1273
1281
1281
1297
1281
1281
1281
1289
1281
1281
1289
1305
1281
1281
1273
1281
1289
1305
1281
1289
1273
1273
1281
1281
1281
1281
1281
1289
1289
1281
1289
1281
1257
1273
1297
1297
1281
1289
1281
1289
1273
1281
1289
1289
1281
1297
1281
1265
1281
1289
1281
1281
1297
1289
1281
1289
1281
1273
1289
1289
1289
1289
1281
1281
1289
1289
1281
1273
1289
1297
1281
1281
1289
1281
1281
1281
1289
1281
1281
1297
1289
1289
1297
1273
1281
1281
1273
1289
1273
1265
1289
1273
1281
1289
1281
1289
1281
1257
1289
1281
1289
1289
1289
1281
1273
1281
1289
1289
1281
1281
1289
1289
1281
1305
1281
1281
1289
1289
1289
1281
1281
1273
1281
1289
1281
1273
1281
1289
1281
1281
1281
1289
1289
1281
1281
1281
1281
1265
1281
1289
1273
1281
1273
1281
1281
1289
1265
1289
1281
1281
1289
1273
1289
1281
1281
1289
1273
1281
1281
1281
1289
1281
1281
1289
1265
1265
1273
1281
1281
1289
1289
1289
1289
1281
1305
1273
1273
1281
1281
1281
1289
1289
1289
1281
1289
1265
1289
1289
1281
1281
1281
1281
1281
1257
1281
1289
1281
1281
1289
1281
1281
1281
1289
1281
1273
1273
1281
1281
1281
1281
1273
1281
1273
1289
1289
1273
1265
1289
1281
1289
1281
1281
1281
1273
1281
1273
1281
1281
1289
1281
1249
1281
1273
1289
1281
1281
1281
1281
1281
1289
1281
1281
1281
1289
1281
1281
1273
1281
1273
1281
1273
1281
1297
1273
1305
1281
1281
1289
1281
1273
1281
1281
1289
1265
1281
1281
1289
1273
1281
1289
1289
1273
1313
1281
1289
1281
1281
1281
1289
1297
1273
1289
1281
1281
1281
1297
1297
1289
1289
1297
1289
1273
1297
1289
1281
1273
1281
1281
1281
1289
1289
1281
1281
1289
1289
1273
1289
1281
1289
1281
1281
1281
1281
1281
1281
1297
1305
1289
1289
1289
1281
1281
1281
1289
1281
1281
1281
1265
1289
1265
1273
1289
1281
1281
1281
1289
1281
1281
1281
1289
1281
1297
1281
1297
1281
1281
1281
1289
1281
1281
1289
1289
1297
1289
1305
1289
1281
1281
1289
1273
1281
1281
1289
1281
1297
1281
1289
1289
1297
1289
1289
1281
1289
1281
1289
1289
1281
1289
1289
1289
1273
1265
1305
1281
1281
1289
1281
1281
1289
1297
1281
1281
1281
1289
1281
1273
1281
1273
1289
1281
1289
1281
1289
1289
1289
1273
1281
1281
1289
1281
1281
1281
1289
1281
1289
1265
1289
1281
1289
1289
1289
1289
1281
1289
1281
1273
1281
1273
1297
1281
1305
1281
1289
1273
1289
1273
1281
1281
1289
1273
1297
1265
1273
1273
1297
1289
1281
1289
1281
1281
1289
1281
1289
1281
1281
1289
1289
1265
1281
1281
1273
1281
1281
1273
1289
1289
1289
1273
1289
1289
1289
1281
1265
1289
1289
1281
1281
1289
1281
1281
1281
1281
1273
1289
1289
1289
1281
1281
1265
1273
1289
1289
1289
1289
1273
1273
1281
1289
1281
1273
1273
1273
1281
1273
1265
1281
1289
1273
1265
1305
1273
1289
1281
1273
1289
1289
