25916
25924
25924
25924
25908
25916
25924
25924
25916
25916
25924
25916
25932
25916
25908
25916
25916
25916
25924
25916
25916
25932
25908
25924
25924
25924
25924
25908
25908
25924
25916
25924
25908
25908
25924
25924
25924
25948
25924
25916
25932
25924
25916
25916
25940
25932
25916
25916
25908
25916
25900
25932
25916
25924
25924
25908
25924
25924
25924
25924
25924
25916
25916
25908
25908
25916
25908
25932
25924
25932
25908
25916
25908
25916
25916
25916
25924
25924
25932
25932
25924
25908
25932
25924
25916
25900
25908
25916
25908
25916
25932
25932
25900
25916
25924
25916
25932
25908
25908
25924
25924
25924
25932
25908
25908
25924
25908
25916
25892
25892
25908
25900
25900
25924
25892
25908
25892
25916
25908
25908
25908
25916
25908
25908
25916
25908
25916
25908
25900
25916
25916
25916
25916
25916
25916
25892
25924
25916
25916
25900
25924
25908
25900
25916
25916
25900
25900
25908
25892
25908
25916
25932
25900
25892
25924
25900
25924
25932
25900
25908
25900
25916
25924
25908
25892
25916
25916
25916
25932
25908
25892
25908
25908
25916
25892
25900
25908
25908
25924
25916
25924
25908
25908
25916
25908
25924
25892
25892
25908
25892
25900
25908
25916
25892
25916
25908
25916
25924
25884
25916
25892
25908
25924
25924
25916
25908
25916
25916
25900
25916
25900
25924
25916
25916
25908
25916
25916
25924
25916
25884
25916
25908
25908
25916
25900
25916
25916
25916
25900
25908
25908
25908
25908
25908
25900
25916
25916
25916
25908
25908
25908
25892
25916
25932
25884
25916
25908
25908
25892
25916
25900
25916
25916
25900
25908
25884
25916
25916
25908
25916
25900
25916
25916
25900
25916
25916
25916
25900
25916
25916
25924
25916
25900
25900
25908
25916
25916
25916
25892
25908
25908
25916
25916
25916
25916
25900
25924
25916
25916
25916
25908
25908
25908
25916
25908
25916
25908
25908
25908
25908
25908
25908
25900
25900
25908
25916
25908
25908
25892
25908
25908
25908
25908
25900
25916
25916
25884
25916
25916
25908
25900
25916
25908
25932
25916
25908
25916
25900
25924
25908
25908
25924
25916
25908
25900
25916
25900
25908
25908
25916
25892
25916
25908
25924
25908
25908
25908
25908
25908
25892
25900
25908
25916
25916
25908
25916
25900
25892
25916
25916
25916
25900
25908
25908
25916
25908
25900
25900
25916
25908
25908
25900
25916
25916
25892
25908
25916
25892
25908
25916
25916
25892
25908
25900
25916
25916
25900
25900
25900
25908
25908
25916
25916
25900
25892
25908
25908
25916
25916
25916
25916
25924
25908
25908
25900
25916
25900
25916
25900
25916
25916
25908
25908
25932
25900
25916
25916
25916
25916
25916
25900
25908
25908
25916
25900
25908
25916
25908
25908
25900
25908
25900
25908
25908
25916
25916
25892
25908
25892
25916
25908
25908
25916
25900
25932
25924
25908
25916
25924
25908
25908
25892
25916
25900
25908
25916
25916
25916
25908
25908
25900
25916
25908
25908
25916
25908
25900
25900
25908
25908
25932
25916
25900
25908
25916
25908
25900
25908
25908
25908
25932
25908
25916
25924
25924
25908
25908
25932
25908
25908
25908
25916
25900
25916
25916
25916
25924
25900
25916
25908
25916
25916
25908
25916
25908
25908
25908
25908
25916
25916
25900
25916
25908
25908
25924
25908
25892
25900
25924
25924
25908
25924
25916
25916
25924
25916
25916
25916
25924
25908
25924
25908
25908
25916
25916
25932
25924
25916
25916
25940
25924
25916
25900
25916
25924
25900
25916
25908
25916
25916
25916
25916
25916
25916
25916
25924
25916
25900
25932
25916
25900
25924
25916
25924
25916
25932
25924
25924
25924
25908
25900
25940
25924
25908
25924
25900
25916
25916
25916
25916
25916
25924
25924
25892
25900
25916
25940
25916
25892
25916
25916
25908
25924
25924
25916
25916
25916
25940
25916
25916
25916
25916
25908
25924
25916
25924
25932
25948
25916
25964
25900
25924
25916
25932
25924
25932
25916
25924
25916
25916
25932
25924
25924
25940
25932
25916
25924
25924
25916
25924
25924
25908
25916
25916
25940
25908
25924
25916
25916
25924
25924
25908
25916
25916
25916
25916
25916
25924
25900
25908
25908
25916
25916
25916
25916
25916
25916
25924
25908
25908
25924
25908
25924
25908
25916
25916
25932
25884
25924
25916
25924
25924
25924
25908
25924
25924
25916
25908
25908
25916
25908
25924
25916
25916
25924
25932
25916
25916
25932
25900
25916
25900
25900
25916
25924
25924
25908
25916
25916
25916
25908
25916
25916
25932
25916
25916
25924
25924
25908
25916
25908
25924
25908
25932
25924
25916
25916
25916
25908
25900
25916
25884
25916
25932
25908
25900
25924
25916
25916
25916
25924
25908
25916
25924
25932
25932
25908
25916
25908
25900
25900
25916
25916
25908
25924
25908
25916
25924
25900
25900
25916
25924
25908
25916
25916
25916
25908
25916
25908
25924
25916
25884
25916
25916
25924
25916
25900
25908
25916
25932
25916
25908
25924
25916
25916
25908
25916
25916
25916
25916
25916
25916
25916
25916
25916
25916
25916
25916
25916
25900
25900
25916
25916
25916
25908
25924
25916
25916
25908
25924
25908
25916
25900
25908
25924
25916
25924
25916
25916
25924
25924
25916
25900
25916
25916
25908
25916
25916
25916
25932
25932
25932
25892
25916
25924
25916
25924
25924
25908
25916
25924
25908
25916
25900
25916
25908
25916
25908
25916
25908
25916
25916
25924
25924
25916
25908
25916
25916
25924
25916
25916
25916
25916
25916
25924
25924
25908
25916
25916
25900
25924
25916
25916
25916
25924
25932
25916
25932
25908
25916
25908
25924
25924
25916
25916
25916
25916
25924
25924
25924
25900
25916
25932
25916
25916
25908
25908
25916
25924
25908
25908
25916
25924
25900
25916
25908
25908
25916
25924
25924
25900
25916
25924
25916
25924
25932
25916
25916
25916
25916
25916
25892
25900
25908
25916
25916
25908
25908
25908
25916
25908
25924
25916
25884
25916
25916
25908
25908
25924
25924
25908
25908
25916
25916
25892
25916
25900
25916
25916
25900
25900
25876
25892
25868
25916
25924
25908
25908
25916
25916
25900
25916
25924
25916
25900
25892
25908
25916
25932
25924
25908
25908
25916
25892
25916
25900
25916
25916
25908
25916
25908
25916
25924
25916
25932
25916
25924
25916
25997
25924
25900
25908
25908
25908
25900
25916
25908
25908
25908
25916
25916
25900
25932
25900
25948
25916
25908
25916
25908
25908
