13530
13530
13530
13546
13546
13530
13554
13554
13554
13570
13554
13554
13570
13562
13562
13578
13570
13570
13578
13570
13586
13578
13594
13586
13594
13586
13578
13586
13602
13594
13578
13586
13594
13578
13594
13610
13610
13586
13594
13619
13610
13610
13602
13610
13619
13602
13602
13610
13602
13610
13619
13610
13619
13610
13602
13610
13602
13610
13627
13619
13610
13610
13627
13619
13635
13594
13619
13619
13610
13619
13635
13635
13619
13619
13627
13627
13627
13619
13627
13627
13635
13635
13627
13627
13635
13635
13627
13627
13635
13627
13643
13635
13619
13635
13635
13635
13627
13659
13643
13635
13627
13651
13627
13635
13643
13643
13643
13643
13635
13627
13635
13651
13643
13643
13643
13643
13643
13635
13643
13627
13651
13643
13643
13635
13651
13659
13643
13643
13635
13643
13643
13643
13667
13651
13659
13659
13667
13651
13627
13643
13659
13643
13651
13635
13667
13643
13651
13643
13651
13651
13643
13643
13659
13651
13659
13651
13667
13651
13659
13651
13643
13635
13651
13651
13659
13651
13619
13659
13643
13659
13643
13651
13683
13659
13651
13659
13659
13651
13667
13651
13659
13667
13651
13667
13659
13659
13659
13667
13667
13651
13659
13659
13667
13651
13643
13659
13659
13667
13659
13659
13659
13659
13659
13667
13675
13667
13659
13659
13683
13659
13667
13667
13659
13659
13659
13675
13659
13651
13659
13667
13667
13659
13659
13659
13667
13667
13667
13659
13659
13675
13659
13667
13667
13651
13667
13643
13683
13659
13659
13667
13667
13667
13659
13667
13667
13651
13659
13675
13675
13659
13667
13651
13675
13659
13667
13667
13675
13667
13667
13659
13667
13667
13667
13667
13667
13675
13651
13667
13667
13675
13675
13667
13675
13659
13667
13667
13675
13675
13675
13675
13667
13667
13659
13659
13667
13659
13667
13675
13659
13659
13675
13667
13675
13667
13667
13667
13667
13675
13683
13667
13675
13667
13667
13675
13675
13675
13667
13667
13675
13683
13667
13667
13675
13675
13667
13683
13667
13667
13659
13659
13675
13667
13675
13667
13667
13659
13667
13667
13667
13667
13675
13667
13675
13667
13675
13667
13683
13683
13675
13675
13683
13675
13683
13675
13683
13683
13675
13675
13675
13691
13675
13675
13683
13675
13675
13683
13683
13683
13683
13683
13683
13691
13675
13683
13683
13675
13699
13683
13675
13683
13675
13683
13683
13675
13683
13675
13675
13683
13675
13675
13699
13691
13683
13683
13675
13683
13683
13691
13691
13683
13675
13691
13691
13683
13699
13675
13683
13675
13691
13699
13691
13675
13699
13699
13691
13691
13683
13683
13683
13691
13691
13691
13699
13683
13691
13691
13675
13675
13691
13691
13691
13683
13683
13683
13683
13683
13683
13691
13699
13699
13699
13691
13691
13683
13699
13683
13699
13691
13683
13691
13691
13683
13691
13691
13699
13691
13691
13699
13691
13699
13699
13699
13699
13699
13707
13691
13699
13699
13699
13691
13691
13691
13707
13699
13699
13683
13691
13683
13699
13691
13707
13699
13691
13683
13699
13707
13707
13699
13707
13699
13699
13691
13707
13691
13707
13691
13691
13691
13691
13699
13699
13715
13691
13699
13699
13707
13699
13699
13699
13683
13691
13707
13699
13691
13699
13699
13699
13691
13683
13699
13699
13667
13715
13699
13691
13723
13707
13699
13699
13707
13667
13707
13707
13699
13691
13699
13699
13699
13691
13699
13707
13707
13707
13691
13707
13699
13699
13691
13715
13707
13691
13699
13699
13699
13691
13699
13699
13699
13699
13699
13691
13699
13699
13699
13691
13699
13699
13699
13715
13699
13707
13699
13691
13723
13699
13691
13707
13707
13699
13691
13707
13707
13691
13699
13707
13699
13691
13699
13699
13691
13683
13675
13699
13691
13691
13699
13707
13707
13699
13691
13683
13699
13699
13699
13699
13683
13699
13699
13691
13691
13691
13699
13691
13699
13691
13699
13707
13707
13691
13707
13699
13699
13699
13699
13699
13699
13691
13707
13699
13699
13699
13699
13691
13707
13699
13699
13683
13747
13699
13723
13691
13683
13683
13699
13699
13691
13691
13683
13691
13683
13691
13691
13691
13691
13691
13691
13715
13691
13699
13691
13699
13699
13691
13691
13691
13699
13691
13707
13675
13699
13691
13715
13699
13675
13691
13707
13699
13699
13707
13691
13675
13699
13707
13683
13699
13691
13683
13691
13683
13707
13699
13683
13691
13699
13691
13707
13691
13699
13699
13691
13699
13683
13691
13691
13699
13699
13691
13691
13699
13707
13699
13699
13691
13691
13699
13699
13691
13691
13707
13707
13675
13699
13691
13707
13699
13691
13707
13691
13699
13683
13691
13683
13699
13691
13715
13691
13699
13715
13691
13691
13691
13683
13699
13699
13699
13699
13699
13707
13691
13699
13707
13683
13691
13699
13675
13683
13691
13699
13699
13691
13699
13699
13691
13699
13707
13699
13699
13699
13731
13707
13707
13699
13707
13691
13707
13707
13675
13715
13715
13691
13699
13691
13699
13699
13691
13699
13707
13683
13715
13707
13707
13707
13715
13707
13691
13715
13691
13707
13699
13699
13699
13707
13699
13715
13699
13723
13715
13691
13699
13707
13707
13699
13699
13699
13691
13699
13707
13707
13715
13723
13715
13723
13707
13691
13683
13715
13715
13699
13715
13707
13715
13707
13707
13699
13707
13715
13715
13699
13715
13715
13731
13699
13699
13707
13691
13715
13723
13707
13707
13699
13715
13715
13699
13683
13691
13707
13707
13707
13699
13707
13707
13723
13715
13707
13707
13707
13723
13739
13715
13691
13715
13699
13715
13707
13707
13707
13707
13715
13707
13707
13715
13707
13723
13715
13707
13707
13691
13731
13715
13699
13723
13723
13723
13715
13699
13707
13723
13715
13707
13723
13723
13707
13707
13715
13731
13715
13707
13715
13715
13715
13723
13715
13723
13715
13723
13731
13707
13707
13715
13715
13715
13715
13715
13715
13723
13723
13715
13715
13723
13731
13715
13731
13707
13723
13723
13731
13715
13723
13715
13707
13707
13731
13731
13707
13723
13715
13723
13707
13715
13731
13723
13707
13723
13707
13723
13707
13723
13715
13723
13707
13715
13723
13715
13715
13715
13715
13715
13715
13715
13723
13715
13715
13723
13715
13715
13723
13707
13731
13731
13699
13723
13715
13691
13715
13723
13723
13715
13739
13715
13715
13707
13715
13715
13723
13715
13723
13715
13707
13715
13723
13707
13707
13723
13707
13723
13715
13739
13707
13699
13683
