8655
8646
8646
8663
8646
8647
8638
8638
8655
8646
8638
8630
8638
8638
8630
8638
8638
8614
8614
8647
8630
8630
8606
8639
8646
8638
8606
8630
8646
8639
8598
8630
8630
8638
8622
8630
8614
8630
8622
8647
8606
8638
8638
8622
8606
8614
8630
8614
8638
8655
8638
8630
8622
8614
8630
8630
8638
8630
8646
8638
8606
8639
8639
8647
8630
8630
8630
8631
8614
8639
8647
8639
8630
8639
8647
8638
8630
8638
8647
8646
8622
8630
8646
8622
8614
8638
8639
8622
8638
8639
8638
8622
8663
8638
8623
8647
8622
8606
8639
8646
8655
8630
8630
8647
8622
8630
8622
8647
8622
8630
8630
8631
8622
8638
8647
8638
8655
8606
8638
8647
8622
8622
8630
8638
8646
8622
8647
8622
8663
8647
8622
8638
8630
8630
8622
8631
8639
8647
8606
8622
8614
8647
8630
8647
8630
8622
8638
8631
8631
8631
8630
8630
8638
8631
8622
8647
8614
8663
8655
8606
8614
8630
8614
8647
8630
8638
8631
8630
8622
8639
8647
8630
8630
8655
8638
8638
8606
8614
8638
8639
8630
8638
8647
8638
8622
8606
8655
8622
8630
8606
8638
8630
8639
8655
8647
8614
8646
8630
8614
8638
8638
8647
8631
8638
8638
8614
8606
8606
8630
8647
8622
8647
8630
8647
8622
8639
8647
8630
8638
8614
8622
8630
8639
8631
8622
8638
8614
8614
8630
8631
8638
8638
8622
8630
8655
8630
8630
8630
8646
8647
8606
8638
8630
8647
8638
8630
8598
8638
8630
8638
8647
8630
8638
8655
8622
8630
8638
8622
8638
8622
8622
8622
8638
8655
8622
8630
8638
8630
8630
8622
8638
8614
8614
8606
8630
8646
8638
8664
8630
8639
8630
8630
8622
8622
8639
8622
8638
8598
8630
8638
8630
8622
8622
8630
8655
8630
8638
8638
8638
8622
8638
8638
8639
8622
8630
8638
8622
8622
8630
8622
8622
8638
8630
8638
8663
8638
8622
8647
8638
8630
8630
8638
8647
8630
8638
8630
8630
8630
8646
8638
8655
8639
8638
8630
8647
8630
8622
8638
8622
8606
8622
8622
8622
8622
8614
8630
8630
8638
8638
8622
8646
8647
8622
8646
8646
8622
8630
8638
8630
8630
8630
8638
8622
8614
8655
8646
8638
8647
8639
8630
8655
8630
8630
8664
8630
8622
8638
8630
8622
8630
8638
8638
8630
8638
8630
8655
8647
8630
8614
8655
8630
8638
8622
8638
8630
8638
8646
8655
8606
8630
8630
8622
8638
8638
8622
8646
8646
8639
8630
8655
8638
8647
8630
8638
8638
8646
8622
8647
8638
8638
8630
8630
8638
8630
8647
8638
8655
8630
8630
8647
8622
8639
8638
8655
8639
8647
8638
8663
8663
8622
8622
8614
8638
8647
8647
8630
8630
8630
8671
8638
8639
8655
8655
8655
8622
8647
8655
8639
8647
8647
8614
8655
8631
8647
8606
8655
8655
8639
8647
8647
8655
8639
8679
8647
8655
8631
8638
8638
8630
8639
8623
8655
8630
8639
8639
8630
8655
8655
8647
8646
8630
8630
8647
8655
8639
8638
8622
8647
8647
8647
8630
8638
8647
8655
8647
8639
8639
8655
8622
8647
8647
8639
8638
8655
8655
8639
8663
8655
8655
8647
8672
8639
8638
8639
8638
8631
8655
8630
8631
8646
8647
8623
8639
8639
8647
8606
8647
8638
8630
8655
8639
8638
8655
8639
8630
8639
8638
8655
8622
8639
8630
8655
8655
8630
8622
8630
8647
8638
8630
8622
8647
8614
8647
8638
8630
8655
8622
8622
8638
8646
8630
8630
8646
8622
8638
8638
8646
8646
8614
8622
8630
8655
8630
8646
8655
8630
8630
8663
8646
8646
8630
8647
8680
8638
8614
8630
8630
8638
8630
8646
8647
8606
8638
8638
8630
8630
8638
8655
8638
8622
8638
8630
8646
8622
8622
8638
8630
8647
8638
8631
8638
8646
8646
8647
8647
8638
8647
8638
8679
8647
8638
8622
8631
8622
8655
8630
8646
8622
8647
8655
8639
8630
8639
8638
8655
8647
8647
8671
8655
8639
8630
8630
8663
8630
8638
8646
8630
8638
8655
8655
8622
8638
8655
8663
8663
8631
8647
8638
8630
8663
8647
8647
8655
8639
8655
8615
8639
8663
8631
8655
8663
8655
8630
8622
8655
8639
8655
8647
8630
8639
8614
8663
8646
8639
8639
8655
8639
8655
8646
8655
8639
8639
8646
8663
8630
8622
8655
8630
8655
8655
8638
8630
8655
8647
8655
8631
8638
8630
8639
8622
8655
8647
8663
8647
8639
8655
8647
8630
8647
8639
8647
8630
8622
8663
8631
8638
8638
8655
8639
8638
8663
8622
8646
8622
8631
8638
8647
8639
8647
8647
8655
8630
8639
8638
8655
8646
8630
8622
8622
8622
8663
8646
8647
8638
8647
8655
8638
8639
8630
8639
8646
8639
8630
8614
8646
8622
8647
8638
8655
8655
8622
8646
8630
8614
8630
8630
8663
8638
8646
8638
8638
8638
8622
8638
8606
8630
8647
8630
8639
8631
8638
8630
8646
8655
8638
8647
8638
8638
8638
8630
8638
8630
8655
8646
8647
8647
8631
8663
8664
8639
8622
8638
8655
8663
8638
8622
8638
8614
8638
8638
8639
8663
8630
8639
8647
8638
8663
8646
8622
8646
8655
8647
8663
8646
8638
8638
8655
8630
8630
8639
8663
8630
8639
8655
8647
8622
8631
8638
8639
8622
8663
8671
8655
8622
8631
8647
8630
8655
8655
8655
8655
8622
8655
8663
8639
8630
8647
8647
8655
8630
8663
8639
8671
8631
8623
8663
8639
8655
8647
8639
8647
8655
8655
8639
8639
8655
8647
8639
8647
8655
8655
8647
8655
8614
8631
8647
8647
8647
8663
8647
8655
8647
8639
8655
8639
8647
8647
8663
8631
8647
8647
8687
8655
8647
8655
8663
8663
8631
8639
8647
8647
8647
8647
8663
8663
8639
8639
8655
8639
8631
8647
8630
8663
8630
8655
8655
8638
8638
8663
8630
8646
8630
8647
8647
8647
8638
8638
8630
8647
8655
8647
8647
8622
8647
8663
8622
8655
8638
8630
8655
8647
8647
8638
8663
8614
8638
8647
8638
8638
8647
8655
8646
8630
8647
8630
8631
8646
8655
8647
8655
8622
8655
8655
8622
8646
8647
8646
8638
8622
8638
