7107
7083
7067
7067
7075
7067
7075
7043
7108
7075
7067
7075
7075
7075
7067
7083
7083
7051
7067
7067
7059
7059
7067
7067
7059
7067
7051
7059
7059
7067
7099
7059
7059
7067
7059
7051
7075
7075
7043
7059
7075
7067
7059
7067
7043
7043
7059
7051
7067
7067
7043
7059
7067
7051
7035
7051
7051
7059
7051
7051
7059
7043
7051
7059
7035
7051
7051
7059
7035
7059
7051
7051
7059
7059
7067
7035
7043
7059
7051
7035
7051
7051
7051
7043
7059
7035
7051
7052
7035
7051
7035
7059
7051
7043
7027
7052
7035
7059
7051
7043
7043
7051
7043
7043
7051
7043
7035
7027
7059
7043
7051
7043
7043
7051
7043
7043
7035
7019
7067
7035
7035
7052
7043
7043
7051
7043
7035
7051
7051
7051
7043
7051
7035
7027
7043
7043
7051
7043
7027
7027
7043
7067
7035
7051
7035
7035
7027
7035
7043
7027
7027
7035
7035
7059
7043
7035
7011
7043
7035
7035
7043
7043
7043
7027
7043
7027
7043
7043
7035
7019
7043
7035
7043
7027
7043
7043
7027
7035
7051
7035
7019
7035
7043
7035
7043
7035
7027
7043
7035
7027
7051
7043
7043
7027
7043
7019
7035
7035
7027
7027
7027
7011
7043
7043
7043
7043
7035
7035
7051
7051
7043
7043
7019
7035
7043
7043
7035
7035
7003
6947
7019
7027
7051
7043
7027
7027
7043
7043
7044
7027
7035
7019
7035
7035
7035
7035
7035
7051
7011
7035
7027
7052
7027
7027
7027
7035
7035
7019
7043
7027
7051
7019
7035
7019
7027
7043
7043
7035
7019
7035
7043
7043
7035
7027
7027
7035
7043
7019
7043
7027
7027
7035
7035
7019
7035
7035
7027
7035
7019
7011
7035
7035
7035
7035
6995
7035
7035
7043
7019
7027
7011
7035
7019
7019
7035
7027
7043
7019
7027
7011
7043
7051
7043
7027
7019
7027
7035
7019
7035
7043
7051
7035
7027
7043
7043
7019
7027
7011
7035
7019
7043
7035
7043
7051
7027
7027
7035
7027
7027
7011
7043
7035
7027
7035
7019
7011
7043
7027
7019
7035
7035
7044
7027
7027
7035
7019
7027
7027
7027
7019
7019
7011
7035
7003
7035
7044
7027
7043
7059
7035
7027
7027
7035
7019
7035
7019
7003
7027
7035
7027
7027
7035
7035
7019
7027
7027
7027
7035
7035
7011
7027
7019
7043
7011
7027
7027
7027
7027
7035
7019
7019
7027
7027
7059
7019
7019
7011
7043
7035
7011
7043
7019
7003
7035
7051
7035
7035
7043
7011
7035
7003
7035
7019
7003
7043
7011
7035
7019
7035
7051
7035
7019
7035
7035
7011
7011
7027
7051
7027
7019
7011
7027
7019
7019
7019
7019
7019
7035
7019
7035
7035
7027
7035
7027
7027
7027
7035
7019
7027
7019
7003
7035
7027
7035
7011
7027
7035
7003
7011
7019
7035
7019
7019
7019
7019
7043
7035
7027
7003
7019
7035
7035
7035
7019
7011
7019
7035
7027
7027
7019
7035
7035
7035
7027
7003
7019
7003
7027
7035
7003
7035
7011
7027
7043
7011
7035
7019
7019
7003
7019
7043
7035
7035
7027
7027
7011
6995
7019
7019
7027
7019
7027
7027
7011
7019
7011
7019
7043
7035
7027
7027
7003
7043
7011
7019
7027
7035
7027
7027
7011
7027
7011
7027
7035
7043
7035
7011
7051
7035
7019
7019
7027
7019
7003
7027
7003
7027
7011
7019
7027
7027
7019
7019
7027
7019
7044
7011
7036
7027
7027
7035
7027
7027
7011
7011
7027
7043
7011
6979
6995
7011
7035
7035
6995
7019
7027
7043
7027
7027
7027
7035
7019
7027
7019
7035
7011
7027
7011
7003
7035
7019
7035
7019
7019
7019
7027
7011
7027
7035
7035
7003
7019
7027
7027
7019
7011
7027
7035
7019
7019
7003
7011
7011
7027
7027
7027
7027
7027
7027
7027
7019
7027
7027
7011
7027
7027
7027
7003
7019
7019
7011
7019
7035
7043
7019
7035
7019
7027
7019
7027
7019
7003
7019
7035
7027
7035
7028
7019
6995
7019
7019
7027
7019
7019
7027
7011
7019
7019
7011
7019
6995
6923
6994
7003
7027
7011
7027
7027
7044
7019
7035
7035
7035
7043
7011
7035
7019
7019
7019
7035
7019
7011
6995
7011
7011
7011
7035
7027
7003
7027
7043
7027
7011
7011
7019
7019
7011
7036
7027
7027
7019
7003
7035
7019
6987
6947
7035
7019
7019
7027
7019
7035
7043
7019
7019
7011
7011
7019
7019
7019
7027
7019
7011
7019
7027
7019
7027
7027
7019
7019
7003
7019
7003
7011
7019
7019
7019
7027
7027
7027
7027
7019
7035
7035
7027
7035
7027
7003
6995
7059
7003
7027
7011
7027
7019
7027
7003
7011
7019
7027
7043
6995
7019
7052
7035
7002
7043
7011
7011
7011
7019
7003
7003
7019
7027
7003
7011
7027
7035
7027
7035
7019
6987
7003
7011
7035
7019
7027
7035
7019
7011
7011
7027
7019
7027
7003
7019
7003
6994
7003
7011
7019
7019
7019
7027
7027
7035
7011
7019
7019
7011
7011
7011
7035
7036
7035
7019
7027
7011
7027
6995
7019
7027
7019
7028
7019
7019
7011
7035
7003
7019
7027
7011
7020
7003
7019
7011
7027
7027
7019
7011
7003
7019
7003
7027
7002
7019
7027
6995
7027
7011
7027
7019
7027
7027
7035
7019
7019
7019
7019
7019
7019
7027
7027
7019
7011
6994
7027
7011
7019
7011
7003
7011
7019
7011
7011
7019
7019
7019
7019
7036
7011
7043
7027
7003
7011
6995
7027
7019
7019
7011
7035
7035
7019
7035
7027
7027
7011
7027
7027
7011
7011
7003
7027
7036
7011
7027
7003
7011
7035
7003
7027
7027
7011
7035
7027
7027
7019
7011
7003
7035
7035
7035
7027
7027
7019
7035
7011
7027
7011
7011
7027
7019
7027
7027
7019
7035
6995
7027
7019
7035
7003
7043
7027
7019
7027
7027
7035
7003
7027
7019
7027
7027
7011
7035
7027
7019
7019
7035
7019
7035
7011
7019
7027
7043
7003
7019
6978
7027
7027
7027
7011
7035
7003
7011
7027
7019
7035
7003
7043
7011
7027
7043
7027
7035
7035
7019
7027
7011
7027
7027
7027
7019
6994
7019
7019
7027
7043
7035
7027
