8179
8179
8163
8171
8195
8163
8171
8147
8179
8171
8171
8155
8171
8179
8163
8155
8139
8163
8171
8155
8155
8155
8163
8155
8163
8147
8171
8155
8171
8155
8123
8131
8155
8155
8123
8155
8155
8139
8123
8139
8131
8147
8163
8147
8155
8171
8155
8155
8147
8139
8131
8139
8147
8155
8139
8123
8139
8147
8155
8139
8131
8123
8139
8139
8123
8131
8147
8139
8131
8147
8147
8139
8123
8131
8139
8139
8131
8139
8131
8147
8139
8131
8131
8131
8139
8147
8131
8123
8131
8163
8131
8131
8139
8123
8131
8123
8139
8155
8147
8107
8131
8147
8131
8139
8147
8139
8139
8139
8131
8123
8147
8123
8123
8131
8123
8123
8131
8131
8115
8123
8139
8131
8139
8147
8107
8123
8139
8123
8107
8131
8147
8139
8147
8131
8091
8131
8131
8131
8131
8123
8147
8115
8115
8155
8131
8123
8107
8139
8131
8123
8131
8099
8115
8115
8123
8139
8147
8123
8115
8115
8139
8139
8115
8131
8123
8115
8123
8107
8147
8115
8123
8115
8115
8107
8147
8107
8099
8131
8131
8123
8131
8115
8107
8115
8123
8131
8091
8131
8091
8115
8123
8099
8115
8123
8123
8131
8107
8099
8139
8115
8099
8139
8163
8099
8107
8115
8131
8107
8115
8123
8099
8107
8115
8123
8123
8091
8115
8107
8115
8123
8123
8107
8115
8091
8115
8115
8115
8115
8123
8115
8123
8107
8148
8099
8099
8107
8115
8099
8099
8123
8107
8123
8107
8099
8123
8131
8115
8115
8132
8099
8107
8107
8115
8107
8139
8091
8107
8123
8115
8107
8139
8115
8115
8115
8115
8115
8099
8107
8099
8115
8107
8107
8115
8107
8115
8115
8107
8131
8075
8123
8107
8115
8090
8131
8115
8107
8115
8123
8115
8107
8115
8123
8115
8131
8115
8115
8115
8115
8115
8115
8115
8123
8123
8107
8115
8123
8115
8107
8107
8107
8115
8099
8099
8107
8115
8107
8098
8107
8107
8123
8098
8115
8123
8107
8123
8115
8091
8115
8115
8107
8099
8115
8107
8107
8115
8107
8107
8098
8098
8107
8099
8107
8082
8099
8098
8115
8099
8090
8124
8090
8115
8107
8115
8115
8099
8098
8123
8107
8115
8107
8099
8107
8131
8115
8107
8107
8107
8082
8090
8107
8115
8115
8099
8107
8098
8082
8107
8107
8107
8090
8107
8107
8123
8107
8107
8091
8090
8107
8082
8115
8115
8099
8115
8082
8115
8098
8107
8115
8116
8107
8107
8098
8107
8123
8098
8123
8116
8115
8107
8090
8123
8099
8115
8107
8107
8099
8107
8107
8099
8115
8107
8107
8099
8107
8124
8123
8091
8107
8107
8107
8131
8098
8090
8090
8099
8098
8090
8123
8107
8082
8082
8107
8107
8115
8083
8099
8107
8107
8099
8099
8098
8115
8091
8098
8107
8107
8123
8107
8099
8098
8099
8107
8099
8082
8090
8115
8099
8107
8107
8090
8099
8131
8090
8099
8107
8123
8090
8090
8090
8090
8132
8107
8098
8107
8098
8107
8115
8090
8099
8115
8123
8115
8115
8107
8090
8107
8107
8090
8074
8090
8115
8107
8090
8091
8123
8091
8099
8099
8098
8107
8115
8107
8115
8107
8107
8115
8098
8107
8099
8099
8082
8099
8099
8115
8091
8091
8107
8099
8099
8091
8091
8107
8099
8099
8115
8123
8090
8107
8091
8115
8099
8131
8099
8091
8082
8107
8074
8082
8099
8107
8107
8107
8099
8099
8099
8115
8091
8107
8099
8082
8115
8099
8107
8116
8115
8099
8099
8131
8107
8099
8066
8107
8099
8099
8074
8131
8115
8082
8099
8107
8091
8099
8123
8107
8099
8115
8115
8107
8099
8107
8098
8107
8091
8098
8115
8082
8082
8107
8131
8115
8090
8107
8115
8115
8115
8099
8107
8107
8099
8082
8107
8099
8098
8132
8115
8090
8115
8099
8107
8115
8115
8091
8115
8107
8090
8115
8090
8123
8099
8107
8115
8091
8099
8082
8099
8099
8115
8107
8123
8099
8090
8107
8131
8099
8090
8107
8074
8107
8082
8074
8123
8115
8107
8107
8099
8083
8083
8091
8123
8115
8099
8082
8099
8090
8099
8090
8115
8099
8099
8090
8124
8099
8099
8099
8090
8099
8115
8099
8082
8099
8107
8083
8107
8107
8099
8090
8115
8107
8099
8115
8155
8099
8107
8099
8066
8090
8074
8107
8115
8090
8091
8115
8099
8099
8091
8098
8115
8090
8107
8099
8091
8099
8099
8115
8107
8099
8099
8107
8107
8107
8082
8099
8082
8083
8115
8107
8115
8091
8107
8107
8091
8107
8099
8091
8115
8099
8099
8107
8091
8091
8107
8091
8091
8091
8083
8090
8107
8115
8099
8099
8083
8083
8099
8107
8099
8115
8107
8082
8123
8123
8099
8099
8091
8083
8091
8083
8115
8090
8099
8091
8099
8107
8083
8115
8139
8082
8091
8099
8099
8115
8075
8099
8099
8115
8107
8099
8115
8091
8107
8098
8107
8090
8083
8091
8115
8091
8058
8115
8099
8090
8099
8099
8107
8082
8107
8091
8115
8099
8082
8082
8091
8083
8099
8107
8107
8107
8082
8083
8107
8099
8099
8083
8099
8074
8091
8099
8115
8115
8099
8091
8099
8099
8099
8099
8082
8123
8091
8099
8107
8115
8099
8083
8099
8082
8107
8091
8115
8091
8091
8099
8099
8107
8091
8034
8099
8099
8107
8099
8107
8107
8074
8107
8091
8099
8099
8123
8074
8107
8099
8099
8099
8099
8099
8090
8099
8099
8115
8099
8107
8099
8107
8090
8099
8091
8107
8099
8082
8083
8107
8107
8091
8098
8091
8107
8099
8107
8107
8098
8099
8098
8099
8123
8099
8082
8091
8090
8099
8091
8107
8099
8091
8083
8091
8099
8091
8107
8091
8107
8115
8075
8099
8099
8091
8090
8099
8091
8123
8123
8091
8099
8075
8091
8075
8099
8091
8099
8091
8115
8099
8091
8107
8091
8115
8074
8099
8090
8099
8099
8091
8099
8075
8099
8082
8115
8091
8091
8107
8099
8090
8099
8091
8099
8107
8107
8107
8099
8091
8082
8083
8099
8074
8082
8107
8066
8099
8123
8099
8090
8074
8083
8099
8091
8099
8107
8107
8099
8099
8083
8098
8090
8115
8115
8099
8099
8099
8107
8099
8107
8083
8074
