10605
10573
10581
10597
10605
10573
10581
10597
10573
10589
10589
10589
10605
10581
10589
10581
10589
10525
10573
10581
10589
10605
10565
10565
10589
10589
10581
10605
10573
10597
10597
10597
10581
10597
10581
10597
10573
10605
10581
10589
10581
10597
10589
10597
10589
10605
10597
10589
10597
10605
10581
10581
10589
10589
10589
10581
10581
10589
10581
10589
10597
10581
10589
10597
10589
10581
10589
10597
10581
10589
10589
10589
10589
10573
10581
10597
10589
10581
10581
10573
10597
10597
10589
10597
10581
10589
10589
10621
10589
10589
10589
10589
10597
10597
10589
10614
10597
10589
10589
10581
10581
10597
10597
10597
10605
10573
10589
10581
10597
10597
10605
10597
10597
10597
10597
10605
10597
10605
10597
10605
10605
10605
10605
10605
10597
10597
10613
10597
10589
10589
10605
10589
10597
10573
10589
10597
10597
10597
10597
10613
10597
10589
10613
10605
10613
10573
10581
10597
10597
10597
10597
10597
10605
10613
10613
10597
10605
10589
10613
10573
10581
10597
10597
10605
10589
10589
10589
10589
10605
10597
10597
10597
10597
10597
10605
10613
10589
10605
10589
10589
10613
10581
10581
10589
10597
10605
10621
10605
10581
10605
10589
10597
10597
10589
10597
10581
10589
10605
10589
10581
10605
10597
10589
10597
10597
10589
10597
10605
10589
10605
10597
10557
10605
10581
10597
10605
10597
10597
10589
10597
10605
10605
10589
10597
10613
10589
10605
10597
10581
10613
10597
10605
10589
10597
10597
10597
10613
10573
10589
10597
10597
10597
10589
10589
10613
10621
10613
10621
10589
10597
10605
10605
10613
10597
10589
10605
10581
10589
10605
10597
10597
10605
10605
10605
10597
10605
10597
10581
10613
10597
10597
10613
10621
10605
10597
10613
10597
10613
10605
10605
10637
10589
10581
10597
10605
10597
10589
10605
10613
10613
10589
10613
10621
10597
10605
10605
10613
10597
10605
10605
10605
10637
10613
10621
10621
10605
10613
10605
10613
10613
10613
10621
10605
10605
10613
10589
10605
10597
10589
10605
10597
10605
10597
10613
10621
10597
10589
10597
10597
10597
10605
10613
10597
10597
10597
10613
10613
10597
10597
10605
10589
10597
10605
10597
10597
10605
10605
10605
10597
10613
10621
10597
10605
10605
10621
10613
10613
10605
10597
10605
10614
10597
10597
10605
10605
10597
10605
10637
10605
10613
10597
10589
10597
10605
10597
10597
10621
10605
10638
10613
10613
10597
10597
10613
10605
10597
10541
10605
10589
10597
10597
10605
10605
10597
10605
10605
10613
10597
10613
10613
10621
10637
10597
10605
10613
10589
10605
10613
10621
10597
10621
10589
10605
10581
10621
10613
10613
10597
10621
10613
10613
10597
10621
10613
10605
10605
10605
10605
10605
10613
10605
10605
10589
10597
10613
10621
10605
10589
10605
10621
10613
10605
10621
10621
10597
10621
10605
10597
10605
10589
10573
10605
10613
10613
10605
10613
10605
10605
10613
10589
10613
10597
10621
10613
10605
10589
10613
10613
10605
10597
10613
10605
10621
10589
10613
10606
10629
10605
10613
10605
10597
10613
10622
10613
10605
10613
10613
10597
10613
10597
10613
10613
10605
10597
10613
10597
10621
10613
10621
10613
10605
10621
10605
10597
10605
10613
10605
10613
10597
10613
10621
10597
10621
10613
10597
10597
10597
10589
10621
10597
10597
10605
10613
10621
10613
10589
10613
10613
10589
10605
10605
10613
10605
10605
10621
10621
10597
10629
10621
10613
10637
10605
10613
10605
10613
10605
10613
10605
10605
10605
10613
10597
10613
10629
10605
10605
10613
10605
10613
10629
10605
10613
10597
10605
10621
10605
10597
10621
10605
10605
10621
10597
10581
10629
10597
10613
10605
10613
10613
10597
10621
10613
10613
10621
10621
10629
10597
10613
10613
10621
10629
10605
10613
10597
10621
10613
10605
10597
10621
10605
10597
10605
10613
10605
10613
10605
10613
10621
10597
10597
10589
10613
10597
10621
10621
10613
10581
10613
10597
10613
10621
10621
10605
10597
10597
10613
10597
10621
10613
10613
10605
10605
10613
10621
10613
10613
10605
10605
10613
10613
10613
10621
10645
10629
10621
10605
10597
10613
10622
10605
10605
10605
10613
10605
10605
10613
10613
10605
10645
10605
10621
10621
10605
10605
10605
10613
10629
10621
10621
10621
10605
10605
10597
10613
10645
10613
10621
10613
10629
10605
10605
10621
10605
10613
10605
10613
10605
10605
10613
10605
10605
10613
10605
10597
10597
10605
10613
10621
10605
10613
10629
10613
10613
10637
10605
10613
10605
10589
10605
10621
10613
10629
10613
10629
10605
10613
10605
10629
10613
10621
10613
10597
10653
10597
10621
10613
10621
10605
10597
10613
10621
10613
10613
10613
10605
10613
10605
10589
10645
10637
10613
10621
10613
10605
10597
10605
10613
10629
10605
10621
10605
10621
10525
10613
10629
10597
10605
10613
10605
10605
10605
10597
10605
10597
10597
10597
10621
10605
10637
10605
10613
10597
10613
10589
10637
10605
10605
10597
10613
10589
10597
10597
10605
10613
10621
10597
10605
10613
10613
10613
10613
10613
10605
10605
10605
10621
10605
10605
10621
10613
10613
10614
10605
10605
10605
10605
10605
10621
10621
10613
10613
10621
10629
10613
10597
10597
10629
10613
10613
10621
10613
10605
10605
10605
10621
10629
10629
10613
10613
10605
10605
10613
10621
10613
10629
10645
10597
10597
10613
10605
10613
10613
10605
10605
10613
10605
10613
10605
10605
10597
10613
10605
10629
10621
10605
10613
10621
10613
10597
10613
10613
10621
10629
10621
10613
10621
10613
10621
10613
10613
10621
10621
10613
10605
10629
10621
10629
10621
10637
10605
10613
10597
10605
10621
10613
10589
10621
10605
10621
10613
10613
10613
10621
10613
10629
10613
10605
10621
10629
10637
10613
10645
10605
10589
10613
10597
10621
10629
10597
10605
10621
10589
10613
10613
10613
10613
10613
10605
10637
10613
10573
10597
10621
10597
10605
10621
10629
10605
10605
10613
10621
10605
10613
10605
10621
10605
10621
10613
10613
10597
10605
10613
10613
10613
10605
10605
10573
10613
10597
10605
10613
10605
10613
10613
10613
10589
10621
10605
10621
10629
10605
10605
10613
10597
10629
10621
10621
10621
10637
10613
10637
10629
10621
10629
10629
10613
10605
10597
10597
10637
10597
10613
10605
10605
10621
10597
10613
10629
10621
10605
10597
10597
10613
10629
10605
10605
10613
10621
10621
10605
