159
159
160
159
160
159
159
160
159
160
159
160
159
160
158
159
159
159
160
159
159
157
162
159
160
158
160
161
158
159
162
159
159
159
159
159
159
158
159
160
159
158
161
158
160
159
160
160
159
161
160
158
159
158
159
161
160
160
160
157
160
161
160
160
159
159
159
160
159
159
158
158
159
160
160
158
160
159
158
159
160
160
160
159
159
160
159
159
160
161
160
160
159
158
159
158
159
161
161
158
159
158
160
160
159
159
159
158
159
160
160
159
159
159
159
158
161
160
159
159
159
159
159
158
158
158
159
160
160
157
160
160
159
157
158
160
159
161
160
159
159
160
160
159
160
160
159
160
160
160
158
159
159
160
160
161
162
157
160
159
160
158
160
158
161
160
159
161
158
160
159
160
158
160
159
160
160
160
160
160
159
160
159
160
160
159
159
158
158
160
160
160
159
159
159
160
161
158
160
160
160
158
158
159
159
159
160
159
160
160
159
159
158
159
159
159
159
159
159
159
161
159
157
159
158
158
159
159
161
160
159
161
159
161
158
160
159
159
160
160
160
159
159
159
160
160
159
159
157
158
160
160
159
160
159
159
160
158
159
159
158
160
158
160
159
160
159
159
159
159
159
159
160
158
161
159
160
158
159
159
159
159
160
159
158
159
160
159
158
160
160
159
159
159
159
159
159
159
160
160
160
160
159
161
160
160
159
160
159
160
159
160
159
160
159
159
159
160
160
160
160
161
160
160
160
159
159
160
159
160
158
159
160
159
159
158
157
159
158
159
162
159
159
160
159
159
160
160
159
159
156
159
160
160
159
160
159
159
159
159
160
159
161
159
159
159
160
159
158
159
160
159
159
160
160
159
159
159
160
160
159
159
159
160
159
157
158
158
159
161
160
161
161
160
160
160
160
161
159
159
162
157
160
158
161
159
160
159
160
159
160
159
159
159
159
158
159
162
162
160
159
159
159
159
160
162
159
160
160
160
161
159
160
161
160
160
159
160
160
160
160
160
159
160
158
159
160
159
160
158
159
158
157
157
159
160
159
158
160
160
160
161
158
159
159
160
159
161
159
158
160
157
158
159
159
160
161
159
159
158
159
159
156
160
158
159
159
161
159
159
159
160
159
159
160
162
159
159
158
159
160
162
159
160
158
158
159
159
159
159
159
160
160
159
160
159
156
158
161
161
159
160
159
160
158
159
160
160
159
161
159
157
159
160
159
159
161
160
159
160
159
158
160
160
160
160
159
159
160
160
159
158
160
161
159
159
160
159
159
159
160
159
159
161
160
160
161
158
159
159
158
160
158
157
160
158
159
160
159
160
159
156
160
159
160
160
160
159
158
159
160
160
159
159
160
160
159
162
159
159
160
160
160
159
159
158
159
160
159
158
159
160
159
159
159
160
160
159
159
159
159
157
159
160
158
159
158
159
159
160
157
160
159
159
160
158
160
159
159
160
158
159
159
159
160
159
159
160
157
157
158
159
159
160
160
160
160
159
162
158
158
159
159
159
160
160
160
159
160
157
160
160
159
159
159
159
159
156
159
160
159
159
160
159
159
159
160
159
158
158
159
159
159
159
158
159
158
160
160
158
157
160
159
160
159
159
159
158
159
158
159
159
160
159
155
159
158
160
159
159
159
159
159
160
159
159
159
160
159
159
158
159
158
159
158
159
161
158
162
159
159
160
159
158
159
159
160
157
159
159
160
158
159
160
160
158
163
159
160
159
159
159
160
161
158
160
159
159
159
161
161
160
160
161
160
158
161
160
159
158
159
159
159
160
160
159
159
160
160
158
160
159
160
159
159
159
159
159
159
161
162
160
160
160
159
159
159
160
159
159
159
157
160
157
158
160
159
159
159
160
159
159
159
160
159
161
159
161
159
159
159
160
159
159
160
160
161
160
162
160
159
159
160
158
159
159
160
159
161
159
160
160
161
160
160
159
160
159
160
160
159
160
160
160
158
157
162
159
159
160
159
159
160
161
159
159
159
160
159
158
159
158
160
159
160
159
160
160
160
158
159
159
160
159
159
159
160
159
160
157
160
159
160
160
160
160
159
160
159
158
159
158
161
159
162
159
160
158
160
158
159
159
160
158
161
157
158
158
161
160
159
160
159
159
160
159
160
159
159
160
160
157
159
159
158
159
159
158
160
160
160
158
160
160
160
159
157
160
160
159
159
160
159
159
159
159
158
160
160
160
159
159
157
158
160
160
160
160
158
158
159
160
159
158
158
158
159
158
157
159
160
158
157
162
158
160
159
158
160
160
