3179
3179
3179
3179
3179
3181
3181
3180
3181
3181
3182
3180
3180
3184
3181
3182
3181
3179
3180
3180
3180
3180
3181
3181
3180
3182
3181
3181
3181
3181
3181
3180
3180
3181
3180
3181
3181
3181
3181
3182
3181
3181
3180
3181
3182
3181
3182
3179
3183
3181
3181
3181
3182
3182
3181
3183
3183
3181
3181
3179
3181
3182
3181
3180
3183
3179
3183
3181
3181
3181
3180
3180
3181
3180
3180
3181
3181
3182
3181
3181
3180
3180
3181
3180
3180
3179
3178
3182
3181
3180
3181
3181
3181
3180
3182
3181
3181
3181
3180
3179
3180
3181
3180
3183
3181
3180
3179
3180
3183
3178
3180
3182
3181
3181
3182
3179
3182
3181
3182
3179
3179
3181
3180
3181
3180
3180
3178
3181
3181
3181
3181
3179
3179
3181
3181
3181
3179
3181
3179
3181
3181
3179
3180
3180
3180
3181
3180
3179
3180
3182
3180
3181
3181
3181
3179
3179
3181
3180
3179
3181
3180
3181
3181
3183
3180
3182
3181
3180
3179
3180
3179
3180
3180
3180
3180
3179
3180
3179
3181
3181
3180
3181
3179
3179
3180
3177
3179
3180
3180
3181
3182
3180
3182
3181
3181
3181
3179
3181
3181
3180
3179
3180
3179
3180
3179
3178
3180
3181
3180
3178
3180
3180
3183
3180
3181
3181
3181
3180
3180
3182
3181
3179
3179
3181
3180
3181
3180
3180
3184
3180
3179
3182
3180
3181
3181
3179
3181
3177
3178
3181
3182
3179
3179
3180
3180
3178
3181
3180
3179
3183
3181
3181
3181
3180
3180
3181
3181
3183
3180
3181
3178
3181
3181
3179
3181
3181
3179
3179
3182
3181
3181
3180
3179
3180
3180
3180
3179
3180
3180
3180
3180
3180
3179
3181
3180
3180
3178
3180
3178
3180
3179
3180
3180
3179
3180
3181
3179
3181
3180
3180
3180
3179
3180
3179
3179
3181
3179
3180
3179
3179
3179
3181
3181
3180
3181
3180
3181
3179
3179
3180
3179
3181
3180
3180
3179
3180
3180
3180
3179
3181
3179
3180
3181
3178
3180
3180
3179
3177
3181
3181
3179
3178
3181
3180
3179
3180
3178
3181
3181
3180
3181
3177
3181
3180
3180
3179
3179
3181
3178
3179
3180
3181
3180
3180
3182
3179
3180
3177
3180
3180
3180
3180
3180
3180
3180
3181
3180
3181
3181
3181
3179
3181
3178
3182
3181
3181
3181
3181
3180
3180
3179
3179
3179
3180
3181
3180
3181
3180
3180
3182
3182
3178
3181
3181
3180
3179
3179
3179
3179
3183
3181
3183
3179
3182
3180
3180
3180
3180
3179
3181
3180
3179
3181
3181
3180
3179
3181
3179
3179
3180
3181
3180
3181
3181
3181
3180
3180
3180
3179
3180
3180
3181
3180
3180
3180
3181
3181
3182
3179
3181
3181
3181
3182
3180
3180
3180
3179
3182
3180
3181
3181
3179
3180
3176
3181
3178
3182
3180
3181
3179
3181
3179
3180
3184
3181
3181
3180
3181
3182
3180
3181
3180
3181
3180
3180
3181
3180
3181
3180
3181
3180
3181
3180
3181
3181
3178
3180
3180
3180
3179
3180
3180
3181
3181
3181
3181
3179
3180
3181
3183
3179
3180
3180
3180
3180
3181
3177
3182
3180
3179
3180
3182
3181
3182
3179
3181
3182
3180
3181
3181
3182
3180
3181
3181
3180
3182
3181
3181
3179
3180
3181
3181
3181
3181
3180
3179
3180
3182
3181
3181
3179
3181
3179
3183
3180
3179
3182
3179
3180
3180
3181
3180
3181
3178
3181
3180
3181
3179
3182
3181
3181
3180
3181
3180
3181
3180
3180
3180
3178
3181
3180
3182
3180
3180
3182
3180
3180
3181
3183
3179
3179
3181
3179
3178
3181
3183
3179
3181
3181
3178
3180
3181
3180
3180
3180
3180
3180
3180
3182
3179
3181
3183
3180
3180
3179
3181
3181
3179
3180
3179
3180
3180
3179
3181
3181
3179
3182
3181
3181
3182
3180
3179
3180
3179
3181
3180
3180
3178
3179
3179
3179
3180
3182
3183
3181
3180
3180
3180
3177
3180
3180
3181
3179
3181
3180
3181
3180
3181
3182
3182
3178
3179
3180
3181
3180
3181
3181
3179
3181
3179
3181
3180
3179
3181
3177
3179
3182
3180
3182
3180
3181
3180
3182
3181
3181
3179
3179
3179
3180
3181
3180
3179
3180
3180
3182
3180
3179
3182
3179
3179
3179
3179
3179
3180
3180
3180
3183
3179
3181
3178
3180
3178
3180
3176
3179
3181
3181
3180
3180
3179
3180
3179
3180
3182
3181
3180
3180
3180
3179
3179
3178
3180
3181
3180
3181
3180
3181
3180
3181
3179
3181
3179
3181
3180
3180
3179
3180
3180
3179
3180
3180
3182
3178
3181
3180
3180
3180
3178
3178
3179
3179
3178
3179
3180
3179
3180
3181
3179
3180
3180
3178
3180
3179
3180
3179
3179
3180
3180
3179
3180
3180
3180
3179
3179
3176
3179
3179
3180
3177
3181
3180
3179
3179
3181
3179
3180
3179
3179
3182
3180
3179
3181
3180
3181
3180
3179
3179
3180
3178
3180
3181
3180
3179
3180
3181
3178
3180
3180
3179
3180
3179
3180
3179
3178
3179
3177
3180
3180
3180
3179
3179
3180
3179
3180
3181
3178
3178
3178
3179
3179
3180
3179
3179
3180
3179
3180
3180
3180
3179
3178
3181
3179
3179
3180
3182
3180
3178
3180
3180
3178
3182
3179
3179
3179
3178
3180
3180
3179
3181
3179
3180
3180
3177
3181
3179
3180
3181
3179
3179
3180
3180
3178
3182
3180
3181
3179
3178
3180
3178
3178
3177
3179
3180
3179
3180
3179
3181
3178
3182
3180
3179
3182
3180
3180
3180
3178
3181
3178
3180
3179
3180
3180
3180
3179
3179
3179
3181
3179
3180
3180
3179
3178
3179
3180
3182
3180
3179
3179
3180
3179
3180
3179
3180
3179
3180
3177
3179
3181
3180
3181
3180
3179
3179
3180
3179
3180
3180
3178
3179
3181
3179
3179
3179
3180
3178
3178
3180
3182
3179
3180
3180
3178
3180
3179
3178
3179
3179
3180
3178
3178
3180
3178
3179
3179
3179
3180
3179
3179
3177
3179
3179
3181
3176
3177
3178
3179
3180
3177
3180
3180
3181
3181
3179
3177
3180
3179
3180
3179
3178
3179
