32887
32903
32903
32919
32919
32911
32879
32911
32903
32911
32887
32887
32887
32895
32911
32895
32895
32879
32887
32903
32903
32903
32895
32871
32903
32895
32903
32871
32887
32895
32887
32903
32895
32887
32895
32879
32903
32895
32895
32903
32903
32911
32911
32903
32919
32911
32879
32895
32911
32911
32887
32919
32895
32887
32903
32887
32895
32895
32879
32911
32903
32895
32895
32911
32911
32903
32903
32911
32895
32887
32903
32903
32895
32879
32911
32895
32895
32879
32895
32911
32895
32887
32903
32903
32911
32919
32903
32911
32911
32903
32903
32903
32903
32887
32887
32895
32927
32887
32879
32887
32903
32887
32903
32903
32887
32871
32903
32903
32903
32919
32895
32879
32887
32887
32887
32903
32903
32895
32903
32887
32895
32879
32911
32903
32887
32903
32903
32871
32911
32895
32895
32903
32879
32903
32871
32895
32887
32887
32903
32895
32903
32903
32887
32903
32903
32911
32895
32903
32895
32903
32911
32903
32879
32887
32927
32879
32903
32887
32903
32895
32887
32895
32895
32887
32903
32903
32895
32903
32887
32879
32919
32903
32895
32903
32903
32895
32887
32887
32903
32879
32911
32903
32895
32911
32895
32903
32919
32911
32911
32911
32903
32887
32903
32911
32903
32911
32895
32895
32887
32895
32895
32895
32895
32911
32895
32911
32911
32895
32919
32927
32895
32911
32895
32903
32887
32919
32863
32903
32887
32879
32887
32903
32903
32895
32903
32887
32911
32887
32887
32911
32903
32903
32911
32895
32887
32887
32895
32895
32895
32895
32911
32911
32895
32919
32895
32911
32927
32895
32919
32903
32911
32887
32903
32903
32887
32895
32911
32871
32879
32895
32895
32903
32887
32919
32895
32903
32903
32903
32903
32895
32919
32887
32903
32911
32895
32863
32887
32895
32887
32943
32903
32911
32887
32911
32887
32911
32895
32911
32903
32903
32879
32887
32895
32895
32895
32879
32903
32895
32895
32911
32895
32935
32895
32911
32895
32919
32887
32903
32895
32919
32903
32903
32895
32895
32895
32887
32887
32895
32895
32879
32903
32895
32903
32911
32895
32919
32903
32895
32887
32895
32911
32895
32895
32895
32903
32887
32903
32887
32895
32895
32911
32887
32903
32895
32895
32903
32911
32919
32919
32863
32895
32903
32903
32903
32903
32895
32887
32895
32903
32903
32895
32895
32903
32911
32903
32903
32887
32895
32879
32919
32903
32903
32895
32911
32895
32895
32895
32919
32879
32919
32895
32895
32895
32903
32895
32919
32895
32903
32895
32895
32887
32911
32895
32895
32911
32895
32879
32903
32871
32863
32911
32911
32903
32895
32895
32911
32887
32911
32911
32911
32903
32895
32911
32887
32887
32887
32887
32903
32895
32919
32887
32911
32879
32887
32911
32895
32895
32903
32911
32879
32911
32895
32911
32911
32887
32887
32911
32887
32911
32887
32903
32919
32903
32895
32911
32911
32895
32895
32911
32887
32903
32895
32903
32895
32895
32879
32903
32895
32879
32927
32887
32903
32895
32903
32903
32895
32895
32903
32911
32911
32887
32903
32911
32887
32887
32903
32903
32895
32887
32887
32911
32895
32919
32895
32919
32895
32919
32887
32895
32887
32895
32887
32879
32895
32887
32903
32887
32879
32895
32911
32903
32895
32927
32895
32903
32895
32887
32895
32903
32895
32895
32903
32887
32895
32887
32887
32879
32887
32911
32887
32903
32903
32903
32911
32911
32911
32911
32919
32903
32903
32887
32903
32871
32895
32911
32895
32903
32903
32903
32895
32887
32895
32903
32887
32895
32903
32903
32895
32895
32879
32919
32879
32879
32895
32895
32895
32903
32895
32887
32895
32879
32887
32895
32903
32911
32911
32911
32887
32911
32903
32895
32895
32903
32895
32895
32903
32895
32895
32903
32895
32887
32911
32903
32895
32919
32903
32903
32903
32919
32911
32895
32895
32903
32903
32895
32895
32903
32887
32879
32887
32887
32903
32911
32911
32911
32895
32911
32927
32903
32887
32879
32903
32879
32887
32887
32887
32911
32895
32895
32887
32879
32911
32887
32911
32887
32911
32887
32895
32911
32903
32895
32903
32887
32887
32903
32887
32903
32887
32895
32895
32903
32903
32911
32911
32911
32895
32911
32903
32919
32887
32895
32887
32903
32895
32887
32895
32895
32895
32927
32895
32903
32895
32895
32903
32887
32903
32911
32903
32895
32903
32895
32903
32895
32887
32887
32887
32903
32895
32887
32903
32911
32911
32895
32903
32895
32911
32903
32895
32903
32879
32919
32903
32887
32895
32911
32887
32911
32919
32903
32919
32895
32895
32903
32903
32895
32903
32903
32887
32903
32919
32911
32895
32879
32887
32903
32887
32903
32879
32903
32903
32927
32895
32927
32895
32903
32903
32895
32895
32927
32887
32895
32911
32895
32903
32895
32903
32903
32871
32903
32887
32895
32879
32919
32895
32903
32911
32895
32919
32903
32895
32887
32911
32895
32895
32887
32879
32895
32895
32895
32895
32903
32911
32903
32903
32911
32927
32887
32903
32903
32911
32895
32895
32887
32887
32887
32887
32903
32887
32895
32887
32911
32895
32911
32903
32895
32903
32895
32895
32911
32935
32903
32911
32895
32879
32895
32887
32879
32887
32887
32903
32911
32903
32903
32911
32919
32895
32895
32895
32895
32911
32895
32895
32903
32895
32895
32887
32903
32887
32895
32895
32903
32895
32911
32895
32919
32919
32911
32887
32919
32911
32903
32895
32895
32887
32895
32911
32895
32887
32895
32895
32903
32895
32919
32895
32895
32903
32911
32903
32887
32895
32887
32911
32871
32895
32903
32895
32895
32903
32879
32879
32879
32903
32919
32911
32919
32911
32903
32903
32903
32911
32903
32895
32911
32895
32879
32895
32806
32919
32895
32895
32911
32895
32919
32903
32895
32887
32879
32903
32895
32895
32911
32895
32895
32895
32879
32911
32903
32887
32895
32903
32879
32895
32887
32919
32903
32911
32903
32911
32911
32895
32895
32887
32903
32863
32887
32903
32887
32895
32919
32911
32879
32903
32887
32911
32911
32903
32903
32863
32911
32903
32927
32887
32895
32887
32919
32887
32887
32846
32887
32871
32895
32895
32887
32919
32895
32911
32903
32895
32895
32903
32919
32830
32879
32879
32903
32863
32887
32879
32903
32911
32887
32895
32887
32879
32887
32911
32895
32895
32895
32919
32895
32903
32879
32895
32887
32903
32895
32895
32903
32895
32911
32887
32903
32895
32903
32895
32911
32903
32895
32895
32879
32895
32903
32903
32887
32879
32895
32895
32887
32911
