3181	 32967	 25634	 21
3181	 32959	 25634	 21
3182	 32991	 25642	 21
3181	 32983	 25634	 21
3180	 32967	 25626	 21
3181	 32983	 25634	 21
3181	 32975	 25634	 21
3182	 32975	 25642	 21
3183	 32983	 25650	 21
3182	 32975	 25642	 21
3182	 32967	 25642	 21
3182	 32991	 25642	 21
3184	 32983	 25658	 21
3181	 32967	 25634	 21
3182	 32975	 25642	 21
3181	 32975	 25634	 21
3181	 32983	 25634	 21
3182	 32967	 25642	 21
3182	 32983	 25642	 21
3184	 32983	 25658	 21
3182	 32967	 25642	 21
3181	 32983	 25634	 21
3183	 32975	 25650	 21
3182	 32983	 25642	 21
3183	 32975	 25650	 21
3183	 32967	 25650	 21
3182	 32983	 25642	 21
3182	 32975	 25642	 21
3183	 32975	 25650	 21
3182	 32967	 25642	 21
3183	 32975	 25650	 21
3181	 32983	 25634	 21
3183	 32967	 25650	 21
3184	 32975	 25658	 21
3184	 32991	 25658	 21
3182	 32975	 25642	 21
3181	 32975	 25634	 21
3183	 32983	 25650	 21
3183	 32967	 25650	 21
3183	 32983	 25650	 21
3183	 32991	 25650	 21
3182	 32983	 25642	 21
3182	 32967	 25642	 21
3182	 32983	 25642	 21
3183	 32983	 25650	 21
3182	 32967	 25642	 21
3183	 32975	 25650	 21
3182	 32991	 25642	 21
3182	 32983	 25642	 21
3181	 32983	 25634	 21
3183	 32975	 25650	 21
3182	 32959	 25642	 21
3181	 32983	 25634	 21
3183	 32975	 25650	 21
3184	 32967	 25658	 21
3183	 32991	 25650	 21
3182	 32975	 25642	 21
3182	 32959	 25642	 21
3183	 32943	 25650	 21
3183	 32975	 25650	 21
3182	 32983	 25642	 21
3184	 32975	 25658	 21
3183	 32975	 25650	 21
3181	 32975	 25634	 21
3182	 32983	 25642	 21
3182	 32975	 25642	 21
3183	 32983	 25650	 21
3182	 32983	 25642	 21
3182	 32967	 25642	 21
3182	 32983	 25642	 21
3182	 32975	 25642	 21
3183	 32959	 25650	 21
3183	 32975	 25650	 21
3183	 32975	 25650	 21
3182	 32991	 25642	 21
3185	 32983	 25666	 21
3182	 32967	 25642	 21
3182	 32975	 25642	 21
3183	 32959	 25650	 21
3183	 32983	 25650	 21
3184	 32975	 25658	 21
3182	 32983	 25642	 21
3181	 32975	 25634	 21
3182	 32975	 25642	 21
3184	 32975	 25658	 21
3181	 32975	 25634	 21
3181	 32975	 25634	 21
3181	 32983	 25634	 21
3183	 32983	 25650	 21
3183	 32967	 25650	 21
3182	 32967	 25642	 21
3183	 32967	 25650	 21
3183	 32975	 25650	 21
3182	 32975	 25642	 21
3182	 32975	 25642	 21
3183	 32975	 25650	 21
3183	 32983	 25650	 21
3185	 32975	 25666	 21
3182	 32991	 25642	 21
3183	 32975	 25650	 21
3180	 32975	 25626	 21
3183	 32983	 25650	 21
3182	 32967	 25642	 21
3182	 32983	 25642	 21
3181	 32967	 25634	 21
3183	 32983	 25650	 21
3182	 32975	 25642	 21
3183	 32983	 25650	 21
3182	 32975	 25642	 21
3183	 32983	 25650	 21
3182	 32991	 25642	 21
3182	 32983	 25642	 21
3182	 32967	 25642	 21
3182	 32983	 25642	 21
3183	 32975	 25650	 21
3183	 32975	 25650	 21
3172	 32975	 25561	 21
3185	 32967	 25666	 21
3183	 32983	 25650	 21
3182	 32983	 25642	 21
3182	 32967	 25642	 21
3181	 32983	 25634	 21
3181	 32983	 25634	 21
3182	 32983	 25642	 21
3182	 32975	 25642	 21
3185	 32975	 25666	 21
3180	 32975	 25626	 21
3181	 32959	 25634	 21
3182	 32983	 25642	 21
3180	 32975	 25626	 21
3182	 32983	 25642	 21
3183	 32967	 25650	 21
3182	 32959	 25642	 21
3182	 32991	 25642	 21
3183	 32967	 25650	 21
3181	 32967	 25634	 21
3183	 32967	 25650	 21
3181	 32983	 25634	 21
3183	 32975	 25650	 21
3182	 32975	 25642	 21
3181	 32967	 25634	 21
3181	 32967	 25634	 21
3182	 32975	 25642	 21
3184	 32959	 25658	 21
3181	 32983	 25634	 21
3181	 32983	 25634	 21
3181	 32967	 25634	 21
3182	 32975	 25642	 21
3182	 32959	 25642	 21
3182	 32967	 25642	 21
3183	 32983	 25650	 21
3182	 32991	 25642	 21
3183	 32991	 25650	 21
3183	 32967	 25650	 21
3182	 32975	 25642	 21
3182	 32975	 25642	 21
3182	 32975	 25642	 21
3183	 32983	 25650	 21
3182	 32991	 25642	 21
3183	 32975	 25650	 21
3182	 32983	 25642	 21
3183	 32975	 25650	 21
3181	 32975	 25634	 21
3182	 32983	 25642	 21
3181	 32959	 25634	 21
3182	 32991	 25642	 21
3182	 32975	 25642	 21
3183	 32975	 25650	 21
3182	 32991	 25642	 21
3180	 32967	 25626	 21
3182	 32975	 25642	 21
3182	 32983	 25642	 21
3183	 32983	 25650	 21
3181	 32975	 25634	 21
3181	 32975	 25634	 21
3183	 32967	 25650	 21
3181	 32975	 25634	 21
3183	 32975	 25650	 21
3183	 32975	 25650	 21
3182	 32975	 25642	 21
3182	 32983	 25642	 21
3182	 32967	 25642	 21
3183	 32975	 25650	 21
3182	 32967	 25642	 21
3182	 32975	 25642	 21
3182	 32967	 25642	 21
3181	 32967	 25634	 21
3183	 32975	 25650	 21
3182	 32975	 25642	 21
3182	 32991	 25642	 21
3183	 32967	 25650	 21
3183	 32983	 25650	 21
3182	 32975	 25642	 21
3180	 32951	 25626	 21
3182	 32975	 25642	 21
3183	 32975	 25650	 21
3181	 32983	 25634	 21
3182	 32975	 25642	 21
3182	 32951	 25642	 21
3182	 32967	 25642	 21
3181	 32967	 25634	 21
3182	 32975	 25642	 21
3182	 32975	 25642	 21
3181	 32983	 25634	 21
3182	 32967	 25642	 21
3182	 32991	 25642	 21
3182	 32975	 25642	 21
3183	 32983	 25650	 21
3181	 32983	 25634	 21
3181	 32975	 25634	 21
3179	 32991	 25618	 21
3182	 32967	 25642	 21
3182	 32983	 25642	 21
3182	 32975	 25642	 21
3181	 32975	 25634	 21
3183	 32967	 25650	 21
3180	 32983	 25626	 21
3183	 32959	 25650	 21
3183	 32983	 25650	 21
3182	 32967	 25642	 21
3181	 32975	 25634	 21
3183	 32975	 25650	 21
3183	 32967	 25650	 21
3180	 32975	 25626	 21
3184	 32959	 25658	 21
3182	 32967	 25642	 21
3182	 32983	 25642	 21
3182	 32983	 25642	 21
3182	 32967	 25642	 21
3182	 32983	 25642	 21
3181	 32983	 25634	 21
3183	 32983	 25650	 21
3182	 32983	 25642	 21
3182	 32959	 25642	 21
3184	 32983	 25658	 21
3182	 32975	 25642	 21
3181	 32983	 25634	 21
3182	 32975	 25642	 21
3180	 32991	 25626	 21
3183	 32983	 25650	 21
3182	 32983	 25642	 21
3181	 32975	 25634	 21
3182	 32975	 25642	 21
3182	 32983	 25642	 21
3182	 32983	 25642	 21
3182	 32975	 25642	 21
3183	 32991	 25650	 21
3182	 32983	 25642	 21
3182	 32959	 25642	 21
3182	 32975	 25642	 21
3182	 32991	 25642	 21
3183	 32967	 25650	 21
3182	 32975	 25642	 21
3182	 32991	 25642	 21
3182	 32983	 25642	 21
3183	 32967	 25650	 21
3182	 32967	 25642	 21
3182	 32967	 25642	 21
3180	 32983	 25626	 21
3179	 32975	 25618	 21
3182	 32975	 25642	 21
3184	 32975	 25658	 21
3180	 32975	 25626	 21
3181	 32983	 25634	 21
3182	 32983	 25642	 21
3181	 32983	 25634	 21
3182	 32983	 25642	 21
3181	 32991	 25634	 21
3182	 32967	 25642	 21
3182	 32967	 25642	 21
3183	 32983	 25650	 21
3182	 32959	 25642	 21
3181	 32975	 25634	 21
3180	 32967	 25626	 21
3181	 32975	 25634	 21
3183	 32967	 25650	 21
3182	 32967	 25642	 21
3182	 32975	 25642	 21
3181	 32983	 25634	 21
3181	 32975	 25634	 21
3181	 32983	 25634	 21
3183	 32983	 25650	 21
3184	 32959	 25658	 21
3181	 32967	 25634	 21
3184	 32983	 25658	 21
3182	 32983	 25642	 21
3182	 32959	 25642	 21
3182	 32967	 25642	 21
3182	 32991	 25642	 21
3180	 32975	 25626	 21
3182	 32975	 25642	 21
3184	 32991	 25658	 21
3181	 32983	 25634	 21
3182	 32967	 25642	 21
3186	 32983	 25674	 21
3182	 32983	 25642	 21
3182	 32967	 25642	 21
3182	 32959	 25642	 21
3182	 32983	 25642	 21
3182	 32967	 25642	 21
3180	 32975	 25626	 21
3182	 32959	 25642	 21
3181	 32967	 25634	 21
3181	 32983	 25634	 21
3183	 32975	 25650	 21
3181	 32983	 25634	 21
3182	 32991	 25642	 21
3182	 32959	 25642	 21
3182	 32967	 25642	 21
3185	 32975	 25666	 21
3181	 32983	 25634	 21
3183	 32983	 25650	 21
3182	 32991	 25642	 21
3183	 32983	 25650	 21
3183	 32967	 25650	 21
3183	 32975	 25650	 21
3183	 32975	 25650	 21
3180	 32983	 25626	 21
3182	 32991	 25642	 21
3184	 32983	 25658	 21
3183	 32975	 25650	 21
3182	 32975	 25642	 21
3182	 32967	 25642	 21
3183	 32975	 25650	 21
3182	 32975	 25642	 21
3184	 32991	 25658	 21
3183	 32975	 25650	 21
3182	 32983	 25642	 21
3183	 32991	 25650	 21
3183	 32975	 25650	 21
3183	 32975	 25650	 21
3182	 32983	 25642	 21
3182	 32967	 25642	 21
3184	 32967	 25658	 21
3182	 32983	 25642	 21
3183	 32983	 25650	 21
3182	 32975	 25642	 21
3183	 32983	 25650	 21
3183	 32983	 25650	 21
3182	 32975	 25642	 21
3183	 32983	 25650	 21
3182	 32983	 25642	 21
3183	 32983	 25650	 21
3184	 32983	 25658	 21
3183	 32983	 25650	 21
3183	 32975	 25650	 21
3183	 32991	 25650	 21
3184	 32975	 25658	 21
3183	 32975	 25650	 21
3183	 32967	 25650	 21
3183	 32975	 25650	 21
3182	 32975	 25642	 21
3182	 32975	 25642	 21
3184	 32967	 25658	 21
3182	 32967	 25642	 21
3181	 32991	 25634	 21
3182	 32983	 25642	 21
3182	 32967	 25642	 21
3184	 32983	 25658	 21
3183	 32975	 25650	 21
3182	 32983	 25642	 21
3181	 32975	 25634	 21
3185	 32975	 25666	 21
3183	 32975	 25650	 21
3182	 32983	 25642	 21
3182	 32983	 25642	 21
3185	 32975	 25666	 21
3185	 32983	 25666	 21
3183	 32975	 25650	 21
3184	 32991	 25658	 21
3183	 32983	 25650	 21
3183	 32975	 25650	 21
3182	 32983	 25642	 21
3182	 32967	 25642	 21
3183	 32983	 25650	 21
3181	 32967	 25634	 21
3180	 32991	 25626	 21
3183	 32983	 25650	 21
3180	 32975	 25626	 21
3183	 32975	 25650	 21
3182	 32983	 25642	 21
3180	 32983	 25626	 21
3182	 32991	 25642	 21
3182	 32975	 25642	 21
3182	 32983	 25642	 21
3183	 32983	 25650	 21
3183	 32975	 25650	 21
3182	 32975	 25642	 21
3184	 32983	 25658	 21
3182	 32975	 25642	 21
3183	 32983	 25650	 21
3183	 32983	 25650	 21
3183	 32983	 25650	 21
3182	 32991	 25642	 21
3184	 32983	 25658	 21
3183	 32983	 25650	 21
3182	 32991	 25642	 21
3183	 32975	 25650	 21
3182	 32991	 25642	 21
3180	 32975	 25626	 21
3183	 32991	 25650	 21
3183	 32983	 25650	 21
3183	 32975	 25650	 21
3179	 32983	 25618	 21
3182	 32983	 25642	 21
3182	 32975	 25642	 21
3181	 32983	 25634	 21
3182	 32983	 25642	 21
3183	 32991	 25650	 21
3182	 32983	 25642	 21
3182	 32975	 25642	 21
3182	 32975	 25642	 21
3181	 32983	 25634	 21
3182	 33000	 25642	 21
3182	 32983	 25642	 21
3180	 32991	 25626	 21
3182	 32975	 25642	 21
3182	 32975	 25642	 21
3184	 32983	 25658	 21
3183	 32975	 25650	 21
3183	 32983	 25650	 21
3183	 32983	 25650	 21
3182	 32991	 25642	 21
3182	 32975	 25642	 21
3183	 32975	 25650	 21
3182	 32983	 25642	 21
3182	 32975	 25642	 21
3183	 33000	 25650	 21
3181	 32975	 25634	 21
3176	 32983	 25594	 21
3182	 32983	 25642	 21
3183	 32983	 25650	 21
3186	 32991	 25674	 21
3184	 32975	 25658	 21
3183	 32983	 25650	 21
3182	 32983	 25642	 21
3183	 32983	 25650	 21
3184	 32991	 25658	 21
3182	 32991	 25642	 21
3181	 32991	 25634	 21
3183	 32975	 25650	 21
3183	 32991	 25650	 21
3183	 32983	 25650	 21
3182	 32983	 25642	 21
3183	 32983	 25650	 21
3184	 32967	 25658	 21
3183	 32975	 25650	 21
3180	 32991	 25626	 21
3181	 32983	 25634	 21
3183	 32983	 25650	 21
3183	 32983	 25650	 21
3183	 32983	 25650	 21
3184	 32991	 25658	 21
3184	 32983	 25658	 21
3183	 32983	 25650	 21
3184	 32991	 25658	 21
3182	 32983	 25642	 21
3182	 32983	 25642	 21
3183	 32983	 25650	 21
3184	 32975	 25658	 21
3183	 32991	 25650	 21
3183	 32975	 25650	 21
3183	 32983	 25650	 21
3183	 32983	 25650	 21
3182	 32975	 25642	 21
3182	 32975	 25642	 21
3183	 32991	 25650	 21
3181	 32991	 25634	 21
3184	 32983	 25658	 21
3183	 32983	 25650	 21
3184	 32983	 25658	 21
3183	 32983	 25650	 21
3183	 32975	 25650	 21
3182	 32991	 25642	 21
3184	 32983	 25658	 21
3183	 32975	 25650	 21
3182	 32991	 25642	 21
3183	 32983	 25650	 21
3183	 32983	 25650	 21
3183	 32991	 25650	 21
3182	 32983	 25642	 21
3184	 32983	 25658	 21
3183	 32975	 25650	 21
3183	 32983	 25650	 21
3182	 32983	 25642	 21
3183	 32983	 25650	 21
3183	 32991	 25650	 21
3182	 32983	 25642	 21
3183	 33000	 25650	 21
3180	 32991	 25626	 21
3184	 32975	 25658	 21
3183	 32991	 25650	 21
3186	 32975	 25674	 21
3183	 32991	 25650	 21
3183	 32983	 25650	 21
3182	 32983	 25642	 21
3182	 32991	 25642	 21
3183	 32983	 25650	 21
3184	 32991	 25658	 21
3182	 32991	 25642	 21
3183	 32991	 25650	 21
3182	 32975	 25642	 21
3181	 32991	 25634	 21
3182	 32983	 25642	 21
3184	 32983	 25658	 21
3183	 32975	 25650	 21
3184	 32991	 25658	 21
3183	 32983	 25650	 21
3184	 32975	 25658	 21
3183	 32975	 25650	 21
3182	 32975	 25642	 21
3181	 32991	 25634	 21
3183	 32983	 25650	 21
3184	 32991	 25658	 21
3183	 32983	 25650	 21
3183	 32983	 25650	 21
3184	 32983	 25658	 21
3183	 32975	 25650	 21
3184	 32991	 25658	 21
3186	 32959	 25674	 21
3182	 32975	 25642	 21
3184	 32991	 25658	 21
3182	 32991	 25642	 21
3182	 32975	 25642	 21
3182	 32967	 25642	 21
3183	 32975	 25650	 21
3182	 32991	 25642	 21
3183	 32983	 25650	 21
3183	 32983	 25650	 21
3184	 32983	 25658	 21
3183	 32967	 25650	 21
3183	 32991	 25650	 21
3183	 32983	 25650	 21
3183	 32983	 25650	 21
3184	 32991	 25658	 21
3184	 32983	 25658	 21
3184	 32991	 25658	 21
3182	 32983	 25642	 21
3184	 32991	 25658	 21
3184	 32983	 25658	 21
3184	 32983	 25658	 21
3186	 32991	 25674	 21
3183	 32983	 25650	 21
3183	 32983	 25650	 21
3182	 32991	 25642	 21
3183	 32991	 25650	 21
3183	 32959	 25650	 21
3184	 32975	 25658	 21
3182	 32983	 25642	 21
3183	 32975	 25650	 21
3183	 32983	 25650	 21
3183	 32975	 25650	 21
3183	 32991	 25650	 21
3184	 32983	 25658	 21
3184	 32983	 25658	 21
3182	 32983	 25642	 21
3182	 32975	 25642	 21
3184	 32983	 25658	 21
3183	 32975	 25650	 21
3183	 32983	 25650	 21
3183	 32991	 25650	 21
3182	 32983	 25642	 21
3185	 32975	 25666	 21
3182	 33000	 25642	 21
3183	 32975	 25650	 21
3183	 32983	 25650	 21
3184	 32991	 25658	 21
3184	 32975	 25658	 21
3181	 32983	 25634	 21
3183	 32991	 25650	 21
3183	 32991	 25650	 21
3184	 32991	 25658	 21
3182	 32991	 25642	 21
3183	 32991	 25650	 21
3183	 32991	 25650	 21
3183	 32991	 25650	 21
3184	 32991	 25658	 21
3183	 32983	 25650	 21
3181	 32991	 25634	 21
3183	 32967	 25650	 21
3182	 32975	 25642	 21
3183	 32991	 25650	 21
3182	 32983	 25642	 21
3185	 32975	 25666	 21
3185	 32983	 25666	 21
3182	 32991	 25642	 21
3181	 32975	 25634	 21
3184	 32967	 25658	 21
3184	 33000	 25658	 21
3182	 32983	 25642	 21
3185	 32991	 25666	 21
3183	 32991	 25650	 21
3182	 32983	 25642	 21
3182	 32975	 25642	 21
3184	 32975	 25658	 21
3181	 32967	 25634	 21
3181	 32983	 25634	 21
3182	 32975	 25642	 21
3181	 32975	 25634	 21
3181	 32983	 25634	 21
3183	 32975	 25650	 21
3181	 32983	 25634	 21
3182	 32983	 25642	 21
3183	 32991	 25650	 21
3182	 32983	 25642	 21
3180	 32983	 25626	 21
3181	 32983	 25634	 21
3182	 32983	 25642	 21
3183	 32983	 25650	 21
3186	 32991	 25674	 21
3181	 32975	 25634	 21
3182	 32983	 25642	 21
3185	 32975	 25666	 21
3181	 32983	 25634	 21
3183	 32967	 25650	 21
3181	 32967	 25634	 21
3183	 32983	 25650	 21
3182	 32983	 25642	 21
3181	 32991	 25634	 21
3180	 32967	 25626	 21
3181	 32983	 25634	 21
3182	 32983	 25642	 21
3183	 32991	 25650	 21
3184	 32983	 25658	 21
3182	 32991	 25642	 21
3182	 32975	 25642	 21
3184	 32975	 25658	 21
3183	 32991	 25650	 21
3182	 32991	 25642	 21
3183	 32983	 25650	 21
3184	 32983	 25658	 21
3180	 32959	 25626	 21
3182	 32991	 25642	 21
3182	 32983	 25642	 21
3182	 32975	 25642	 21
3181	 32975	 25634	 21
3182	 32983	 25642	 21
3182	 32983	 25642	 21
3184	 32983	 25658	 21
3182	 32983	 25642	 21
3182	 32991	 25642	 21
3183	 32975	 25650	 21
3182	 32983	 25642	 21
3183	 32967	 25650	 21
3181	 33000	 25634	 21
3182	 32983	 25642	 21
3182	 32975	 25642	 21
3183	 32959	 25650	 21
3181	 32975	 25634	 21
3181	 32975	 25634	 21
3183	 32975	 25650	 21
3184	 32991	 25658	 21
3182	 32983	 25642	 21
3182	 32967	 25642	 21
3183	 32991	 25650	 21
3179	 32975	 25618	 21
3185	 32975	 25666	 21
3184	 32983	 25658	 21
3183	 32983	 25650	 21
3182	 32983	 25642	 21
3182	 32975	 25642	 21
3182	 32983	 25642	 21
3183	 32975	 25650	 21
3182	 32975	 25642	 21
3182	 32983	 25642	 21
3182	 32983	 25642	 21
3180	 32983	 25626	 21
3181	 32967	 25634	 21
3182	 32975	 25642	 21
3180	 32975	 25626	 21
3181	 32967	 25634	 21
3183	 32967	 25650	 21
3182	 32975	 25642	 21
3182	 32967	 25642	 21
3181	 32983	 25634	 21
3182	 32975	 25642	 21
3182	 32983	 25642	 21
3182	 32967	 25642	 21
3181	 32975	 25634	 21
3183	 32967	 25650	 21
3182	 32983	 25642	 21
3181	 32967	 25634	 21
3182	 32991	 25642	 21
3182	 32983	 25642	 21
3182	 32983	 25642	 21
3182	 32991	 25642	 21
3182	 32975	 25642	 21
3180	 32983	 25626	 21
3182	 32983	 25642	 21
3180	 32983	 25626	 21
3182	 32967	 25642	 21
3181	 32983	 25634	 21
3181	 32991	 25634	 21
3181	 32983	 25634	 21
3182	 32975	 25642	 21
3181	 32967	 25634	 21
3181	 32983	 25634	 21
3182	 32975	 25642	 21
3182	 32983	 25642	 21
3181	 32967	 25634	 21
3183	 32951	 25650	 21
3182	 32951	 25642	 21
3182	 32967	 25642	 21
3181	 32967	 25634	 21
3180	 32959	 25626	 21
3181	 32959	 25634	 21
3181	 32975	 25634	 21
3182	 32975	 25642	 21
3182	 32967	 25642	 21
3184	 32983	 25658	 21
3180	 32959	 25626	 21
3181	 32975	 25634	 21
3181	 32983	 25634	 21
3182	 32975	 25642	 21
3182	 32975	 25642	 21
3182	 32951	 25642	 21
3181	 32983	 25634	 21
3182	 32967	 25642	 21
3181	 32975	 25634	 21
3181	 32975	 25634	 21
3181	 32967	 25634	 21
3181	 32991	 25634	 21
3181	 32975	 25634	 21
3181	 32975	 25634	 21
3181	 32975	 25634	 21
3182	 32983	 25642	 21
3181	 32983	 25634	 21
3182	 32975	 25642	 21
3181	 32967	 25634	 21
3182	 32983	 25642	 21
3181	 32983	 25634	 21
3180	 32967	 25626	 21
3182	 32967	 25642	 21
3181	 32983	 25634	 21
3180	 32975	 25626	 21
3181	 32975	 25634	 21
3181	 32967	 25634	 21
3183	 32983	 25650	 21
3181	 32967	 25634	 21
3182	 32967	 25642	 21
3181	 32983	 25634	 21
3183	 32967	 25650	 21
3182	 32967	 25642	 21
3183	 32975	 25650	 21
3181	 32959	 25634	 21
3179	 32967	 25618	 21
3182	 32975	 25642	 21
3181	 32967	 25634	 21
3181	 32983	 25634	 21
3181	 32975	 25634	 21
3180	 32967	 25626	 21
3181	 32983	 25634	 21
3181	 32975	 25634	 21
3181	 32983	 25634	 21
3182	 32975	 25642	 21
3181	 32959	 25634	 21
3181	 32975	 25634	 21
3179	 32975	 25618	 21
3181	 32975	 25634	 21
3180	 32983	 25626	 21
3181	 32967	 25634	 21
3182	 32983	 25642	 21
3181	 32983	 25634	 21
3182	 32983	 25642	 21
3184	 32967	 25658	 21
3179	 32967	 25618	 21
3184	 32975	 25658	 21
3179	 32967	 25618	 21
3180	 32967	 25626	 21
3181	 32959	 25634	 21
3182	 32967	 25642	 21
3181	 32983	 25634	 21
3181	 32983	 25634	 21
3182	 32983	 25642	 21
3183	 32967	 25650	 21
3182	 32975	 25642	 21
3182	 32983	 25642	 21
3180	 32975	 25626	 21
3180	 32983	 25626	 21
3182	 32975	 25642	 21
3182	 32983	 25642	 21
3183	 32975	 25650	 21
3182	 32975	 25642	 21
3182	 32975	 25642	 21
3181	 32967	 25634	 21
3182	 32967	 25642	 21
3181	 32967	 25634	 21
3182	 32983	 25642	 21
3182	 32975	 25642	 21
3182	 32975	 25642	 21
3182	 32967	 25642	 21
3181	 32975	 25634	 21
3181	 32983	 25634	 21
3182	 32975	 25642	 21
3181	 32983	 25634	 21
3182	 32983	 25642	 21
3182	 32983	 25642	 21
3181	 32975	 25634	 21
3182	 32983	 25642	 21
3182	 32959	 25642	 21
3181	 32983	 25634	 21
3182	 32967	 25642	 21
3182	 32975	 25642	 21
3181	 32983	 25634	 21
3182	 32983	 25642	 21
3181	 32967	 25634	 21
3179	 32975	 25618	 21
3184	 32983	 25658	 21
3182	 32983	 25642	 21
3182	 32975	 25642	 21
3181	 32975	 25634	 21
3183	 32983	 25650	 21
3182	 32991	 25642	 21
3182	 32967	 25642	 21
3183	 32967	 25650	 21
3182	 32975	 25642	 21
3182	 32983	 25642	 21
3181	 32991	 25634	 21
3182	 32983	 25642	 21
3182	 32983	 25642	 21
3183	 32983	 25650	 21
3182	 32967	 25642	 21
3182	 32983	 25642	 21
3182	 32983	 25642	 21
3184	 32983	 25658	 21
3183	 32967	 25650	 21
3182	 32967	 25642	 21
3184	 32975	 25658	 21
3182	 32983	 25642	 21
3181	 32959	 25634	 21
3182	 32983	 25642	 21
3181	 32975	 25634	 21
3183	 32991	 25650	 21
3182	 32975	 25642	 21
3180	 32983	 25626	 21
3183	 32967	 25650	 21
3181	 32983	 25634	 21
3183	 32959	 25650	 21
3180	 32975	 25626	 21
3184	 32983	 25658	 21
3181	 32975	 25634	 21
3185	 32975	 25666	 21
3182	 32959	 25642	 21
3182	 32983	 25642	 21
3181	 32975	 25634	 21
3182	 32991	 25642	 21
3181	 32975	 25634	 21
3182	 32967	 25642	 21
3181	 32983	 25634	 21
3183	 32983	 25650	 21
3180	 32983	 25626	 21
3183	 32983	 25650	 21
3180	 32967	 25626	 21
3182	 32975	 25642	 21
3182	 32975	 25642	 21
3183	 32983	 25650	 21
3183	 32975	 25650	 21
3182	 32991	 25642	 21
3181	 32983	 25634	 21
3181	 32975	 25634	 21
3182	 32983	 25642	 21
3182	 32983	 25642	 21
3180	 32983	 25626	 21
3179	 32983	 25618	 21
3181	 32983	 25634	 21
3182	 32991	 25642	 21
3183	 32983	 25650	 21
3182	 32991	 25642	 21
3181	 32991	 25634	 21
3182	 32983	 25642	 21
3181	 32983	 25634	 21
3181	 32991	 25634	 21
3182	 32983	 25642	 21
3181	 32983	 25634	 21
3182	 32991	 25642	 21
3183	 32975	 25650	 21
3182	 32975	 25642	 21
3182	 32975	 25642	 21
3182	 32983	 25642	 21
3181	 32991	 25634	 21
3183	 32983	 25650	 21
3181	 32991	 25634	 21
3182	 32983	 25642	 21
3181	 32983	 25634	 21
3183	 32991	 25650	 21
3181	 32991	 25634	 21
3184	 32975	 25658	 21
3182	 32983	 25642	 21
3181	 32983	 25634	 21
3181	 32983	 25634	 21
3181	 32991	 25634	 21
3182	 32991	 25642	 21
3182	 32967	 25642	 21
3183	 32975	 25650	 21
3183	 32975	 25650	 21
3182	 32967	 25642	 21
3184	 32983	 25658	 21
3182	 32975	 25642	 21
3183	 32975	 25650	 21
3183	 32983	 25650	 21
3183	 32983	 25650	 21
3185	 32983	 25666	 21
3182	 32983	 25642	 21
3183	 32975	 25650	 21
3182	 32983	 25642	 21
3183	 32991	 25650	 21
3181	 32991	 25634	 21
3183	 33000	 25650	 21
3184	 32975	 25658	 21
3182	 32983	 25642	 21
3182	 32975	 25642	 21
3183	 32983	 25650	 21
3182	 32991	 25642	 21
3181	 32975	 25634	 21
3184	 32983	 25658	 21
3184	 32975	 25658	 21
3181	 32983	 25634	 21
3182	 32983	 25642	 21
3184	 32983	 25658	 21
3181	 32983	 25634	 21
3183	 32983	 25650	 21
3182	 32975	 25642	 21
3185	 32983	 25666	 21
3180	 32975	 25626	 21
3183	 32983	 25650	 21
3183	 33000	 25650	 21
3183	 32983	 25650	 21
3182	 32967	 25642	 21
3183	 32983	 25650	 21
3182	 32967	 25642	 21
3183	 32975	 25650	 21
3184	 32983	 25658	 21
3182	 32983	 25642	 21
3183	 32983	 25650	 21
3184	 32991	 25658	 21
3182	 32983	 25642	 21
3182	 32991	 25642	 21
3183	 32991	 25650	 21
3181	 32983	 25634	 21
3183	 32991	 25650	 21
3183	 32975	 25650	 21
3182	 32983	 25642	 21
3183	 32975	 25650	 21
3186	 32983	 25674	 21
3182	 32991	 25642	 21
3183	 32975	 25650	 21
3183	 32991	 25650	 21
3182	 32975	 25642	 21
3182	 32975	 25642	 21
3183	 32991	 25650	 21
3184	 32975	 25658	 21
3183	 32967	 25650	 21
3182	 32951	 25642	 21
3182	 32991	 25642	 21
3184	 32991	 25658	 21
3183	 32991	 25650	 21
3184	 32975	 25658	 21
3184	 32991	 25658	 21
3182	 32991	 25642	 21
3181	 32983	 25634	 21
3183	 32991	 25650	 21
3182	 32991	 25642	 21
3183	 32975	 25650	 21
3182	 32983	 25642	 21
3182	 32975	 25642	 21
3184	 32991	 25658	 21
3183	 32983	 25650	 21
3183	 32983	 25650	 21
3185	 32983	 25666	 21
3182	 32991	 25642	 21
3183	 32983	 25650	 21
3182	 32975	 25642	 21
3184	 32991	 25658	 21
3183	 32991	 25650	 21
3182	 32991	 25642	 21
3183	 32983	 25650	 21
3182	 32983	 25642	 21
3183	 32983	 25650	 21
3182	 32991	 25642	 21
3183	 32991	 25650	 21
3184	 32983	 25658	 21
3183	 32983	 25650	 21
3182	 32967	 25642	 21
3182	 32983	 25642	 21
3183	 32983	 25650	 21
3181	 32983	 25634	 21
3183	 32983	 25650	 21
3182	 32983	 25642	 21
3184	 32991	 25658	 21
3182	 32983	 25642	 21
3182	 32983	 25642	 21
3182	 32983	 25642	 21
3180	 32959	 25626	 21
3184	 32975	 25658	 21
3182	 32983	 25642	 21
3183	 32991	 25650	 21
3183	 32983	 25650	 21
3184	 32967	 25658	 21
3183	 32983	 25650	 21
3179	 32991	 25618	 21
