3177	 32991	 25602	 22
3178	 32991	 25610	 22
3179	 32975	 25618	 22
3180	 32983	 25626	 22
3179	 32991	 25618	 22
3179	 32991	 25618	 22
3180	 32991	 25626	 22
3180	 32991	 25626	 22
3183	 32991	 25650	 22
3180	 32991	 25626	 22
3181	 32991	 25634	 22
3181	 32991	 25634	 22
3180	 32983	 25626	 22
3182	 32975	 25642	 22
3180	 32983	 25626	 22
3180	 32991	 25626	 22
3181	 32975	 25634	 22
3182	 32967	 25642	 22
3181	 32983	 25634	 22
3182	 32975	 25642	 22
3180	 32975	 25626	 22
3181	 32983	 25634	 22
3182	 32991	 25642	 22
3181	 32991	 25634	 22
3182	 32983	 25642	 22
3181	 32991	 25634	 22
3183	 32975	 25650	 22
3181	 32991	 25634	 22
3182	 32983	 25642	 22
3179	 32991	 25618	 22
3183	 32983	 25650	 22
3182	 32983	 25642	 22
3183	 32983	 25650	 22
3182	 32983	 25642	 22
3183	 32991	 25650	 22
3182	 32991	 25642	 22
3182	 32991	 25642	 22
3182	 32983	 25642	 22
3181	 32983	 25634	 22
3180	 32991	 25626	 22
3182	 32983	 25642	 22
3182	 32983	 25642	 22
3184	 32975	 25658	 22
3182	 32983	 25642	 22
3184	 32983	 25658	 22
3182	 32991	 25642	 22
3183	 32991	 25650	 22
3182	 32983	 25642	 22
3183	 32983	 25650	 22
3183	 32975	 25650	 22
3182	 32983	 25642	 22
3183	 32983	 25650	 22
3182	 32983	 25642	 22
3182	 32991	 25642	 22
3182	 32975	 25642	 22
3182	 32983	 25642	 22
3184	 32991	 25658	 22
3181	 32991	 25634	 22
3182	 32983	 25642	 22
3183	 32983	 25650	 22
3183	 32983	 25650	 22
3180	 32991	 25626	 22
3183	 32983	 25650	 22
3182	 32983	 25642	 22
3182	 32991	 25642	 22
3183	 32991	 25650	 22
3184	 32983	 25658	 22
3185	 32991	 25666	 22
3181	 32975	 25634	 22
3184	 32991	 25658	 22
3183	 32991	 25650	 22
3183	 32991	 25650	 22
3183	 32983	 25650	 22
3182	 32975	 25642	 22
3184	 32983	 25658	 22
3184	 32983	 25658	 22
3182	 32991	 25642	 22
3184	 32983	 25658	 22
3183	 32983	 25650	 22
3184	 32983	 25658	 22
3184	 32991	 25658	 22
3184	 32975	 25658	 22
3183	 32975	 25650	 22
3184	 32991	 25658	 22
3184	 32983	 25658	 22
3184	 32991	 25658	 22
3183	 32967	 25650	 22
3183	 32991	 25650	 22
3184	 32983	 25658	 22
3184	 32983	 25658	 22
3184	 32991	 25658	 22
3184	 32991	 25658	 22
3184	 32991	 25658	 22
3185	 32983	 25666	 22
3185	 32975	 25666	 22
3184	 32991	 25658	 22
3184	 32975	 25658	 22
3181	 32983	 25634	 22
3184	 32975	 25658	 22
3182	 32991	 25642	 22
3184	 32983	 25658	 22
3184	 32975	 25658	 22
3186	 32983	 25674	 22
3184	 32975	 25658	 22
3185	 32991	 25666	 22
3186	 32991	 25674	 22
3185	 32983	 25666	 22
3184	 32975	 25658	 22
3184	 33000	 25658	 22
3185	 32983	 25666	 22
3184	 32991	 25658	 22
3183	 32975	 25650	 22
3184	 32983	 25658	 22
3185	 32991	 25666	 22
3185	 32967	 25666	 22
3183	 32991	 25650	 22
3183	 32991	 25650	 22
3185	 32983	 25666	 22
3183	 32991	 25650	 22
3184	 32975	 25658	 22
3184	 32975	 25658	 22
3184	 32983	 25658	 22
3183	 32983	 25650	 22
3182	 32975	 25642	 22
3186	 32983	 25674	 22
3186	 32975	 25674	 22
3183	 32975	 25650	 22
3184	 32991	 25658	 22
3184	 32991	 25658	 22
3183	 32975	 25650	 22
3183	 32991	 25650	 22
3184	 32991	 25658	 22
3184	 32983	 25658	 22
3183	 32983	 25650	 22
3182	 32983	 25642	 22
3184	 32991	 25658	 22
3184	 32983	 25658	 22
3184	 32983	 25658	 22
3184	 32975	 25658	 22
3184	 32991	 25658	 22
3184	 32983	 25658	 22
3186	 32975	 25674	 22
3185	 32983	 25666	 22
3184	 32975	 25658	 22
3184	 32975	 25658	 22
3184	 32983	 25658	 22
3184	 32991	 25658	 22
3184	 32983	 25658	 22
3182	 32991	 25642	 22
3185	 32983	 25666	 22
3185	 32975	 25666	 22
3185	 32991	 25666	 22
3183	 32975	 25650	 22
3181	 32983	 25634	 22
3184	 32983	 25658	 22
3183	 32967	 25650	 22
3185	 32975	 25666	 22
3183	 32975	 25650	 22
3185	 32975	 25666	 22
3185	 32943	 25666	 22
3182	 32975	 25642	 22
3188	 32975	 25690	 22
3180	 32951	 25626	 22
3184	 32983	 25658	 22
3185	 32975	 25666	 22
3181	 32967	 25634	 22
3183	 32951	 25650	 22
3180	 32975	 25626	 22
3184	 32983	 25658	 22
3186	 32975	 25674	 22
3182	 32975	 25642	 22
3184	 32991	 25658	 22
3184	 32975	 25658	 22
3188	 32975	 25690	 22
3182	 32967	 25642	 22
3186	 32975	 25674	 22
3183	 32983	 25650	 22
3186	 32951	 25674	 22
3187	 32959	 25682	 22
3186	 32991	 25674	 22
3180	 32975	 25626	 22
3184	 32983	 25658	 22
3186	 32943	 25674	 22
3182	 32935	 25642	 22
3184	 32983	 25658	 22
3182	 32975	 25642	 22
3188	 32991	 25690	 22
3183	 32967	 25650	 22
3188	 32991	 25690	 22
3185	 32983	 25666	 22
3184	 32967	 25658	 22
3183	 32959	 25650	 22
3185	 32975	 25666	 22
3186	 32975	 25674	 22
3182	 32991	 25642	 22
3184	 32967	 25658	 22
3185	 32983	 25666	 22
3185	 32975	 25666	 22
3186	 32975	 25674	 22
3184	 32975	 25658	 22
3184	 32967	 25658	 22
3185	 32983	 25666	 22
3183	 32975	 25650	 22
3184	 32983	 25658	 22
3185	 32991	 25666	 22
3185	 32967	 25666	 22
3183	 32975	 25650	 22
3184	 32983	 25658	 22
3184	 32983	 25658	 22
3184	 32983	 25658	 22
3185	 32975	 25666	 22
3185	 32975	 25666	 22
3186	 32991	 25674	 22
3185	 32975	 25666	 22
3185	 32983	 25666	 22
3184	 32951	 25658	 22
3185	 32959	 25666	 22
3184	 32959	 25658	 22
3184	 32983	 25658	 22
3185	 32967	 25666	 22
3186	 32983	 25674	 22
3185	 32967	 25666	 22
3187	 32975	 25682	 22
3184	 32983	 25658	 22
3185	 32983	 25666	 22
3185	 32983	 25666	 22
3185	 32991	 25666	 22
3184	 32975	 25658	 22
3185	 32959	 25666	 22
3186	 32959	 25674	 22
3184	 32975	 25658	 22
3183	 32975	 25650	 22
3184	 32983	 25658	 22
3186	 32959	 25674	 22
3184	 32975	 25658	 22
3184	 32991	 25658	 22
3183	 32975	 25650	 22
3185	 32975	 25666	 22
3185	 32975	 25666	 22
3183	 32959	 25650	 22
3184	 32975	 25658	 22
3186	 32983	 25674	 22
3184	 32975	 25658	 22
3183	 32943	 25650	 22
3183	 32983	 25650	 22
3185	 32975	 25666	 22
3184	 32983	 25658	 22
3184	 32959	 25658	 22
3183	 32983	 25650	 22
3183	 32959	 25650	 22
3186	 32967	 25674	 22
3185	 32983	 25666	 22
3184	 32983	 25658	 22
3183	 32967	 25650	 22
3184	 32983	 25658	 22
3186	 32983	 25674	 22
3184	 32983	 25658	 22
3184	 32975	 25658	 22
3185	 32975	 25666	 22
3183	 32951	 25650	 22
3185	 32983	 25666	 22
3185	 32975	 25666	 22
3185	 32975	 25666	 22
3185	 32967	 25666	 22
3184	 32983	 25658	 22
3184	 32967	 25658	 22
3185	 32975	 25666	 22
3183	 32967	 25650	 22
3184	 32983	 25658	 22
3184	 32967	 25658	 22
3183	 32967	 25650	 22
3182	 32967	 25642	 22
3184	 32967	 25658	 22
3184	 32983	 25658	 22
3185	 32967	 25666	 22
3183	 32975	 25650	 22
3184	 32983	 25658	 22
3184	 32967	 25658	 22
3184	 32967	 25658	 22
3186	 32967	 25674	 22
3184	 32975	 25658	 22
3184	 32959	 25658	 22
3185	 32975	 25666	 22
3185	 32975	 25666	 22
3185	 32983	 25666	 22
3185	 32983	 25666	 22
3186	 32975	 25674	 22
3186	 32975	 25674	 22
3184	 32967	 25658	 22
3184	 32975	 25658	 22
3183	 32983	 25650	 22
3189	 32983	 25698	 22
3185	 32967	 25666	 22
3184	 32967	 25658	 22
3184	 32983	 25658	 22
3184	 32975	 25658	 22
3184	 32975	 25658	 22
3184	 32991	 25658	 22
3184	 32975	 25658	 22
3186	 32975	 25674	 22
3185	 32975	 25666	 22
3184	 32975	 25658	 22
3184	 32975	 25658	 22
3184	 32983	 25658	 22
3184	 32967	 25658	 22
3185	 32967	 25666	 22
3185	 32975	 25666	 22
3185	 32959	 25666	 22
3185	 32967	 25666	 22
3185	 32975	 25666	 22
3185	 32983	 25666	 22
3186	 32967	 25674	 22
3184	 32975	 25658	 22
3186	 32967	 25674	 22
3186	 32975	 25674	 22
3185	 32975	 25666	 22
3184	 32967	 25658	 22
3184	 32983	 25658	 22
3184	 32975	 25658	 22
3185	 32975	 25666	 22
3184	 32975	 25658	 22
3183	 32983	 25650	 22
3184	 32975	 25658	 22
3182	 32991	 25642	 22
3186	 32983	 25674	 22
3186	 32983	 25674	 22
3185	 32975	 25666	 22
3187	 32975	 25682	 22
3183	 32975	 25650	 22
3186	 32975	 25674	 22
3186	 32967	 25674	 22
3184	 32975	 25658	 22
3185	 32967	 25666	 22
3187	 32975	 25682	 22
3185	 32959	 25666	 22
3185	 32975	 25666	 22
3186	 32983	 25674	 22
3186	 32975	 25674	 22
3185	 32983	 25666	 22
3185	 32975	 25666	 22
3185	 32975	 25666	 22
3184	 32975	 25658	 22
3185	 32983	 25666	 22
3186	 32967	 25674	 22
3185	 32983	 25666	 22
3185	 32983	 25666	 22
3186	 32975	 25674	 22
3186	 32975	 25674	 22
3186	 32975	 25674	 22
3185	 32959	 25666	 22
3185	 32975	 25666	 22
3185	 32975	 25666	 22
3185	 32983	 25666	 22
3186	 32975	 25674	 22
3185	 32991	 25666	 22
3185	 32975	 25666	 22
3186	 32975	 25674	 22
3185	 32975	 25666	 22
3187	 32991	 25682	 22
3186	 32975	 25674	 22
3186	 32967	 25674	 22
3188	 32983	 25690	 22
3186	 32975	 25674	 22
3186	 32975	 25674	 22
3186	 32983	 25674	 22
3185	 32983	 25666	 22
3187	 32983	 25682	 22
3185	 32959	 25666	 22
3186	 32975	 25674	 22
3186	 32991	 25674	 22
3184	 32959	 25658	 22
3187	 32983	 25682	 22
3186	 32975	 25674	 22
3185	 32983	 25666	 22
3184	 32983	 25658	 22
3185	 32983	 25666	 22
3187	 32983	 25682	 22
3186	 32967	 25674	 22
3187	 32975	 25682	 22
3186	 32983	 25674	 22
3188	 32983	 25690	 22
3185	 32983	 25666	 22
3185	 32983	 25666	 22
3185	 32975	 25666	 22
3186	 32975	 25674	 22
3185	 32967	 25666	 22
3186	 32983	 25674	 22
3186	 32983	 25674	 22
3185	 32975	 25666	 22
3187	 32991	 25682	 22
3186	 33000	 25674	 22
3186	 32967	 25674	 22
3186	 32983	 25674	 22
3184	 32991	 25658	 22
3185	 32983	 25666	 22
3186	 32983	 25674	 22
3187	 32991	 25682	 22
3186	 32967	 25674	 22
3186	 32975	 25674	 22
3186	 32983	 25674	 22
3186	 32983	 25674	 22
3185	 32983	 25666	 22
3188	 32983	 25690	 22
3188	 32975	 25690	 22
3188	 32967	 25690	 22
3188	 33000	 25690	 22
3184	 32983	 25658	 22
3186	 32967	 25674	 22
3185	 32975	 25666	 22
3187	 32983	 25682	 22
3187	 32975	 25682	 22
3187	 32991	 25682	 22
3185	 32983	 25666	 22
3186	 32983	 25674	 22
3186	 32975	 25674	 22
3186	 32983	 25674	 22
3188	 32991	 25690	 22
3187	 32975	 25682	 22
3186	 32991	 25674	 22
3188	 32983	 25690	 22
3186	 32975	 25674	 22
3187	 32975	 25682	 22
3185	 32983	 25666	 22
3187	 32991	 25682	 22
3187	 32959	 25682	 22
3186	 32959	 25674	 22
3186	 32975	 25674	 22
3186	 32975	 25674	 22
3187	 32983	 25682	 22
3188	 32983	 25690	 22
3186	 32983	 25674	 22
3186	 32967	 25674	 22
3185	 32983	 25666	 22
3188	 32991	 25690	 22
3189	 32983	 25698	 22
3188	 32983	 25690	 22
3187	 32983	 25682	 22
3187	 32983	 25682	 22
3187	 32983	 25682	 22
3187	 32991	 25682	 22
3186	 32991	 25674	 22
3187	 32983	 25682	 22
3186	 32991	 25674	 22
3186	 32991	 25674	 22
3187	 32991	 25682	 22
3187	 32991	 25682	 22
3187	 32975	 25682	 22
3187	 32983	 25682	 22
3187	 32991	 25682	 22
3186	 32983	 25674	 22
3187	 32991	 25682	 22
3186	 32983	 25674	 22
3186	 32983	 25674	 22
3188	 32983	 25690	 22
3189	 33000	 25698	 22
3187	 32991	 25682	 22
3187	 32991	 25682	 22
3188	 32983	 25690	 22
3188	 32991	 25690	 22
3187	 32975	 25682	 22
3185	 32991	 25666	 22
3187	 32983	 25682	 22
3187	 32983	 25682	 22
3187	 32991	 25682	 22
3187	 32983	 25682	 22
3188	 32991	 25690	 22
3184	 32967	 25658	 22
3187	 32967	 25682	 22
3189	 32983	 25698	 22
3186	 32983	 25674	 22
3188	 32983	 25690	 22
3186	 32975	 25674	 22
3189	 32983	 25698	 22
3186	 32991	 25674	 22
3186	 32991	 25674	 22
3187	 32991	 25682	 22
3187	 32975	 25682	 22
3187	 32991	 25682	 22
3185	 32991	 25666	 22
3186	 32983	 25674	 22
3185	 32975	 25666	 22
3187	 32975	 25682	 22
3188	 32991	 25690	 22
3188	 32983	 25690	 22
3185	 32983	 25666	 22
3186	 32983	 25674	 22
3187	 32991	 25682	 22
3187	 32975	 25682	 22
3188	 32975	 25690	 22
3186	 32983	 25674	 22
3187	 32959	 25682	 22
3186	 32967	 25674	 22
3187	 32991	 25682	 22
3187	 32991	 25682	 22
3188	 32991	 25690	 22
3187	 32975	 25682	 22
3187	 32975	 25682	 22
3186	 32975	 25674	 22
3187	 32983	 25682	 22
3185	 32967	 25666	 22
3187	 32991	 25682	 22
3187	 32983	 25682	 22
3187	 32991	 25682	 22
3188	 32967	 25690	 22
3185	 32983	 25666	 22
3187	 32991	 25682	 22
3187	 32983	 25682	 22
3186	 32991	 25674	 22
3185	 32991	 25666	 22
3188	 32975	 25690	 22
3186	 32983	 25674	 22
3187	 32983	 25682	 22
3187	 32991	 25682	 22
3188	 32975	 25690	 22
3187	 32975	 25682	 22
3187	 32991	 25682	 22
3187	 32983	 25682	 22
3187	 32983	 25682	 22
3187	 32983	 25682	 22
3187	 32983	 25682	 22
3187	 32983	 25682	 22
3187	 32991	 25682	 22
3189	 32983	 25698	 22
3190	 32983	 25706	 22
3187	 32983	 25682	 22
3188	 32991	 25690	 22
3188	 32983	 25690	 22
3187	 32983	 25682	 22
3186	 32983	 25674	 22
3186	 32983	 25674	 22
3187	 32975	 25682	 22
3187	 32991	 25682	 22
3187	 32991	 25682	 22
3187	 32991	 25682	 22
3188	 32991	 25690	 22
3190	 32983	 25706	 22
3186	 32983	 25674	 22
3187	 32967	 25682	 22
3186	 32991	 25674	 22
3187	 32983	 25682	 22
3188	 32983	 25690	 22
3188	 32983	 25690	 22
3186	 32983	 25674	 22
3187	 32983	 25682	 22
3188	 32983	 25690	 22
3186	 32983	 25674	 22
3186	 32991	 25674	 22
3186	 32991	 25674	 22
3188	 32975	 25690	 22
3186	 32967	 25674	 22
3189	 32983	 25698	 22
3185	 32983	 25666	 22
3188	 32975	 25690	 22
3186	 32983	 25674	 22
3188	 32975	 25690	 22
3186	 32991	 25674	 22
3185	 32975	 25666	 22
3189	 32991	 25698	 22
3186	 32991	 25674	 22
3188	 32983	 25690	 22
3189	 32991	 25698	 22
3189	 32991	 25698	 22
3187	 32991	 25682	 22
3187	 32983	 25682	 22
3186	 32975	 25674	 22
3186	 32983	 25674	 22
3188	 32991	 25690	 22
3187	 32967	 25682	 22
3186	 32975	 25674	 22
3187	 32975	 25682	 22
3187	 32983	 25682	 22
3186	 32991	 25674	 22
3187	 32991	 25682	 22
3186	 32975	 25674	 22
3186	 32983	 25674	 22
3187	 32983	 25682	 22
3187	 32959	 25682	 22
3188	 32983	 25690	 22
3188	 32983	 25690	 22
3187	 32975	 25682	 22
3187	 32991	 25682	 22
3188	 32991	 25690	 22
3186	 32983	 25674	 22
3188	 32975	 25690	 22
3186	 32983	 25674	 22
3187	 32951	 25682	 22
3187	 32983	 25682	 22
3185	 32975	 25666	 22
3187	 32991	 25682	 22
3187	 32991	 25682	 22
3188	 32991	 25690	 22
3188	 32983	 25690	 22
3187	 32983	 25682	 22
3186	 32991	 25674	 22
3189	 32983	 25698	 22
3187	 32975	 25682	 22
3188	 32991	 25690	 22
3189	 32983	 25698	 22
3189	 32983	 25698	 22
3186	 32983	 25674	 22
3187	 32983	 25682	 22
3187	 32983	 25682	 22
3186	 32983	 25674	 22
3187	 32983	 25682	 22
3186	 32983	 25674	 22
3186	 32983	 25674	 22
3186	 32983	 25674	 22
3187	 32983	 25682	 22
3187	 32983	 25682	 22
3186	 32983	 25674	 22
3187	 32991	 25682	 22
3188	 32983	 25690	 22
3189	 32991	 25698	 22
3188	 32991	 25690	 22
3189	 32975	 25698	 22
3187	 32975	 25682	 22
3188	 32967	 25690	 22
3187	 32975	 25682	 22
3187	 32991	 25682	 22
3187	 32983	 25682	 22
3188	 32983	 25690	 22
3186	 32983	 25674	 22
3187	 32983	 25682	 22
3186	 32983	 25674	 22
3185	 32983	 25666	 22
3188	 32991	 25690	 22
3187	 32975	 25682	 22
3188	 32959	 25690	 22
3187	 32983	 25682	 22
3188	 32975	 25690	 22
3188	 32895	 25690	 22
3186	 32983	 25674	 22
3187	 32975	 25682	 22
3186	 32983	 25674	 22
3188	 32991	 25690	 22
3189	 32991	 25698	 22
3187	 32991	 25682	 22
3189	 32983	 25698	 22
3187	 32991	 25682	 22
3188	 32983	 25690	 22
3188	 32959	 25690	 22
3188	 32967	 25690	 22
3187	 32991	 25682	 22
3187	 32967	 25682	 22
3187	 32991	 25682	 22
3189	 32991	 25698	 22
3185	 32967	 25666	 22
3189	 32983	 25698	 22
3185	 32983	 25666	 22
3188	 32983	 25690	 22
3186	 32991	 25674	 22
3188	 32983	 25690	 22
3186	 32991	 25674	 22
3185	 32983	 25666	 22
3188	 32983	 25690	 22
3188	 32991	 25690	 22
3187	 32975	 25682	 22
3186	 32967	 25674	 22
3189	 32983	 25698	 22
3187	 32991	 25682	 22
3188	 32983	 25690	 22
3186	 32983	 25674	 22
3187	 32983	 25682	 22
3188	 32991	 25690	 22
3188	 32983	 25690	 22
3187	 32983	 25682	 22
3188	 32975	 25690	 22
3189	 32983	 25698	 22
3187	 32967	 25682	 22
3188	 32991	 25690	 22
3185	 32991	 25666	 22
3187	 32983	 25682	 22
3189	 32975	 25698	 22
3187	 32967	 25682	 22
3185	 32975	 25666	 22
3187	 32983	 25682	 22
3187	 32975	 25682	 22
3189	 32975	 25698	 22
3188	 32983	 25690	 22
3189	 32983	 25698	 22
3188	 32991	 25690	 22
3186	 32983	 25674	 22
3187	 32975	 25682	 22
3187	 32991	 25682	 22
3188	 32983	 25690	 22
3187	 32983	 25682	 22
3188	 32983	 25690	 22
3187	 32991	 25682	 22
3188	 32975	 25690	 22
3187	 32975	 25682	 22
3187	 32991	 25682	 22
3185	 32983	 25666	 22
3187	 32983	 25682	 22
3189	 32983	 25698	 22
3187	 32983	 25682	 22
3185	 32983	 25666	 22
3187	 32975	 25682	 22
3186	 32983	 25674	 22
3187	 32983	 25682	 22
3187	 32991	 25682	 22
3186	 32975	 25674	 22
3187	 32991	 25682	 22
3186	 32959	 25674	 22
3185	 32991	 25666	 22
3187	 32983	 25682	 22
3188	 32991	 25690	 22
3187	 32975	 25682	 22
3187	 32983	 25682	 22
3188	 32983	 25690	 22
3187	 32983	 25682	 22
3186	 32983	 25674	 22
3187	 32983	 25682	 22
3188	 32983	 25690	 22
3187	 32983	 25682	 22
3187	 32991	 25682	 22
3188	 32983	 25690	 22
3187	 32991	 25682	 22
3186	 32975	 25674	 22
3188	 32975	 25690	 22
3187	 32975	 25682	 22
3187	 32975	 25682	 22
3189	 32975	 25698	 22
3187	 32967	 25682	 22
3186	 32983	 25674	 22
3187	 32983	 25682	 22
3187	 32983	 25682	 22
3188	 32991	 25690	 22
3183	 32983	 25650	 22
3187	 32975	 25682	 22
3188	 32991	 25690	 22
3187	 32975	 25682	 22
3188	 32967	 25690	 22
3187	 32975	 25682	 22
3187	 32983	 25682	 22
3187	 32983	 25682	 22
3186	 32975	 25674	 22
3186	 32959	 25674	 22
3186	 32991	 25674	 22
3188	 32983	 25690	 22
3188	 32983	 25690	 22
3187	 32975	 25682	 22
3187	 32991	 25682	 22
3188	 32991	 25690	 22
3186	 32991	 25674	 22
3188	 32991	 25690	 22
3187	 32983	 25682	 22
3187	 32983	 25682	 22
3186	 32983	 25674	 22
3189	 32983	 25698	 22
3187	 32967	 25682	 22
3188	 32983	 25690	 22
3188	 32983	 25690	 22
3188	 32967	 25690	 22
3189	 32991	 25698	 22
3186	 32991	 25674	 22
3187	 32967	 25682	 22
3189	 32991	 25698	 22
3187	 32975	 25682	 22
3187	 32991	 25682	 22
3185	 32983	 25666	 22
3186	 32967	 25674	 22
3186	 32975	 25674	 22
3186	 32983	 25674	 22
3187	 32983	 25682	 22
3186	 32975	 25674	 22
3187	 32967	 25682	 22
3187	 32975	 25682	 22
3187	 32983	 25682	 22
3187	 32975	 25682	 22
3187	 32975	 25682	 22
3187	 32975	 25682	 22
3183	 32983	 25650	 22
3187	 32983	 25682	 22
3186	 32983	 25674	 22
3187	 32967	 25682	 22
3188	 32983	 25690	 22
3187	 32991	 25682	 22
3188	 32983	 25690	 22
3188	 32983	 25690	 22
3186	 32975	 25674	 22
3185	 32975	 25666	 22
3186	 32983	 25674	 22
3186	 32967	 25674	 22
3186	 32983	 25674	 22
3186	 32983	 25674	 22
3188	 32967	 25690	 22
3186	 32983	 25674	 22
3187	 32991	 25682	 22
3188	 32991	 25690	 22
3186	 32983	 25674	 22
3187	 32967	 25682	 22
3188	 32975	 25690	 22
3188	 32983	 25690	 22
3188	 32967	 25690	 22
3187	 32975	 25682	 22
3187	 32983	 25682	 22
3187	 32967	 25682	 22
3188	 32983	 25690	 22
3185	 32967	 25666	 22
3188	 32983	 25690	 22
3188	 32967	 25690	 22
3186	 32983	 25674	 22
3188	 32983	 25690	 22
3187	 32983	 25682	 22
3186	 32975	 25674	 22
3186	 32983	 25674	 22
3184	 32983	 25658	 22
3188	 32975	 25690	 22
3185	 32975	 25666	 22
3186	 32983	 25674	 22
3188	 32959	 25690	 22
3187	 32975	 25682	 22
3187	 32983	 25682	 22
3185	 32983	 25666	 22
3187	 32983	 25682	 22
3187	 32983	 25682	 22
3188	 32975	 25690	 22
3187	 32983	 25682	 22
3185	 32975	 25666	 22
3187	 32975	 25682	 22
3187	 32983	 25682	 22
3186	 32983	 25674	 22
3187	 32983	 25682	 22
3189	 32975	 25698	 22
3187	 32967	 25682	 22
3188	 32975	 25690	 22
3186	 32991	 25674	 22
3187	 32983	 25682	 22
3187	 32983	 25682	 22
3186	 32975	 25674	 22
3187	 32983	 25682	 22
3187	 32975	 25682	 22
3186	 32991	 25674	 22
3188	 32991	 25690	 22
3185	 32975	 25666	 22
3187	 32983	 25682	 22
3186	 32983	 25674	 22
3188	 32983	 25690	 22
3189	 32983	 25698	 22
3187	 32983	 25682	 22
3190	 32975	 25706	 22
3186	 32991	 25674	 22
3187	 32991	 25682	 22
3187	 32975	 25682	 22
3187	 32983	 25682	 22
3186	 32983	 25674	 22
3189	 32983	 25698	 22
3186	 32975	 25674	 22
3188	 32943	 25690	 22
3185	 32983	 25666	 22
3188	 32975	 25690	 22
3188	 32975	 25690	 22
3189	 32983	 25698	 22
3186	 32975	 25674	 22
3187	 32991	 25682	 22
3190	 32983	 25706	 22
3186	 32975	 25674	 22
3184	 32975	 25658	 22
3187	 32975	 25682	 22
3185	 32991	 25666	 22
3188	 32991	 25690	 22
3187	 32975	 25682	 22
3185	 32975	 25666	 22
3187	 32967	 25682	 22
3185	 32983	 25666	 22
3188	 32983	 25690	 22
3184	 32991	 25658	 22
3187	 32975	 25682	 22
3187	 32991	 25682	 22
3186	 32975	 25674	 22
3186	 32991	 25674	 22
3188	 32975	 25690	 22
3188	 32975	 25690	 22
3187	 32959	 25682	 22
3186	 32975	 25674	 22
3187	 32975	 25682	 22
3188	 32991	 25690	 22
3188	 32983	 25690	 22
3186	 32983	 25674	 22
3187	 32983	 25682	 22
3187	 32983	 25682	 22
3186	 32975	 25674	 22
3188	 32975	 25690	 22
3187	 32991	 25682	 22
3187	 32983	 25682	 22
3185	 32983	 25666	 22
3189	 32983	 25698	 22
3187	 32983	 25682	 22
3187	 32983	 25682	 22
3185	 32967	 25666	 22
3187	 32975	 25682	 22
3187	 32967	 25682	 22
3187	 32975	 25682	 22
3187	 32991	 25682	 22
3188	 32983	 25690	 22
3186	 32967	 25674	 22
3187	 32983	 25682	 22
3188	 32975	 25690	 22
3186	 32991	 25674	 22
3187	 32983	 25682	 22
3187	 32983	 25682	 22
3187	 32983	 25682	 22
3187	 32983	 25682	 22
3189	 32975	 25698	 22
3188	 32975	 25690	 22
3187	 32975	 25682	 22
3187	 32983	 25682	 22
3186	 32959	 25674	 22
3188	 32967	 25690	 22
3186	 32967	 25674	 22
3187	 32991	 25682	 22
3189	 32975	 25698	 22
3185	 32991	 25666	 22
3187	 32975	 25682	 22
3188	 32991	 25690	 22
3188	 32975	 25690	 22
3187	 32975	 25682	 22
3189	 32975	 25698	 22
3189	 32959	 25698	 22
3187	 32983	 25682	 22
3188	 32991	 25690	 22
3188	 32975	 25690	 22
3187	 32967	 25682	 22
3187	 32983	 25682	 22
3189	 32983	 25698	 22
3187	 32975	 25682	 22
3188	 32991	 25690	 22
3188	 32959	 25690	 22
3186	 32991	 25674	 22
3187	 32975	 25682	 22
3187	 32983	 25682	 22
3188	 32967	 25690	 22
3187	 32967	 25682	 22
3186	 32983	 25674	 22
3187	 32975	 25682	 22
3188	 32975	 25690	 22
3189	 32975	 25698	 22
3187	 32975	 25682	 22
3187	 32975	 25682	 22
3187	 32983	 25682	 22
3188	 32983	 25690	 22
3187	 32983	 25682	 22
3185	 32975	 25666	 22
3187	 32983	 25682	 22
3187	 32983	 25682	 22
3188	 32983	 25690	 22
3189	 32975	 25698	 22
3186	 32959	 25674	 22
3187	 32983	 25682	 22
3189	 32975	 25698	 22
3186	 32991	 25674	 22
3188	 32975	 25690	 22
3188	 32975	 25690	 22
3185	 32975	 25666	 22
3186	 32983	 25674	 22
3186	 32983	 25674	 22
3187	 32983	 25682	 22
3188	 32967	 25690	 22
3187	 32991	 25682	 22
3187	 32975	 25682	 22
3188	 32983	 25690	 22
3187	 32983	 25682	 22
3187	 32975	 25682	 22
3186	 32975	 25674	 22
3187	 32991	 25682	 22
3188	 32975	 25690	 22
3187	 32991	 25682	 22
3186	 32975	 25674	 22
3186	 32975	 25674	 22
3187	 32983	 25682	 22
3188	 32983	 25690	 22
3188	 32967	 25690	 22
3186	 32983	 25674	 22
3187	 32967	 25682	 22
3187	 32983	 25682	 22
3188	 32983	 25690	 22
3187	 32959	 25682	 22
3186	 32983	 25674	 22
3188	 32991	 25690	 22
3188	 32967	 25690	 22
3186	 32967	 25674	 22
3187	 32967	 25682	 22
3185	 32975	 25666	 22
3185	 32975	 25666	 22
3184	 32983	 25658	 22
3186	 32983	 25674	 22
3187	 32975	 25682	 22
3186	 32975	 25674	 22
3187	 32983	 25682	 22
3187	 32967	 25682	 22
3186	 32959	 25674	 22
3188	 32975	 25690	 22
3188	 32975	 25690	 22
3188	 32983	 25690	 22
3189	 32975	 25698	 22
3187	 32991	 25682	 22
3187	 32975	 25682	 22
3187	 32959	 25682	 22
3187	 32991	 25682	 22
3188	 32975	 25690	 22
