3216	 32983	 25916	 48
3215	 32983	 25908	 48
3215	 32975	 25908	 48
3216	 32975	 25916	 48
3214	 32991	 25900	 48
3217	 32975	 25924	 48
3216	 32983	 25916	 48
3217	 32975	 25924	 48
3218	 32983	 25932	 48
3215	 32983	 25908	 48
3217	 32983	 25924	 48
3216	 32983	 25916	 48
3217	 32983	 25924	 48
3219	 32967	 25940	 48
3216	 32983	 25916	 48
3218	 32983	 25932	 48
3217	 32975	 25924	 48
3218	 32975	 25932	 48
3217	 32975	 25924	 48
3217	 32975	 25924	 48
3217	 32983	 25924	 48
3218	 32983	 25932	 48
3218	 32967	 25932	 48
3217	 32975	 25924	 48
3217	 32975	 25924	 48
3215	 32991	 25908	 48
3218	 32983	 25932	 48
3218	 32975	 25932	 48
3219	 32983	 25940	 48
3218	 32983	 25932	 48
3217	 32983	 25924	 48
3216	 32983	 25916	 48
3219	 32975	 25940	 48
3218	 32967	 25932	 48
3218	 32975	 25932	 48
3221	 32967	 25956	 48
3219	 32983	 25940	 48
3219	 32975	 25940	 48
3217	 32983	 25924	 48
3216	 32975	 25916	 48
3222	 32975	 25964	 48
3218	 32983	 25932	 48
3219	 32975	 25940	 48
3219	 32983	 25940	 48
3219	 32983	 25940	 48
3219	 32983	 25940	 48
3219	 32975	 25940	 48
3219	 32975	 25940	 48
3219	 32983	 25940	 48
3217	 32975	 25924	 48
3219	 32975	 25940	 48
3218	 32967	 25932	 48
3218	 32983	 25932	 48
3220	 32903	 25948	 48
3220	 32975	 25948	 48
3218	 32975	 25932	 48
3219	 32975	 25940	 48
3219	 32975	 25940	 48
3220	 32983	 25948	 48
3219	 32975	 25940	 48
3219	 32983	 25940	 48
3219	 32983	 25940	 48
3217	 32983	 25924	 48
3217	 32983	 25924	 48
3219	 32975	 25940	 48
3219	 32975	 25940	 48
3219	 32975	 25940	 48
3220	 32975	 25948	 48
3218	 32983	 25932	 48
3221	 32975	 25956	 48
3219	 32967	 25940	 48
3220	 32983	 25948	 48
3221	 32983	 25956	 48
3219	 32991	 25940	 48
3219	 32983	 25940	 48
3219	 32975	 25940	 48
3219	 32983	 25940	 48
3221	 32967	 25956	 48
3220	 32983	 25948	 48
3219	 32983	 25940	 48
3218	 32975	 25932	 48
3221	 32983	 25956	 48
3220	 32983	 25948	 48
3219	 32975	 25940	 48
3219	 32975	 25940	 48
3220	 32975	 25948	 48
3220	 32983	 25948	 48
3218	 32991	 25932	 48
3220	 32975	 25948	 48
3219	 32983	 25940	 48
3220	 32983	 25948	 48
3219	 32975	 25940	 48
3219	 32983	 25940	 48
3219	 32983	 25940	 48
3219	 32959	 25940	 48
3220	 32967	 25948	 48
3219	 32967	 25940	 48
3219	 32991	 25940	 48
3222	 32983	 25964	 48
3220	 32975	 25948	 48
3220	 32967	 25948	 48
3222	 32983	 25964	 48
3222	 32975	 25964	 48
3222	 32975	 25964	 48
3219	 32983	 25940	 48
3221	 32983	 25956	 48
3219	 32991	 25940	 48
3221	 32991	 25956	 48
3219	 32967	 25940	 48
3222	 32983	 25964	 48
3220	 32959	 25948	 48
3219	 32975	 25940	 48
3220	 32975	 25948	 48
3219	 32991	 25940	 48
3219	 32975	 25940	 48
3219	 32967	 25940	 48
3219	 32983	 25940	 48
3219	 32975	 25940	 48
3220	 32975	 25948	 48
3220	 32991	 25948	 48
3222	 32983	 25964	 48
3220	 32983	 25948	 48
3219	 32967	 25940	 48
3217	 32975	 25924	 48
3220	 32983	 25948	 48
3219	 32983	 25940	 48
3220	 32983	 25948	 48
3222	 32975	 25964	 48
3220	 32983	 25948	 48
3220	 32991	 25948	 48
3218	 32983	 25932	 48
3221	 32967	 25956	 48
3219	 32983	 25940	 48
3220	 32983	 25948	 48
3221	 32991	 25956	 48
3220	 32967	 25948	 48
3219	 32959	 25940	 48
3219	 32983	 25940	 48
3221	 32991	 25956	 48
3222	 32983	 25964	 48
3221	 32975	 25956	 48
3221	 32983	 25956	 48
3222	 32975	 25964	 48
3219	 32975	 25940	 48
3220	 32975	 25948	 48
3220	 32983	 25948	 48
3219	 32967	 25940	 48
3220	 32975	 25948	 48
3221	 32983	 25956	 48
3219	 32983	 25940	 48
3220	 32983	 25948	 48
3220	 32991	 25948	 48
3220	 32967	 25948	 48
3220	 32975	 25948	 48
3220	 32983	 25948	 48
3221	 32983	 25956	 48
3220	 32983	 25948	 48
3221	 32991	 25956	 48
3221	 32975	 25956	 48
3220	 32975	 25948	 48
3220	 32975	 25948	 48
3222	 32975	 25964	 48
3221	 32983	 25956	 48
3221	 32967	 25956	 48
3221	 32991	 25956	 48
3221	 32967	 25956	 48
3220	 32983	 25948	 48
3221	 32975	 25956	 48
3221	 32975	 25956	 48
3222	 32983	 25964	 48
3222	 32991	 25964	 48
3221	 32975	 25956	 48
3223	 32983	 25972	 48
3221	 32983	 25956	 48
3221	 32983	 25956	 48
3220	 32991	 25948	 48
3221	 32975	 25956	 48
3221	 32991	 25956	 48
3222	 32975	 25964	 48
3221	 32991	 25956	 48
3222	 32991	 25964	 48
3221	 32991	 25956	 48
3220	 32983	 25948	 48
3221	 32983	 25956	 48
3220	 32983	 25948	 48
3221	 32983	 25956	 48
3223	 32975	 25972	 48
3223	 32991	 25972	 48
3221	 32967	 25956	 48
3222	 32983	 25964	 48
3221	 32983	 25956	 48
3220	 32975	 25948	 48
3221	 32983	 25956	 48
3217	 32991	 25924	 48
3221	 32991	 25956	 48
3221	 32983	 25956	 48
3222	 32983	 25964	 48
3222	 32991	 25964	 48
3222	 32967	 25964	 48
3223	 32991	 25972	 48
3222	 32983	 25964	 48
3221	 32975	 25956	 48
3221	 32983	 25956	 48
3222	 32991	 25964	 48
3222	 32991	 25964	 48
3223	 32975	 25972	 48
3222	 32983	 25964	 48
3222	 32975	 25964	 48
3219	 32991	 25940	 48
3221	 32991	 25956	 48
3221	 32983	 25956	 48
3222	 32991	 25964	 48
3221	 32983	 25956	 48
3221	 32991	 25956	 48
3222	 32991	 25964	 48
3222	 32983	 25964	 48
3223	 32983	 25972	 48
3221	 32991	 25956	 48
3221	 32975	 25956	 48
3223	 32991	 25972	 48
3221	 32983	 25956	 48
3221	 32983	 25956	 48
3222	 32983	 25964	 48
3222	 32983	 25964	 48
3220	 32983	 25948	 48
3221	 32991	 25956	 48
3222	 32991	 25964	 48
3222	 32991	 25964	 48
3224	 32983	 25980	 48
3223	 32967	 25972	 48
3222	 32991	 25964	 48
3221	 32983	 25956	 48
3221	 32983	 25956	 48
3222	 32991	 25964	 48
3220	 32991	 25948	 48
3222	 32975	 25964	 48
3222	 32975	 25964	 48
3223	 32991	 25972	 48
3223	 32975	 25972	 48
3222	 32967	 25964	 48
3221	 32975	 25956	 48
3222	 32967	 25964	 48
3222	 32983	 25964	 48
3221	 32975	 25956	 48
3224	 32991	 25980	 48
3219	 32991	 25940	 48
3223	 32983	 25972	 48
3222	 32983	 25964	 48
3220	 32983	 25948	 48
3224	 32975	 25980	 48
3222	 32983	 25964	 48
3222	 32991	 25964	 48
3223	 32975	 25972	 48
3221	 32975	 25956	 48
3223	 32983	 25972	 48
3222	 32991	 25964	 48
3223	 32991	 25972	 48
3222	 32983	 25964	 48
3223	 32983	 25972	 48
3220	 32983	 25948	 48
3222	 32975	 25964	 48
3222	 32983	 25964	 48
3223	 32991	 25972	 48
3223	 32983	 25972	 48
3221	 32983	 25956	 48
3221	 32983	 25956	 48
3222	 32975	 25964	 48
3222	 32983	 25964	 48
3222	 32991	 25964	 48
3220	 32991	 25948	 48
3223	 32991	 25972	 48
3222	 32991	 25964	 48
3220	 32983	 25948	 48
3222	 32991	 25964	 48
3223	 32983	 25972	 48
3222	 32991	 25964	 48
3223	 32983	 25972	 48
3221	 32983	 25956	 48
3221	 32991	 25956	 48
3222	 32983	 25964	 48
3217	 32983	 25924	 48
3222	 32983	 25964	 48
3222	 32975	 25964	 48
3219	 32983	 25940	 48
3221	 32983	 25956	 48
3222	 32975	 25964	 48
3223	 32983	 25972	 48
3224	 32983	 25980	 48
3221	 32983	 25956	 48
3222	 32983	 25964	 48
3223	 32991	 25972	 48
3221	 32983	 25956	 48
3223	 32983	 25972	 48
3223	 32983	 25972	 48
3221	 32983	 25956	 48
3220	 32983	 25948	 48
3222	 32991	 25964	 48
3221	 32975	 25956	 48
3222	 32975	 25964	 48
3221	 32983	 25956	 48
3222	 32983	 25964	 48
3222	 32983	 25964	 48
3221	 32983	 25956	 48
3224	 32959	 25980	 48
3220	 32983	 25948	 48
3219	 32975	 25940	 48
3221	 32967	 25956	 48
3223	 32983	 25972	 48
3222	 32983	 25964	 48
3222	 32991	 25964	 48
3219	 32983	 25940	 48
3219	 32983	 25940	 48
3220	 32983	 25948	 48
3221	 32983	 25956	 48
3221	 32983	 25956	 48
3221	 32975	 25956	 48
3222	 32975	 25964	 48
3223	 32975	 25972	 48
3219	 32975	 25940	 48
3223	 32991	 25972	 48
3221	 32983	 25956	 48
3221	 32975	 25956	 48
3221	 32983	 25956	 48
3221	 32983	 25956	 48
3220	 32967	 25948	 48
3222	 32975	 25964	 48
3219	 32983	 25940	 48
3221	 32991	 25956	 48
3220	 32967	 25948	 48
3220	 32967	 25948	 48
3220	 32975	 25948	 48
3221	 32975	 25956	 48
3223	 32991	 25972	 48
3222	 32983	 25964	 48
3222	 32983	 25964	 48
3221	 32983	 25956	 48
3220	 32967	 25948	 48
3220	 32983	 25948	 48
3222	 32983	 25964	 48
3221	 32983	 25956	 48
3222	 32975	 25964	 48
3221	 32983	 25956	 48
3222	 32943	 25964	 48
3221	 32975	 25956	 48
3221	 32975	 25956	 48
3222	 32983	 25964	 48
3220	 32983	 25948	 48
3221	 32983	 25956	 48
3220	 32975	 25948	 48
3220	 32967	 25948	 48
3221	 32967	 25956	 48
3222	 32983	 25964	 48
3221	 32967	 25956	 48
3222	 32991	 25964	 48
3222	 32983	 25964	 48
3223	 32975	 25972	 48
3221	 32975	 25956	 48
3222	 32983	 25964	 48
3220	 32967	 25948	 48
3220	 32959	 25948	 48
3220	 32983	 25948	 48
3221	 32975	 25956	 48
3221	 32983	 25956	 48
3221	 32975	 25956	 48
3221	 32975	 25956	 48
3220	 32983	 25948	 48
3222	 32967	 25964	 48
3222	 32967	 25964	 48
3222	 32975	 25964	 48
3222	 32975	 25964	 48
3221	 32975	 25956	 48
3222	 32991	 25964	 48
3222	 32975	 25964	 48
3222	 32967	 25964	 48
3220	 32975	 25948	 48
3220	 32983	 25948	 48
3221	 32975	 25956	 48
3221	 32967	 25956	 48
3222	 32983	 25964	 48
3220	 32983	 25948	 48
3219	 32983	 25940	 48
3220	 32975	 25948	 48
3220	 32975	 25948	 48
3221	 32983	 25956	 48
3221	 32983	 25956	 48
3221	 32983	 25956	 48
3221	 32983	 25956	 48
3221	 32983	 25956	 48
3221	 32975	 25956	 48
3221	 32975	 25956	 48
3221	 32983	 25956	 48
3221	 32951	 25956	 48
3220	 32975	 25948	 48
3220	 32983	 25948	 48
3220	 32975	 25948	 48
3221	 32975	 25956	 48
3223	 32991	 25972	 48
3221	 32975	 25956	 48
3222	 32967	 25964	 48
3221	 32975	 25956	 48
3221	 32975	 25956	 48
3221	 32975	 25956	 48
3222	 32983	 25964	 48
3221	 32983	 25956	 48
3222	 32983	 25964	 48
3222	 32983	 25964	 48
3222	 32975	 25964	 48
3222	 32975	 25964	 48
3221	 32983	 25956	 48
3221	 32975	 25956	 48
3222	 32983	 25964	 48
3223	 32991	 25972	 48
3223	 32975	 25972	 48
3223	 32975	 25972	 48
3221	 32975	 25956	 48
3221	 32991	 25956	 48
3224	 32983	 25980	 48
3220	 32991	 25948	 48
3221	 32975	 25956	 48
3224	 32967	 25980	 48
3223	 32983	 25972	 48
3222	 32975	 25964	 48
3221	 33000	 25956	 48
3223	 32975	 25972	 48
3222	 32983	 25964	 48
3222	 32975	 25964	 48
3222	 32983	 25964	 48
3222	 32983	 25964	 48
3222	 32975	 25964	 48
3223	 32967	 25972	 48
3222	 32975	 25964	 48
3222	 32983	 25964	 48
3222	 32975	 25964	 48
3221	 32991	 25956	 48
3221	 32991	 25956	 48
3222	 32983	 25964	 48
3221	 32983	 25956	 48
3220	 32983	 25948	 48
3221	 32983	 25956	 48
3223	 32991	 25972	 48
3223	 32983	 25972	 48
3223	 32983	 25972	 48
3222	 32991	 25964	 48
3221	 32983	 25956	 48
3221	 32991	 25956	 48
3222	 32991	 25964	 48
3222	 32983	 25964	 48
3222	 32983	 25964	 48
3221	 32983	 25956	 48
3224	 32967	 25980	 48
3224	 32991	 25980	 48
3224	 32983	 25980	 48
3222	 32983	 25964	 48
3224	 32983	 25980	 48
3222	 32975	 25964	 48
3222	 32983	 25964	 48
3224	 33000	 25980	 48
3224	 32975	 25980	 48
3222	 32991	 25964	 48
3223	 32983	 25972	 48
3220	 32991	 25948	 48
3222	 32983	 25964	 48
3221	 32991	 25956	 48
3222	 32975	 25964	 48
3223	 32983	 25972	 48
3223	 32991	 25972	 48
3224	 32983	 25980	 48
3223	 32983	 25972	 48
3222	 32983	 25964	 48
3223	 32983	 25972	 48
3223	 32983	 25972	 48
3222	 32983	 25964	 48
3222	 32991	 25964	 48
3224	 32983	 25980	 48
3222	 32983	 25964	 48
3221	 32975	 25956	 48
3222	 32975	 25964	 48
3223	 32983	 25972	 48
3223	 32991	 25972	 48
3225	 32991	 25989	 48
3224	 32975	 25980	 48
3223	 32983	 25972	 48
3221	 32991	 25956	 48
3223	 32983	 25972	 48
3223	 32983	 25972	 48
3223	 32983	 25972	 48
3223	 32983	 25972	 48
3221	 32991	 25956	 48
3223	 32991	 25972	 48
3223	 33000	 25972	 48
3223	 32983	 25972	 48
3222	 32983	 25964	 48
3222	 32975	 25964	 48
3222	 32991	 25964	 48
3223	 32983	 25972	 48
3222	 32983	 25964	 48
3224	 32991	 25980	 48
3224	 32967	 25980	 48
3223	 32983	 25972	 48
3223	 32991	 25972	 48
3223	 32991	 25972	 48
3221	 32991	 25956	 48
3224	 32975	 25980	 48
3224	 32991	 25980	 48
3224	 32983	 25980	 48
3223	 32983	 25972	 48
3222	 32983	 25964	 48
3223	 32975	 25972	 48
3223	 32983	 25972	 48
3223	 32983	 25972	 48
3223	 32983	 25972	 48
3222	 32983	 25964	 48
3223	 32991	 25972	 48
3223	 32991	 25972	 48
3223	 32967	 25972	 48
3221	 32991	 25956	 48
3223	 32983	 25972	 48
3221	 32983	 25956	 48
3222	 32983	 25964	 48
3222	 32991	 25964	 48
3223	 32983	 25972	 48
3223	 32983	 25972	 48
3222	 32983	 25964	 48
3222	 32983	 25964	 48
3222	 32991	 25964	 48
3221	 32975	 25956	 48
3225	 32983	 25989	 48
3223	 32975	 25972	 48
3223	 32983	 25972	 48
3222	 32991	 25964	 48
3223	 32975	 25972	 48
3222	 32991	 25964	 48
3222	 32991	 25964	 48
3223	 32983	 25972	 48
3221	 32991	 25956	 48
3220	 32983	 25948	 48
3221	 32991	 25956	 48
3223	 32967	 25972	 48
3223	 32975	 25972	 48
3223	 32975	 25972	 48
3223	 32967	 25972	 48
3222	 32983	 25964	 48
3220	 32983	 25948	 48
3222	 32983	 25964	 48
3222	 32975	 25964	 48
3222	 32983	 25964	 48
3222	 32991	 25964	 48
3221	 32983	 25956	 48
3223	 32983	 25972	 48
3223	 32991	 25972	 48
3222	 32975	 25964	 48
3222	 32983	 25964	 48
3222	 32991	 25964	 48
3222	 32983	 25964	 48
3222	 32967	 25964	 48
3222	 32983	 25964	 48
3222	 33000	 25964	 48
3222	 32983	 25964	 48
3222	 32983	 25964	 48
3223	 32983	 25972	 48
3223	 32983	 25972	 48
3222	 32975	 25964	 48
3221	 32975	 25956	 48
3223	 32983	 25972	 48
3222	 32983	 25964	 48
3222	 32991	 25964	 48
3222	 32983	 25964	 48
3222	 32983	 25964	 48
3222	 32983	 25964	 48
3224	 32975	 25980	 48
3221	 32975	 25956	 48
3221	 32983	 25956	 48
3222	 32975	 25964	 48
3221	 32983	 25956	 48
3221	 32983	 25956	 48
3221	 32983	 25956	 48
3222	 32975	 25964	 48
3221	 32983	 25956	 48
3222	 32983	 25964	 48
3222	 32983	 25964	 48
3222	 32975	 25964	 48
3223	 32983	 25972	 48
3223	 32983	 25972	 48
3222	 32983	 25964	 48
3223	 32975	 25972	 48
3223	 32983	 25972	 48
3224	 32975	 25980	 48
3222	 32975	 25964	 48
3221	 32983	 25956	 48
3221	 32967	 25956	 48
3221	 32975	 25956	 48
3221	 32975	 25956	 48
3222	 32975	 25964	 48
3222	 32983	 25964	 48
3223	 32975	 25972	 48
3222	 32983	 25964	 48
3222	 32975	 25964	 48
3222	 32975	 25964	 48
3221	 32983	 25956	 48
3223	 32975	 25972	 48
3223	 32991	 25972	 48
3221	 32967	 25956	 48
3221	 32967	 25956	 48
3223	 32967	 25972	 48
3223	 32967	 25972	 48
3221	 32975	 25956	 48
3222	 32967	 25964	 48
3224	 32983	 25980	 48
3222	 32983	 25964	 48
3221	 32983	 25956	 48
3220	 32975	 25948	 48
3222	 32975	 25964	 48
3222	 32967	 25964	 48
3222	 32983	 25964	 48
3220	 32975	 25948	 48
3221	 32975	 25956	 48
3222	 32983	 25964	 48
3220	 32983	 25948	 48
3222	 32983	 25964	 48
3222	 32967	 25964	 48
3222	 32983	 25964	 48
3221	 32975	 25956	 48
3221	 32983	 25956	 48
3222	 32967	 25964	 48
3222	 32975	 25964	 48
3222	 32975	 25964	 48
3221	 32975	 25956	 48
3222	 32983	 25964	 48
3221	 32975	 25956	 48
3221	 32975	 25956	 48
3222	 32983	 25964	 48
3223	 32991	 25972	 48
3223	 32983	 25972	 48
3222	 32983	 25964	 48
3222	 32983	 25964	 48
3222	 32975	 25964	 48
3222	 32975	 25964	 48
3221	 32975	 25956	 48
3221	 32959	 25956	 48
3223	 32967	 25972	 48
3223	 32983	 25972	 48
3219	 32975	 25940	 48
3224	 32991	 25980	 48
3224	 32975	 25980	 48
3220	 32983	 25948	 48
3221	 32975	 25956	 48
3221	 32991	 25956	 48
3220	 32983	 25948	 48
3222	 32991	 25964	 48
3221	 32983	 25956	 48
3222	 32983	 25964	 48
3226	 32975	 25997	 48
3221	 32983	 25956	 48
3220	 32983	 25948	 48
3223	 32975	 25972	 48
3222	 32983	 25964	 48
3221	 32991	 25956	 48
3222	 32983	 25964	 48
3223	 32983	 25972	 48
3222	 32975	 25964	 48
3223	 32991	 25972	 48
3222	 32975	 25964	 48
3224	 32975	 25980	 48
3221	 32975	 25956	 48
3223	 32983	 25972	 48
3223	 32983	 25972	 48
3222	 32983	 25964	 48
3221	 32967	 25956	 48
3223	 32983	 25972	 48
3222	 32983	 25964	 48
3222	 32983	 25964	 48
3220	 32983	 25948	 48
3224	 32975	 25980	 48
3221	 32983	 25956	 48
3222	 32991	 25964	 48
3222	 32975	 25964	 48
3222	 32983	 25964	 48
3224	 32983	 25980	 48
3223	 32975	 25972	 48
3226	 32991	 25997	 48
3222	 32975	 25964	 48
3223	 32975	 25972	 48
3223	 32975	 25972	 48
3223	 32991	 25972	 48
3224	 32983	 25980	 48
3224	 32991	 25980	 48
3223	 32975	 25972	 48
3221	 32975	 25956	 48
3222	 32991	 25964	 48
3221	 32991	 25956	 48
3224	 32975	 25980	 48
3224	 32975	 25980	 48
3222	 32983	 25964	 48
3223	 32983	 25972	 48
3222	 32983	 25964	 48
3223	 32983	 25972	 48
3223	 32983	 25972	 48
3223	 32983	 25972	 48
3224	 32967	 25980	 48
3223	 32975	 25972	 48
3223	 32991	 25972	 48
3223	 32983	 25972	 48
3223	 32983	 25972	 48
3223	 32983	 25972	 48
3221	 32967	 25956	 48
3223	 32983	 25972	 48
3223	 32975	 25972	 48
3223	 32975	 25972	 48
3223	 32975	 25972	 48
3222	 32967	 25964	 48
3224	 32975	 25980	 48
3222	 32991	 25964	 48
3223	 32991	 25972	 48
3222	 32975	 25964	 48
3223	 32983	 25972	 48
3224	 32983	 25980	 48
3222	 32983	 25964	 48
3223	 32983	 25972	 48
3222	 32975	 25964	 48
3220	 32983	 25948	 48
3223	 32983	 25972	 48
3221	 32983	 25956	 48
3223	 32975	 25972	 48
3222	 32983	 25964	 48
3222	 32975	 25964	 48
3223	 32983	 25972	 48
3223	 32975	 25972	 48
3223	 32983	 25972	 48
3222	 32983	 25964	 48
3223	 32983	 25972	 48
3222	 32983	 25964	 48
3220	 32991	 25948	 48
3221	 32991	 25956	 48
3222	 32983	 25964	 48
3224	 32967	 25980	 48
3223	 32983	 25972	 48
3224	 32983	 25980	 48
3222	 32975	 25964	 48
3223	 32983	 25972	 48
3223	 32983	 25972	 48
3223	 32991	 25972	 48
3223	 32983	 25972	 48
3222	 32983	 25964	 48
3224	 32975	 25980	 48
3224	 32983	 25980	 48
3223	 32983	 25972	 48
3222	 32991	 25964	 48
3223	 32967	 25972	 48
3221	 32991	 25956	 48
3224	 32983	 25980	 48
3223	 32975	 25972	 48
3223	 32975	 25972	 48
3223	 32991	 25972	 48
3223	 32975	 25972	 48
3225	 32959	 25989	 48
3222	 32983	 25964	 48
3222	 32975	 25964	 48
3223	 32983	 25972	 48
3223	 32975	 25972	 48
3222	 32983	 25964	 48
3224	 32975	 25980	 48
3222	 32983	 25964	 48
3224	 32991	 25980	 48
3224	 32983	 25980	 48
3223	 32983	 25972	 48
3222	 32983	 25964	 48
3223	 32975	 25972	 48
3222	 32967	 25964	 48
3221	 32975	 25956	 48
3224	 32983	 25980	 48
3222	 32983	 25964	 48
3223	 32983	 25972	 48
3224	 32959	 25980	 48
3223	 32983	 25972	 48
3222	 32975	 25964	 48
3221	 32975	 25956	 48
3220	 32983	 25948	 48
3223	 32983	 25972	 48
3221	 32983	 25956	 48
3223	 32983	 25972	 48
3222	 32975	 25964	 48
3223	 32983	 25972	 48
3222	 32983	 25964	 48
3220	 32967	 25948	 48
3222	 32983	 25964	 48
3224	 32975	 25980	 48
3221	 32991	 25956	 48
3225	 32967	 25989	 48
3222	 32991	 25964	 48
3222	 32975	 25964	 48
3222	 32991	 25964	 48
3223	 32975	 25972	 48
3222	 32991	 25964	 48
3221	 32959	 25956	 48
3223	 32983	 25972	 48
3223	 32967	 25972	 48
3222	 32983	 25964	 48
3222	 32975	 25964	 48
3222	 32983	 25964	 48
3220	 32983	 25948	 48
3223	 32983	 25972	 48
3221	 32991	 25956	 48
3223	 32975	 25972	 48
3223	 32975	 25972	 48
3222	 32967	 25964	 48
3222	 32983	 25964	 48
3221	 32975	 25956	 48
3222	 32975	 25964	 48
3221	 32983	 25956	 48
3223	 32983	 25972	 48
3223	 32983	 25972	 48
3221	 32991	 25956	 48
3221	 32975	 25956	 48
3222	 32975	 25964	 48
3221	 32975	 25956	 48
3223	 32983	 25972	 48
3221	 32975	 25956	 48
3222	 32983	 25964	 48
3224	 32967	 25980	 48
3222	 32983	 25964	 48
3224	 32983	 25980	 48
3222	 32975	 25964	 48
3222	 32991	 25964	 48
3221	 32975	 25956	 48
3221	 32983	 25956	 48
3222	 32991	 25964	 48
3221	 32975	 25956	 48
3222	 32959	 25964	 48
3221	 32967	 25956	 48
3221	 32983	 25956	 48
3224	 32983	 25980	 48
3222	 32983	 25964	 48
3223	 32975	 25972	 48
3222	 32983	 25964	 48
3222	 32975	 25964	 48
3222	 32967	 25964	 48
3224	 32983	 25980	 48
3221	 32983	 25956	 48
3221	 32983	 25956	 48
3222	 32975	 25964	 48
3222	 32983	 25964	 48
3222	 32983	 25964	 48
3222	 32983	 25964	 48
3222	 32983	 25964	 48
3222	 32983	 25964	 48
3221	 32991	 25956	 48
3221	 32975	 25956	 48
3222	 32983	 25964	 48
3221	 32975	 25956	 48
3219	 32967	 25940	 48
3223	 32983	 25972	 48
3223	 32983	 25972	 48
3221	 32975	 25956	 48
3221	 32959	 25956	 48
3223	 32975	 25972	 48
3222	 32991	 25964	 48
3221	 32975	 25956	 48
3224	 32975	 25980	 48
3222	 32967	 25964	 48
3224	 32983	 25980	 48
3222	 32991	 25964	 48
3223	 32959	 25972	 48
3222	 32967	 25964	 48
3222	 32975	 25964	 48
3222	 32975	 25964	 48
3222	 32975	 25964	 48
3221	 32983	 25956	 48
3222	 32975	 25964	 48
3223	 32967	 25972	 48
3221	 32967	 25956	 48
3223	 32975	 25972	 48
3221	 32983	 25956	 48
3222	 32991	 25964	 48
3223	 32991	 25972	 48
3223	 32983	 25972	 48
3223	 32991	 25972	 48
3222	 32983	 25964	 48
3222	 32975	 25964	 48
3222	 32975	 25964	 48
3222	 32975	 25964	 48
3222	 32975	 25964	 48
3222	 32975	 25964	 48
3222	 32983	 25964	 48
3222	 32975	 25964	 48
3221	 32983	 25956	 48
3221	 32967	 25956	 48
3220	 32983	 25948	 48
3222	 32975	 25964	 48
3221	 32983	 25956	 48
3222	 32983	 25964	 48
3222	 32975	 25964	 48
3222	 32983	 25964	 48
3222	 32975	 25964	 48
3221	 32991	 25956	 48
3223	 32983	 25972	 48
3223	 32991	 25972	 48
3221	 32983	 25956	 48
3224	 32983	 25980	 48
3223	 32983	 25972	 48
3223	 32975	 25972	 48
3223	 32991	 25972	 48
3222	 32983	 25964	 48
3221	 32975	 25956	 48
3223	 32983	 25972	 48
3223	 32991	 25972	 48
3222	 32975	 25964	 48
3223	 32983	 25972	 48
3221	 32983	 25956	 48
3222	 32975	 25964	 48
3223	 32983	 25972	 48
3222	 32975	 25964	 48
3223	 32983	 25972	 48
3224	 32983	 25980	 48
3221	 32983	 25956	 48
3222	 32975	 25964	 48
3222	 32983	 25964	 48
3224	 32991	 25980	 48
3222	 32983	 25964	 48
3221	 32959	 25956	 48
3222	 32959	 25964	 48
3223	 32967	 25972	 48
3223	 32991	 25972	 48
3222	 32991	 25964	 48
3223	 32975	 25972	 48
3222	 32983	 25964	 48
3222	 32983	 25964	 48
3223	 32983	 25972	 48
3223	 32975	 25972	 48
3223	 32983	 25972	 48
3223	 32991	 25972	 48
3225	 32975	 25989	 48
3223	 32983	 25972	 48
3224	 32983	 25980	 48
3222	 32959	 25964	 48
3222	 32983	 25964	 48
3222	 32983	 25964	 48
3224	 32975	 25980	 48
3222	 32991	 25964	 48
3222	 32983	 25964	 48
3222	 32991	 25964	 48
3225	 32983	 25989	 48
3220	 32983	 25948	 48
3223	 32983	 25972	 48
3223	 32983	 25972	 48
3223	 32983	 25972	 48
3224	 32991	 25980	 48
3225	 32991	 25989	 48
3221	 32983	 25956	 48
3222	 32983	 25964	 48
3222	 32983	 25964	 48
3222	 32975	 25964	 48
3222	 32967	 25964	 48
3223	 32983	 25972	 48
3224	 32975	 25980	 48
3221	 32991	 25956	 48
3224	 32967	 25980	 48
3222	 32983	 25964	 48
3223	 32983	 25972	 48
3223	 32975	 25972	 48
3224	 32991	 25980	 48
3223	 32983	 25972	 48
3224	 33000	 25980	 48
3223	 32983	 25972	 48
3225	 32983	 25989	 48
3222	 32983	 25964	 48
3225	 32983	 25989	 48
3221	 32991	 25956	 48
3223	 32975	 25972	 48
3223	 32983	 25972	 48
3222	 32991	 25964	 48
3225	 32983	 25989	 48
3223	 32975	 25972	 48
3222	 32983	 25964	 48
3223	 32983	 25972	 48
3222	 32983	 25964	 48
3222	 32991	 25964	 48
3223	 32983	 25972	 48
3225	 32983	 25989	 48
3223	 32983	 25972	 48
3223	 32991	 25972	 48
3223	 32991	 25972	 48
3224	 32975	 25980	 48
3223	 32991	 25972	 48
3224	 32991	 25980	 48
3223	 32975	 25972	 48
3222	 32983	 25964	 48
3223	 32991	 25972	 48
3223	 32975	 25972	 48
3223	 32983	 25972	 48
3223	 32983	 25972	 48
3222	 32983	 25964	 48
3224	 32991	 25980	 48
3221	 32991	 25956	 48
3226	 32983	 25997	 48
3223	 32991	 25972	 48
3223	 32991	 25972	 48
3223	 32991	 25972	 48
3221	 32975	 25956	 48
3222	 32983	 25964	 48
3222	 32983	 25964	 48
