3209	 32991	 25860	 42
3207	 32983	 25843	 42
3209	 32967	 25860	 42
3210	 32951	 25868	 42
3210	 32975	 25868	 42
3209	 32975	 25860	 42
3210	 32975	 25868	 42
3209	 32975	 25860	 42
3210	 32983	 25868	 42
3209	 33000	 25860	 42
3210	 32991	 25868	 42
3212	 32975	 25884	 42
3210	 32975	 25868	 42
3211	 32991	 25876	 42
3210	 32975	 25868	 42
3210	 32991	 25868	 42
3210	 32983	 25868	 42
3211	 32991	 25876	 42
3212	 33000	 25884	 42
3211	 32975	 25876	 42
3211	 32967	 25876	 42
3208	 32975	 25852	 42
3212	 32975	 25884	 42
3212	 32967	 25884	 42
3212	 32983	 25884	 42
3211	 32975	 25876	 42
3209	 32967	 25860	 42
3210	 32967	 25868	 42
3213	 32975	 25892	 42
3211	 32967	 25876	 42
3210	 32983	 25868	 42
3213	 32983	 25892	 42
3211	 32983	 25876	 42
3210	 32967	 25868	 42
3213	 32975	 25892	 42
3213	 32975	 25892	 42
3212	 32975	 25884	 42
3211	 32975	 25876	 42
3213	 32991	 25892	 42
3211	 32967	 25876	 42
3212	 32983	 25884	 42
3211	 32959	 25876	 42
3212	 32975	 25884	 42
3212	 32975	 25884	 42
3210	 32983	 25868	 42
3210	 32983	 25868	 42
3212	 32983	 25884	 42
3214	 32975	 25900	 42
3211	 32959	 25876	 42
3214	 32983	 25900	 42
3212	 32975	 25884	 42
3211	 32975	 25876	 42
3213	 32983	 25892	 42
3214	 32975	 25900	 42
3211	 32983	 25876	 42
3212	 32975	 25884	 42
3213	 32983	 25892	 42
3217	 32967	 25924	 42
3213	 32983	 25892	 42
3210	 32967	 25868	 42
3214	 32983	 25900	 42
3212	 32983	 25884	 42
3213	 32975	 25892	 42
3212	 32991	 25884	 42
3215	 32975	 25908	 42
3210	 32967	 25868	 42
3213	 32967	 25892	 42
3212	 32967	 25884	 42
3212	 32983	 25884	 42
3212	 32975	 25884	 42
3211	 32991	 25876	 42
3215	 32983	 25908	 42
3214	 32967	 25900	 42
3214	 32967	 25900	 42
3212	 32975	 25884	 42
3213	 32975	 25892	 42
3213	 32975	 25892	 42
3214	 32991	 25900	 42
3212	 32983	 25884	 42
3213	 32983	 25892	 42
3214	 32983	 25900	 42
3213	 32975	 25892	 42
3215	 32991	 25908	 42
3213	 32975	 25892	 42
3213	 32983	 25892	 42
3215	 32991	 25908	 42
3214	 32991	 25900	 42
3214	 32983	 25900	 42
3215	 32983	 25908	 42
3216	 32991	 25916	 42
3213	 32983	 25892	 42
3212	 32983	 25884	 42
3214	 32975	 25900	 42
3214	 32983	 25900	 42
3214	 32983	 25900	 42
3215	 32983	 25908	 42
3215	 32967	 25908	 42
3214	 32983	 25900	 42
3213	 32975	 25892	 42
3214	 32975	 25900	 42
3214	 32983	 25900	 42
3216	 32975	 25916	 42
3214	 32983	 25900	 42
3218	 32975	 25932	 42
3215	 32983	 25908	 42
3216	 32983	 25916	 42
3214	 32991	 25900	 42
3214	 32967	 25900	 42
3214	 32983	 25900	 42
3213	 32975	 25892	 42
3214	 32983	 25900	 42
3214	 32983	 25900	 42
3212	 32983	 25884	 42
3215	 32991	 25908	 42
3216	 32959	 25916	 42
3214	 32975	 25900	 42
3215	 32983	 25908	 42
3215	 32975	 25908	 42
3215	 32991	 25908	 42
3216	 32983	 25916	 42
3214	 32983	 25900	 42
3215	 32983	 25908	 42
3215	 32975	 25908	 42
3215	 32991	 25908	 42
3215	 32975	 25908	 42
3215	 32983	 25908	 42
3215	 32983	 25908	 42
3218	 32975	 25932	 42
3215	 32983	 25908	 42
3215	 32975	 25908	 42
3217	 32991	 25924	 42
3216	 32983	 25916	 42
3218	 32991	 25932	 42
3214	 32991	 25900	 42
3215	 32991	 25908	 42
3214	 32967	 25900	 42
3216	 32975	 25916	 42
3216	 32983	 25916	 42
3214	 32991	 25900	 42
3217	 32975	 25924	 42
3215	 32991	 25908	 42
3215	 32983	 25908	 42
3215	 32983	 25908	 42
3216	 32983	 25916	 42
3210	 32943	 25868	 42
3216	 32983	 25916	 42
3216	 32983	 25916	 42
3216	 32975	 25916	 42
3215	 32983	 25908	 42
3217	 32991	 25924	 42
3218	 32991	 25932	 42
3217	 32975	 25924	 42
3216	 32991	 25916	 42
3217	 32983	 25924	 42
3216	 32991	 25916	 42
3218	 32983	 25932	 42
3215	 32991	 25908	 42
3218	 32983	 25932	 42
3216	 32983	 25916	 42
3216	 32983	 25916	 42
3216	 32991	 25916	 42
3216	 32983	 25916	 42
3215	 32983	 25908	 42
3214	 32983	 25900	 42
3216	 32983	 25916	 42
3219	 32991	 25940	 42
3217	 32983	 25924	 42
3213	 32991	 25892	 42
3216	 32991	 25916	 42
3218	 32991	 25932	 42
3216	 32975	 25916	 42
3215	 32983	 25908	 42
3215	 32983	 25908	 42
3216	 32983	 25916	 42
3216	 32983	 25916	 42
3215	 32983	 25908	 42
3218	 32983	 25932	 42
3217	 32983	 25924	 42
3215	 33000	 25908	 42
3217	 32983	 25924	 42
3217	 32991	 25924	 42
3215	 32983	 25908	 42
3217	 32983	 25924	 42
3216	 32991	 25916	 42
3215	 32983	 25908	 42
3216	 32983	 25916	 42
3218	 32983	 25932	 42
3216	 32991	 25916	 42
3216	 32975	 25916	 42
3218	 32967	 25932	 42
3216	 32983	 25916	 42
3216	 32991	 25916	 42
3216	 32991	 25916	 42
3217	 32983	 25924	 42
3217	 32991	 25924	 42
3215	 32991	 25908	 42
3217	 32991	 25924	 42
3217	 32991	 25924	 42
3217	 32991	 25924	 42
3218	 32983	 25932	 42
3216	 32991	 25916	 42
3216	 32991	 25916	 42
3220	 32983	 25948	 42
3216	 32991	 25916	 42
3216	 32991	 25916	 42
3216	 32975	 25916	 42
3216	 32983	 25916	 42
3219	 32991	 25940	 42
3217	 32983	 25924	 42
3218	 32991	 25932	 42
3214	 32991	 25900	 42
3217	 32991	 25924	 42
3217	 32975	 25924	 42
3218	 32983	 25932	 42
3216	 32975	 25916	 42
3216	 32959	 25916	 42
3217	 32991	 25924	 42
3216	 32983	 25916	 42
3218	 32991	 25932	 42
3219	 32991	 25940	 42
3216	 32983	 25916	 42
3218	 32975	 25932	 42
3214	 32959	 25900	 42
3217	 32975	 25924	 42
3215	 32975	 25908	 42
3215	 32983	 25908	 42
3217	 32983	 25924	 42
3216	 32983	 25916	 42
3217	 32983	 25924	 42
3218	 32983	 25932	 42
3217	 32991	 25924	 42
3217	 32975	 25924	 42
3217	 32991	 25924	 42
3217	 32991	 25924	 42
3216	 32983	 25916	 42
3216	 32983	 25916	 42
3217	 32983	 25924	 42
3215	 32983	 25908	 42
3218	 32975	 25932	 42
3215	 32975	 25908	 42
3217	 32975	 25924	 42
3217	 32975	 25924	 42
3217	 32975	 25924	 42
3216	 32975	 25916	 42
3215	 32983	 25908	 42
3218	 32991	 25932	 42
3218	 32975	 25932	 42
3215	 32983	 25908	 42
3214	 32983	 25900	 42
3215	 32991	 25908	 42
3218	 32983	 25932	 42
3217	 32983	 25924	 42
3217	 32975	 25924	 42
3216	 32983	 25916	 42
3217	 32983	 25924	 42
3213	 32991	 25892	 42
3218	 32975	 25932	 42
3217	 32983	 25924	 42
3218	 32967	 25932	 42
3215	 32983	 25908	 42
3218	 32959	 25932	 42
3215	 32983	 25908	 42
3216	 32975	 25916	 42
3218	 32991	 25932	 42
3217	 32967	 25924	 42
3216	 32991	 25916	 42
3216	 32991	 25916	 42
3216	 32975	 25916	 42
3217	 32991	 25924	 42
3216	 32983	 25916	 42
3215	 32983	 25908	 42
3217	 32975	 25924	 42
3216	 32959	 25916	 42
3213	 32991	 25892	 42
3218	 32983	 25932	 42
3215	 32975	 25908	 42
3218	 32975	 25932	 42
3216	 32967	 25916	 42
3214	 32983	 25900	 42
3213	 32975	 25892	 42
3218	 32975	 25932	 42
3216	 32967	 25916	 42
3217	 32975	 25924	 42
3216	 32983	 25916	 42
3217	 32975	 25924	 42
3217	 32983	 25924	 42
3216	 32983	 25916	 42
3216	 32975	 25916	 42
3215	 32975	 25908	 42
3214	 32975	 25900	 42
3216	 32983	 25916	 42
3214	 32983	 25900	 42
3217	 32967	 25924	 42
3215	 32959	 25908	 42
3216	 32983	 25916	 42
3216	 32975	 25916	 42
3215	 32983	 25908	 42
3216	 32983	 25916	 42
3215	 32983	 25908	 42
3214	 32975	 25900	 42
3214	 32975	 25900	 42
3215	 32967	 25908	 42
3217	 32975	 25924	 42
3216	 32983	 25916	 42
3216	 32967	 25916	 42
3215	 32975	 25908	 42
3219	 32983	 25940	 42
3216	 32959	 25916	 42
3216	 32991	 25916	 42
3217	 32991	 25924	 42
3215	 32975	 25908	 42
3215	 32983	 25908	 42
3214	 32983	 25900	 42
3216	 32975	 25916	 42
3217	 32983	 25924	 42
3217	 32983	 25924	 42
3215	 32983	 25908	 42
3215	 32975	 25908	 42
3216	 32991	 25916	 42
3215	 32975	 25908	 42
3216	 32975	 25916	 42
3215	 32991	 25908	 42
3216	 32983	 25916	 42
3216	 32975	 25916	 42
3216	 32975	 25916	 42
3214	 32975	 25900	 42
3216	 32975	 25916	 42
3215	 32975	 25908	 42
3217	 32967	 25924	 42
3215	 32975	 25908	 42
3215	 32975	 25908	 42
3215	 32983	 25908	 42
3216	 32975	 25916	 42
3217	 32975	 25924	 42
3217	 32983	 25924	 42
3215	 32983	 25908	 42
3217	 32975	 25924	 42
3213	 32967	 25892	 42
3216	 32975	 25916	 42
3218	 32991	 25932	 42
3215	 32975	 25908	 42
3215	 32975	 25908	 42
3214	 32975	 25900	 42
3216	 32983	 25916	 42
3218	 32975	 25932	 42
3216	 32983	 25916	 42
3216	 32975	 25916	 42
3217	 32983	 25924	 42
3218	 32983	 25932	 42
3216	 32983	 25916	 42
3216	 32975	 25916	 42
3216	 32983	 25916	 42
3217	 32983	 25924	 42
3216	 32967	 25916	 42
3212	 32975	 25884	 42
3218	 32975	 25932	 42
3215	 32983	 25908	 42
3218	 32991	 25932	 42
3217	 32967	 25924	 42
3215	 32983	 25908	 42
3215	 32975	 25908	 42
3216	 32975	 25916	 42
3217	 32975	 25924	 42
3216	 32991	 25916	 42
3216	 32991	 25916	 42
3214	 32975	 25900	 42
3217	 32967	 25924	 42
3218	 32975	 25932	 42
3218	 32975	 25932	 42
3215	 32983	 25908	 42
3218	 32975	 25932	 42
3216	 32951	 25916	 42
3216	 32975	 25916	 42
3218	 32959	 25932	 42
3217	 32967	 25924	 42
3217	 32983	 25924	 42
3217	 32967	 25924	 42
3218	 32991	 25932	 42
3217	 32991	 25924	 42
3216	 32975	 25916	 42
3217	 32975	 25924	 42
3217	 32967	 25924	 42
3217	 32983	 25924	 42
3216	 32983	 25916	 42
3215	 32983	 25908	 42
3219	 32983	 25940	 42
3215	 32983	 25908	 42
3217	 32991	 25924	 42
3216	 32983	 25916	 42
3217	 32967	 25924	 42
3213	 32991	 25892	 42
3215	 32983	 25908	 42
3216	 32975	 25916	 42
3217	 32975	 25924	 42
3218	 32975	 25932	 42
3216	 32983	 25916	 42
3217	 32975	 25924	 42
3216	 32983	 25916	 42
3216	 32991	 25916	 42
3216	 32991	 25916	 42
3214	 32983	 25900	 42
3215	 32991	 25908	 42
3214	 32975	 25900	 42
3218	 32983	 25932	 42
3216	 32983	 25916	 42
3217	 32975	 25924	 42
3218	 32991	 25932	 42
3215	 32967	 25908	 42
3216	 32983	 25916	 42
3216	 32983	 25916	 42
3216	 32991	 25916	 42
3217	 32967	 25924	 42
3213	 32967	 25892	 42
3217	 32975	 25924	 42
3218	 32983	 25932	 42
3215	 32991	 25908	 42
3218	 32975	 25932	 42
3218	 32975	 25932	 42
3215	 32983	 25908	 42
3218	 32967	 25932	 42
3218	 32991	 25932	 42
3216	 32975	 25916	 42
3216	 32959	 25916	 42
3217	 32975	 25924	 42
3219	 32975	 25940	 42
3218	 32975	 25932	 42
3218	 32967	 25932	 42
3216	 32991	 25916	 42
3217	 32983	 25924	 42
3216	 32991	 25916	 42
3217	 32983	 25924	 42
3215	 32983	 25908	 42
3215	 32991	 25908	 42
3220	 32991	 25948	 42
3218	 32951	 25932	 42
3219	 32991	 25940	 42
3216	 32991	 25916	 42
3218	 32991	 25932	 42
3216	 32983	 25916	 42
3216	 32975	 25916	 42
3218	 32975	 25932	 42
3218	 32983	 25932	 42
3214	 32983	 25900	 42
3214	 32983	 25900	 42
3220	 32991	 25948	 42
3218	 32991	 25932	 42
3219	 32975	 25940	 42
3217	 32991	 25924	 42
3218	 32983	 25932	 42
3218	 33000	 25932	 42
3216	 32991	 25916	 42
3220	 32975	 25948	 42
3217	 32983	 25924	 42
3217	 32975	 25924	 42
3218	 32983	 25932	 42
3223	 32983	 25972	 42
3219	 32975	 25940	 42
3218	 32975	 25932	 42
3218	 32983	 25932	 42
3220	 32991	 25948	 42
3218	 32991	 25932	 42
3218	 32983	 25932	 42
3218	 32991	 25932	 42
3218	 32983	 25932	 42
3218	 32967	 25932	 42
3217	 32991	 25924	 42
3217	 32983	 25924	 42
3219	 32983	 25940	 42
3217	 33000	 25924	 42
3217	 32991	 25924	 42
3218	 32991	 25932	 42
3218	 32983	 25932	 42
3218	 32991	 25932	 42
3217	 32983	 25924	 42
3218	 32975	 25932	 42
3220	 32975	 25948	 42
3218	 32991	 25932	 42
3217	 32991	 25924	 42
3218	 32983	 25932	 42
3218	 32991	 25932	 42
3219	 32983	 25940	 42
3217	 32991	 25924	 42
3218	 32983	 25932	 42
3219	 32983	 25940	 42
3216	 32975	 25916	 42
3218	 32991	 25932	 42
3216	 32983	 25916	 42
3218	 32991	 25932	 42
3218	 32991	 25932	 42
3217	 32991	 25924	 42
3217	 32991	 25924	 42
3217	 32983	 25924	 42
3217	 32983	 25924	 42
3221	 32983	 25956	 42
3217	 32983	 25924	 42
3218	 32991	 25932	 42
3217	 32991	 25924	 42
3220	 32991	 25948	 42
3217	 32991	 25924	 42
3219	 32975	 25940	 42
3220	 32983	 25948	 42
3219	 32983	 25940	 42
3217	 32991	 25924	 42
3218	 32975	 25932	 42
3218	 32991	 25932	 42
3217	 32991	 25924	 42
3218	 32983	 25932	 42
3218	 32983	 25932	 42
3217	 32991	 25924	 42
3217	 32983	 25924	 42
3216	 32991	 25916	 42
3220	 32983	 25948	 42
3218	 32983	 25932	 42
3219	 32991	 25940	 42
3217	 32983	 25924	 42
3216	 32991	 25916	 42
3217	 32983	 25924	 42
3218	 32983	 25932	 42
3216	 32991	 25916	 42
3218	 32983	 25932	 42
3217	 32991	 25924	 42
3218	 32983	 25932	 42
3218	 32983	 25932	 42
3219	 32983	 25940	 42
3217	 32991	 25924	 42
3217	 32983	 25924	 42
3218	 32975	 25932	 42
3217	 32983	 25924	 42
3217	 32991	 25924	 42
3219	 32983	 25940	 42
3217	 32983	 25924	 42
3218	 32983	 25932	 42
3219	 32991	 25940	 42
3217	 32991	 25924	 42
3219	 32983	 25940	 42
3219	 32991	 25940	 42
3218	 32991	 25932	 42
3218	 32983	 25932	 42
3217	 32983	 25924	 42
3218	 32991	 25932	 42
3219	 32991	 25940	 42
3217	 32983	 25924	 42
3217	 32983	 25924	 42
3218	 32991	 25932	 42
3217	 32983	 25924	 42
3218	 32991	 25932	 42
3218	 32983	 25932	 42
3219	 32975	 25940	 42
3216	 32991	 25916	 42
3218	 32983	 25932	 42
3219	 33000	 25940	 42
3218	 32983	 25932	 42
3219	 32983	 25940	 42
3217	 32975	 25924	 42
3218	 32991	 25932	 42
3217	 32983	 25924	 42
3219	 32991	 25940	 42
3217	 32983	 25924	 42
3218	 32975	 25932	 42
3218	 32983	 25932	 42
3218	 32991	 25932	 42
3217	 32991	 25924	 42
3219	 32983	 25940	 42
3216	 32983	 25916	 42
3218	 32983	 25932	 42
3219	 32975	 25940	 42
3219	 32991	 25940	 42
3219	 32983	 25940	 42
3217	 32975	 25924	 42
3216	 32983	 25916	 42
3217	 32975	 25924	 42
3218	 32983	 25932	 42
3218	 32975	 25932	 42
3218	 32967	 25932	 42
3219	 32975	 25940	 42
3219	 32967	 25940	 42
3219	 32983	 25940	 42
3216	 32991	 25916	 42
3219	 32983	 25940	 42
3217	 32975	 25924	 42
3215	 32983	 25908	 42
3219	 32983	 25940	 42
3217	 32951	 25924	 42
3217	 32975	 25924	 42
3220	 32959	 25948	 42
3217	 32959	 25924	 42
3216	 32983	 25916	 42
3217	 32975	 25924	 42
3219	 32975	 25940	 42
3217	 32967	 25924	 42
3219	 32983	 25940	 42
3213	 32975	 25892	 42
3218	 32975	 25932	 42
3219	 32975	 25940	 42
3217	 32983	 25924	 42
3217	 32983	 25924	 42
3219	 32983	 25940	 42
3217	 32967	 25924	 42
3216	 32991	 25916	 42
3217	 32975	 25924	 42
3217	 32975	 25924	 42
3216	 32975	 25916	 42
3218	 32967	 25932	 42
3216	 32991	 25916	 42
3216	 32983	 25916	 42
3217	 32967	 25924	 42
3220	 32975	 25948	 42
3218	 32975	 25932	 42
3217	 32983	 25924	 42
3217	 32967	 25924	 42
3216	 32983	 25916	 42
3216	 32975	 25916	 42
3217	 32967	 25924	 42
3218	 32967	 25932	 42
3218	 32967	 25932	 42
3216	 32983	 25916	 42
3220	 32975	 25948	 42
3218	 32975	 25932	 42
3216	 32975	 25916	 42
3217	 32967	 25924	 42
3217	 32975	 25924	 42
3216	 32959	 25916	 42
3217	 32967	 25924	 42
3216	 32975	 25916	 42
3218	 32975	 25932	 42
3215	 32959	 25908	 42
3217	 32983	 25924	 42
3218	 32967	 25932	 42
3217	 32983	 25924	 42
3215	 32959	 25908	 42
3218	 32975	 25932	 42
3217	 32991	 25924	 42
3217	 32975	 25924	 42
3215	 32975	 25908	 42
3217	 32983	 25924	 42
3216	 32983	 25916	 42
3219	 32967	 25940	 42
3217	 32967	 25924	 42
3217	 32991	 25924	 42
3218	 32975	 25932	 42
3217	 32983	 25924	 42
3215	 32983	 25908	 42
3216	 32983	 25916	 42
3215	 32991	 25908	 42
3217	 32967	 25924	 42
3216	 32975	 25916	 42
3215	 32975	 25908	 42
3218	 32983	 25932	 42
3217	 32975	 25924	 42
3217	 32983	 25924	 42
3215	 32991	 25908	 42
3217	 32975	 25924	 42
3216	 32975	 25916	 42
3216	 32967	 25916	 42
3217	 32967	 25924	 42
3217	 32967	 25924	 42
3219	 32983	 25940	 42
3216	 32991	 25916	 42
3217	 32991	 25924	 42
3219	 32967	 25940	 42
3217	 32975	 25924	 42
3217	 32967	 25924	 42
3217	 32991	 25924	 42
3216	 32967	 25916	 42
3219	 32967	 25940	 42
3217	 33000	 25924	 42
3218	 32967	 25932	 42
3218	 32991	 25932	 42
3216	 32967	 25916	 42
3217	 32975	 25924	 42
3219	 32959	 25940	 42
3215	 32983	 25908	 42
3217	 32959	 25924	 42
3218	 32983	 25932	 42
3216	 32983	 25916	 42
3217	 32975	 25924	 42
3218	 32991	 25932	 42
3218	 32975	 25932	 42
3218	 32983	 25932	 42
3217	 32983	 25924	 42
3217	 32991	 25924	 42
3217	 32975	 25924	 42
3218	 32983	 25932	 42
3219	 32983	 25940	 42
3218	 32975	 25932	 42
3218	 32959	 25932	 42
3217	 32983	 25924	 42
3218	 32983	 25932	 42
3218	 32959	 25932	 42
3215	 32983	 25908	 42
3217	 32975	 25924	 42
3217	 32975	 25924	 42
3217	 32967	 25924	 42
3217	 32967	 25924	 42
3215	 32967	 25908	 42
3218	 32967	 25932	 42
3218	 32967	 25932	 42
3217	 32983	 25924	 42
3219	 32983	 25940	 42
3217	 32967	 25924	 42
3220	 32983	 25948	 42
3218	 32991	 25932	 42
3217	 32975	 25924	 42
3217	 32991	 25924	 42
3217	 32991	 25924	 42
3219	 32975	 25940	 42
3216	 32991	 25916	 42
3215	 32991	 25908	 42
3218	 32967	 25932	 42
3217	 32975	 25924	 42
3217	 32991	 25924	 42
3218	 32967	 25932	 42
3217	 32983	 25924	 42
3217	 32983	 25924	 42
3219	 33000	 25940	 42
3218	 32967	 25932	 42
3218	 32991	 25932	 42
3216	 32975	 25916	 42
3218	 32983	 25932	 42
3220	 32975	 25948	 42
3217	 32975	 25924	 42
3220	 32967	 25948	 42
3219	 32991	 25940	 42
3217	 32983	 25924	 42
3217	 32983	 25924	 42
3218	 32983	 25932	 42
3218	 32983	 25932	 42
3219	 32975	 25940	 42
3219	 32991	 25940	 42
3217	 32983	 25924	 42
3218	 32975	 25932	 42
3217	 32975	 25924	 42
3217	 32983	 25924	 42
3217	 32967	 25924	 42
3218	 32991	 25932	 42
3218	 32975	 25932	 42
3220	 32967	 25948	 42
3219	 32983	 25940	 42
3218	 32991	 25932	 42
3218	 32991	 25932	 42
3217	 32991	 25924	 42
3219	 32983	 25940	 42
3220	 32975	 25948	 42
3219	 32975	 25940	 42
3217	 32983	 25924	 42
3216	 32983	 25916	 42
3220	 32983	 25948	 42
3219	 32991	 25940	 42
3219	 32991	 25940	 42
3220	 32983	 25948	 42
3219	 32975	 25940	 42
3220	 32983	 25948	 42
3218	 32991	 25932	 42
3218	 32975	 25932	 42
3219	 32991	 25940	 42
3219	 32991	 25940	 42
3220	 32991	 25948	 42
3217	 32967	 25924	 42
3217	 32991	 25924	 42
3218	 32983	 25932	 42
3217	 32983	 25924	 42
3220	 32991	 25948	 42
3218	 32991	 25932	 42
3220	 32975	 25948	 42
3219	 32983	 25940	 42
3220	 32991	 25948	 42
3219	 32983	 25940	 42
3219	 32983	 25940	 42
3218	 32983	 25932	 42
3219	 32983	 25940	 42
3218	 32991	 25932	 42
3220	 32991	 25948	 42
3218	 32983	 25932	 42
3218	 32975	 25932	 42
3219	 32983	 25940	 42
3220	 32983	 25948	 42
3217	 32991	 25924	 42
3219	 32991	 25940	 42
3221	 32991	 25956	 42
3218	 32991	 25932	 42
3218	 32991	 25932	 42
3218	 32983	 25932	 42
3219	 32975	 25940	 42
3218	 32983	 25932	 42
3218	 32983	 25932	 42
3219	 32983	 25940	 42
3219	 32983	 25940	 42
3218	 32991	 25932	 42
3220	 32983	 25948	 42
3218	 32991	 25932	 42
3217	 32991	 25924	 42
3219	 32991	 25940	 42
3220	 32983	 25948	 42
3220	 32975	 25948	 42
3219	 32983	 25940	 42
3219	 32975	 25940	 42
3219	 32991	 25940	 42
3218	 32983	 25932	 42
3217	 32975	 25924	 42
3217	 32983	 25924	 42
3221	 32983	 25956	 42
3218	 32983	 25932	 42
3220	 32959	 25948	 42
3218	 32991	 25932	 42
3218	 32991	 25932	 42
3218	 32991	 25932	 42
3219	 32975	 25940	 42
3219	 32983	 25940	 42
3217	 32983	 25924	 42
3217	 32991	 25924	 42
3218	 32983	 25932	 42
3217	 32983	 25924	 42
3218	 32991	 25932	 42
3218	 32983	 25932	 42
3219	 32983	 25940	 42
3219	 32983	 25940	 42
3219	 32983	 25940	 42
3220	 32975	 25948	 42
3219	 32983	 25940	 42
3219	 32991	 25940	 42
3219	 32991	 25940	 42
3220	 32983	 25948	 42
3219	 32983	 25940	 42
3220	 32983	 25948	 42
3218	 32983	 25932	 42
3217	 32991	 25924	 42
3220	 32991	 25948	 42
3218	 32983	 25932	 42
3219	 32991	 25940	 42
3218	 32975	 25932	 42
3219	 32991	 25940	 42
3219	 32991	 25940	 42
3219	 32983	 25940	 42
3218	 32975	 25932	 42
3219	 32983	 25940	 42
3219	 32983	 25940	 42
3218	 32991	 25932	 42
3218	 32983	 25932	 42
3221	 32991	 25956	 42
3219	 32983	 25940	 42
3219	 32991	 25940	 42
3217	 32983	 25924	 42
3219	 32991	 25940	 42
3219	 32991	 25940	 42
3221	 32983	 25956	 42
3218	 32975	 25932	 42
3219	 32983	 25940	 42
3218	 32991	 25932	 42
3220	 32983	 25948	 42
3218	 32975	 25932	 42
3221	 32991	 25956	 42
3219	 32983	 25940	 42
3220	 32975	 25948	 42
3217	 32975	 25924	 42
3218	 32983	 25932	 42
3218	 32991	 25932	 42
3219	 32983	 25940	 42
3218	 32991	 25932	 42
3218	 32983	 25932	 42
3219	 32967	 25940	 42
3219	 32983	 25940	 42
3220	 32983	 25948	 42
3218	 32991	 25932	 42
3219	 32983	 25940	 42
3217	 32983	 25924	 42
3220	 32983	 25948	 42
3219	 32967	 25940	 42
3219	 32975	 25940	 42
3216	 32959	 25916	 42
3220	 32991	 25948	 42
3218	 32975	 25932	 42
3218	 32959	 25932	 42
3218	 32991	 25932	 42
3219	 32967	 25940	 42
3218	 32959	 25932	 42
3218	 32991	 25932	 42
3218	 32983	 25932	 42
3218	 32983	 25932	 42
3218	 32991	 25932	 42
3218	 32975	 25932	 42
3219	 32983	 25940	 42
3219	 32991	 25940	 42
3220	 32983	 25948	 42
3217	 32975	 25924	 42
3219	 32991	 25940	 42
3219	 32975	 25940	 42
3218	 32975	 25932	 42
3219	 32975	 25940	 42
3219	 33000	 25940	 42
3219	 32975	 25940	 42
3217	 32983	 25924	 42
3219	 32975	 25940	 42
3217	 32983	 25924	 42
3217	 32983	 25924	 42
3217	 32975	 25924	 42
3216	 32967	 25916	 42
3217	 32983	 25924	 42
3217	 32983	 25924	 42
3217	 32975	 25924	 42
3218	 32991	 25932	 42
3218	 32975	 25932	 42
3221	 32975	 25956	 42
3218	 32967	 25932	 42
3218	 32983	 25932	 42
3218	 32975	 25932	 42
3220	 32975	 25948	 42
3218	 32983	 25932	 42
3217	 32967	 25924	 42
3219	 32975	 25940	 42
3218	 32983	 25932	 42
3218	 32975	 25932	 42
3217	 32967	 25924	 42
3219	 32983	 25940	 42
3218	 32983	 25932	 42
3217	 32967	 25924	 42
3216	 32983	 25916	 42
3218	 32975	 25932	 42
3219	 32983	 25940	 42
3216	 32983	 25916	 42
3217	 32983	 25924	 42
3217	 32967	 25924	 42
3217	 32983	 25924	 42
3217	 32983	 25924	 42
3217	 32975	 25924	 42
3217	 32951	 25924	 42
3219	 32967	 25940	 42
3218	 32975	 25932	 42
3220	 32975	 25948	 42
3218	 32983	 25932	 42
3217	 32983	 25924	 42
3220	 32983	 25948	 42
3217	 32967	 25924	 42
3219	 32975	 25940	 42
3217	 32991	 25924	 42
3216	 32975	 25916	 42
3218	 32991	 25932	 42
3217	 32991	 25924	 42
3218	 32975	 25932	 42
3216	 32975	 25916	 42
3216	 32967	 25916	 42
3218	 32975	 25932	 42
3216	 32967	 25916	 42
3214	 32983	 25900	 42
3218	 32975	 25932	 42
3217	 32975	 25924	 42
3217	 32983	 25924	 42
3216	 32991	 25916	 42
3219	 32983	 25940	 42
3218	 32983	 25932	 42
3217	 32983	 25924	 42
3216	 32975	 25916	 42
3216	 32983	 25916	 42
3217	 32975	 25924	 42
3218	 32983	 25932	 42
3217	 32983	 25924	 42
3217	 32967	 25924	 42
3217	 32975	 25924	 42
3217	 32975	 25924	 42
3218	 32975	 25932	 42
3218	 32967	 25932	 42
3217	 32975	 25924	 42
3218	 32991	 25932	 42
3217	 32983	 25924	 42
3218	 32975	 25932	 42
3217	 32967	 25924	 42
3218	 32967	 25932	 42
3216	 32975	 25916	 42
3219	 32991	 25940	 42
3219	 32975	 25940	 42
3217	 32975	 25924	 42
3217	 32983	 25924	 42
3218	 32967	 25932	 42
3218	 32967	 25932	 42
3216	 32975	 25916	 42
3218	 32983	 25932	 42
3216	 32975	 25916	 42
3219	 32975	 25940	 42
3218	 32975	 25932	 42
3216	 32983	 25916	 42
3217	 32975	 25924	 42
3217	 32991	 25924	 42
3218	 32975	 25932	 42
3218	 32991	 25932	 42
3218	 32983	 25932	 42
3215	 32967	 25908	 42
3217	 32975	 25924	 42
3216	 32983	 25916	 42
3218	 32975	 25932	 42
3217	 32975	 25924	 42
3216	 32983	 25916	 42
3218	 32959	 25932	 42
3217	 32983	 25924	 42
3218	 32983	 25932	 42
3218	 32975	 25932	 42
3216	 32975	 25916	 42
3218	 32975	 25932	 42
3217	 32975	 25924	 42
3218	 32983	 25932	 42
3219	 32983	 25940	 42
3219	 32983	 25940	 42
