2778	 32991	 22386	 9
2779	 32967	 22394	 9
2778	 32967	 22386	 9
2777	 32975	 22378	 9
2777	 32983	 22378	 9
2779	 32967	 22394	 9
2778	 32967	 22386	 9
2778	 32983	 22386	 9
2779	 32967	 22394	 9
2779	 32983	 22394	 9
2779	 32983	 22394	 9
2778	 32975	 22386	 9
2777	 32983	 22378	 9
2780	 32983	 22402	 9
2778	 32975	 22386	 9
2778	 32967	 22386	 9
2780	 32991	 22402	 9
2779	 32919	 22394	 9
2778	 32959	 22386	 9
2779	 32975	 22394	 9
2778	 32975	 22386	 9
2778	 32991	 22386	 9
2779	 32959	 22394	 9
2780	 32967	 22402	 9
2779	 32983	 22394	 9
2778	 32975	 22386	 9
2779	 32975	 22394	 9
2778	 32991	 22386	 9
2780	 32975	 22402	 9
2778	 32983	 22386	 9
2779	 32991	 22394	 9
2778	 32983	 22386	 9
2779	 32975	 22394	 9
2778	 32983	 22386	 9
2779	 32975	 22394	 9
2778	 32983	 22386	 9
2780	 32975	 22402	 9
2778	 32991	 22386	 9
2780	 32983	 22402	 9
2779	 32983	 22394	 9
2779	 32975	 22394	 9
2778	 32983	 22386	 9
2779	 32983	 22394	 9
2778	 32983	 22386	 9
2779	 32983	 22394	 9
2778	 32991	 22386	 9
2779	 32991	 22394	 9
2779	 32983	 22394	 9
2778	 32983	 22386	 9
2778	 32991	 22386	 9
2779	 32975	 22394	 9
2779	 32975	 22394	 9
2779	 32983	 22394	 9
2779	 32983	 22394	 9
2779	 32983	 22394	 9
2780	 32983	 22402	 9
2780	 32983	 22402	 9
2778	 32975	 22386	 9
2780	 32983	 22402	 9
2779	 32983	 22394	 9
2778	 32983	 22386	 9
2780	 32983	 22402	 9
2779	 32983	 22394	 9
2779	 32991	 22394	 9
2779	 32983	 22394	 9
2779	 32975	 22394	 9
2779	 32983	 22394	 9
2779	 32991	 22394	 9
2779	 32975	 22394	 9
2778	 32975	 22386	 9
2779	 32983	 22394	 9
2779	 32983	 22394	 9
2779	 32983	 22394	 9
2781	 32983	 22410	 9
2780	 32983	 22402	 9
2779	 32991	 22394	 9
2779	 32983	 22394	 9
2780	 32983	 22402	 9
2779	 32975	 22394	 9
2780	 32975	 22402	 9
2778	 32983	 22386	 9
2779	 32991	 22394	 9
2779	 32983	 22394	 9
2778	 32983	 22386	 9
2780	 32983	 22402	 9
2779	 32983	 22394	 9
2779	 32983	 22394	 9
2775	 32983	 22362	 9
2779	 32983	 22394	 9
2779	 32983	 22394	 9
2779	 32983	 22394	 9
2779	 32983	 22394	 9
2779	 32991	 22394	 9
2779	 32991	 22394	 9
2779	 32983	 22394	 9
2778	 33000	 22386	 9
2778	 32983	 22386	 9
2779	 32983	 22394	 9
2779	 32983	 22394	 9
2779	 32975	 22394	 9
2780	 32983	 22402	 9
2778	 32983	 22386	 9
2778	 32983	 22386	 9
2777	 32975	 22378	 9
2778	 32991	 22386	 9
2780	 32975	 22402	 9
2778	 32975	 22386	 9
2780	 32983	 22402	 9
2779	 32991	 22394	 9
2778	 32983	 22386	 9
2777	 32983	 22378	 9
2777	 32975	 22378	 9
2778	 32983	 22386	 9
2778	 32983	 22386	 9
2778	 32983	 22386	 9
2778	 32991	 22386	 9
2779	 32991	 22394	 9
2775	 32967	 22362	 9
2778	 32983	 22386	 9
2777	 32983	 22378	 9
2776	 32975	 22370	 9
2778	 32991	 22386	 9
2777	 32983	 22378	 9
2777	 32983	 22378	 9
2778	 32983	 22386	 9
2777	 32975	 22378	 9
2776	 32983	 22370	 9
2777	 32975	 22378	 9
2778	 32975	 22386	 9
2778	 32975	 22386	 9
2777	 32983	 22378	 9
2778	 32975	 22386	 9
2777	 32975	 22378	 9
2779	 32967	 22394	 9
2778	 32975	 22386	 9
2778	 32983	 22386	 9
2777	 32975	 22378	 9
2778	 32983	 22386	 9
2777	 32975	 22378	 9
2775	 32975	 22362	 9
2778	 32983	 22386	 9
2778	 32975	 22386	 9
2776	 32983	 22370	 9
2777	 32983	 22378	 9
2775	 32975	 22362	 9
2779	 32967	 22394	 9
2778	 32967	 22386	 9
2777	 32975	 22378	 9
2779	 32991	 22394	 9
2778	 32983	 22386	 9
2777	 32975	 22378	 9
2777	 32975	 22378	 9
2777	 32983	 22378	 9
2777	 32991	 22378	 9
2777	 32991	 22378	 9
2777	 32975	 22378	 9
2776	 32975	 22370	 9
2778	 32975	 22386	 9
2776	 32983	 22370	 9
2778	 32959	 22386	 9
2777	 32959	 22378	 9
2776	 32967	 22370	 9
2777	 32975	 22378	 9
2775	 32967	 22362	 9
2778	 32975	 22386	 9
2777	 32967	 22378	 9
2777	 32967	 22378	 9
2777	 32967	 22378	 9
2777	 32983	 22378	 9
2778	 32983	 22386	 9
2778	 32983	 22386	 9
2778	 32983	 22386	 9
2777	 32975	 22378	 9
2777	 32975	 22378	 9
2777	 32983	 22378	 9
2777	 32991	 22378	 9
2777	 32967	 22378	 9
2778	 32991	 22386	 9
2779	 32983	 22394	 9
2779	 32983	 22394	 9
2777	 32991	 22378	 9
2779	 32975	 22394	 9
2778	 32967	 22386	 9
2777	 32967	 22378	 9
2778	 32983	 22386	 9
2777	 32983	 22378	 9
2775	 32983	 22362	 9
2777	 32983	 22378	 9
2779	 32975	 22394	 9
2777	 32983	 22378	 9
2778	 32975	 22386	 9
2779	 32991	 22394	 9
2777	 32975	 22378	 9
2779	 32983	 22394	 9
2779	 32991	 22394	 9
2779	 32975	 22394	 9
2779	 32983	 22394	 9
2776	 32975	 22370	 9
2779	 32983	 22394	 9
2780	 32983	 22402	 9
2777	 32983	 22378	 9
2778	 32983	 22386	 9
2779	 32983	 22394	 9
2779	 32991	 22394	 9
2778	 32983	 22386	 9
2780	 32991	 22402	 9
2779	 32991	 22394	 9
2778	 32991	 22386	 9
2778	 32975	 22386	 9
2777	 32983	 22378	 9
2778	 32983	 22386	 9
2781	 32967	 22410	 9
2777	 32983	 22378	 9
2780	 32983	 22402	 9
2778	 32983	 22386	 9
2777	 32983	 22378	 9
2779	 32991	 22394	 9
2778	 32983	 22386	 9
2779	 32983	 22394	 9
2778	 32983	 22386	 9
2777	 32983	 22378	 9
2778	 32991	 22386	 9
2778	 32975	 22386	 9
2779	 32991	 22394	 9
2777	 32991	 22378	 9
2779	 32983	 22394	 9
2777	 32983	 22378	 9
2778	 32983	 22386	 9
2779	 32975	 22394	 9
2777	 32991	 22378	 9
2778	 32983	 22386	 9
2777	 32983	 22378	 9
2778	 32975	 22386	 9
2779	 32991	 22394	 9
2779	 32991	 22394	 9
2778	 32983	 22386	 9
2776	 32983	 22370	 9
2778	 32959	 22386	 9
2779	 32983	 22394	 9
2778	 32983	 22386	 9
2776	 32967	 22370	 9
2778	 32983	 22386	 9
2778	 32975	 22386	 9
2779	 32983	 22394	 9
2777	 32991	 22378	 9
2775	 32983	 22362	 9
2776	 32983	 22370	 9
2776	 32991	 22370	 9
2778	 32975	 22386	 9
2778	 32983	 22386	 9
2777	 32983	 22378	 9
2777	 32983	 22378	 9
2776	 32983	 22370	 9
2777	 32975	 22378	 9
2777	 32967	 22378	 9
2778	 32991	 22386	 9
2777	 32959	 22378	 9
2777	 32967	 22378	 9
2777	 32983	 22378	 9
2776	 32967	 22370	 9
2776	 32967	 22370	 9
2776	 32975	 22370	 9
2777	 32983	 22378	 9
2776	 32975	 22370	 9
2777	 32975	 22378	 9
2776	 32975	 22370	 9
2777	 32975	 22378	 9
2777	 32959	 22378	 9
2776	 32983	 22370	 9
2776	 32967	 22370	 9
2776	 32967	 22370	 9
2776	 32983	 22370	 9
2776	 32991	 22370	 9
2776	 32975	 22370	 9
2777	 32975	 22378	 9
2776	 32983	 22370	 9
2777	 32975	 22378	 9
2776	 32983	 22370	 9
2776	 32975	 22370	 9
2776	 32975	 22370	 9
2774	 32991	 22354	 9
2777	 32967	 22378	 9
2777	 32959	 22378	 9
2777	 32975	 22378	 9
2776	 32975	 22370	 9
2776	 32967	 22370	 9
2777	 32967	 22378	 9
2777	 32983	 22378	 9
2776	 32983	 22370	 9
2776	 32983	 22370	 9
2777	 32967	 22378	 9
2775	 32975	 22362	 9
2775	 32983	 22362	 9
2776	 32967	 22370	 9
2776	 32975	 22370	 9
2777	 32983	 22378	 9
2776	 32983	 22370	 9
2776	 32967	 22370	 9
2776	 32975	 22370	 9
2775	 32967	 22362	 9
2775	 32967	 22362	 9
2773	 32983	 22346	 9
2775	 32975	 22362	 9
2775	 32983	 22362	 9
2776	 32991	 22370	 9
2776	 32975	 22370	 9
2775	 32975	 22362	 9
2776	 32975	 22370	 9
2776	 32983	 22370	 9
2776	 32983	 22370	 9
2775	 32975	 22362	 9
2775	 32983	 22362	 9
2776	 32975	 22370	 9
2777	 32983	 22378	 9
2776	 32983	 22370	 9
2778	 32975	 22386	 9
2776	 32975	 22370	 9
2778	 32983	 22386	 9
2778	 32975	 22386	 9
2777	 32983	 22378	 9
2777	 32975	 22378	 9
2777	 32983	 22378	 9
2777	 32975	 22378	 9
2777	 32991	 22378	 9
2775	 32983	 22362	 9
2775	 32959	 22362	 9
2778	 32975	 22386	 9
2778	 32983	 22386	 9
2778	 32983	 22386	 9
2779	 32991	 22394	 9
2776	 32975	 22370	 9
2776	 32983	 22370	 9
2777	 32975	 22378	 9
2777	 32975	 22378	 9
2777	 32975	 22378	 9
2776	 32983	 22370	 9
2776	 32983	 22370	 9
2777	 32975	 22378	 9
2776	 32967	 22370	 9
2778	 32991	 22386	 9
2778	 32975	 22386	 9
2776	 32967	 22370	 9
2777	 32983	 22378	 9
2777	 32975	 22378	 9
2778	 32983	 22386	 9
2777	 32983	 22378	 9
2778	 32991	 22386	 9
2778	 32991	 22386	 9
2778	 32983	 22386	 9
2776	 32983	 22370	 9
2776	 32991	 22370	 9
2778	 32983	 22386	 9
2776	 32975	 22370	 9
2778	 32991	 22386	 9
2775	 32983	 22362	 9
2776	 32983	 22370	 9
2776	 32983	 22370	 9
2777	 32983	 22378	 9
2778	 32983	 22386	 9
2777	 32983	 22378	 9
2778	 33000	 22386	 9
2777	 32975	 22378	 9
2778	 32983	 22386	 9
2777	 32983	 22378	 9
2777	 32983	 22378	 9
2777	 32975	 22378	 9
2778	 32991	 22386	 9
2774	 32991	 22354	 9
2777	 32983	 22378	 9
2777	 32991	 22378	 9
2778	 32983	 22386	 9
2778	 32975	 22386	 9
2778	 32983	 22386	 9
2777	 32983	 22378	 9
2778	 32983	 22386	 9
2778	 32983	 22386	 9
2776	 32991	 22370	 9
2778	 32991	 22386	 9
2775	 33000	 22362	 9
2776	 32983	 22370	 9
2777	 32991	 22378	 9
2777	 32975	 22378	 9
2777	 32975	 22378	 9
2776	 32983	 22370	 9
2777	 32983	 22378	 9
2777	 32975	 22378	 9
2777	 32919	 22378	 9
2777	 32983	 22378	 9
2779	 32983	 22394	 9
2778	 32983	 22386	 9
2776	 32967	 22370	 9
2777	 32983	 22378	 9
2777	 32983	 22378	 9
2777	 32975	 22378	 9
2777	 32983	 22378	 9
2777	 32983	 22378	 9
2776	 32983	 22370	 9
2778	 32983	 22386	 9
2776	 32983	 22370	 9
2775	 32975	 22362	 9
2774	 32975	 22354	 9
2773	 32983	 22346	 9
2775	 32959	 22362	 9
2776	 32975	 22370	 9
2776	 32983	 22370	 9
2777	 32967	 22378	 9
2776	 32975	 22370	 9
2776	 32983	 22370	 9
2775	 32983	 22362	 9
2775	 32959	 22362	 9
2775	 32983	 22362	 9
2778	 32975	 22386	 9
2775	 32967	 22362	 9
2778	 32967	 22386	 9
2775	 32983	 22362	 9
2775	 32975	 22362	 9
2776	 32983	 22370	 9
2776	 32967	 22370	 9
2775	 32983	 22362	 9
2776	 32983	 22370	 9
2774	 32967	 22354	 9
2775	 32959	 22362	 9
2775	 32983	 22362	 9
2776	 32983	 22370	 9
2775	 32967	 22362	 9
2776	 32975	 22370	 9
2777	 32983	 22378	 9
2776	 32975	 22370	 9
2774	 32959	 22354	 9
2774	 32967	 22354	 9
2775	 32967	 22362	 9
2775	 32967	 22362	 9
2776	 32959	 22370	 9
2775	 32959	 22362	 9
2776	 32983	 22370	 9
2775	 32983	 22362	 9
2777	 32983	 22378	 9
2776	 32959	 22370	 9
2776	 32975	 22370	 9
2775	 32983	 22362	 9
2776	 32983	 22370	 9
2776	 32975	 22370	 9
2775	 32983	 22362	 9
2775	 32983	 22362	 9
2777	 32975	 22378	 9
2775	 32983	 22362	 9
2777	 32983	 22378	 9
2777	 32975	 22378	 9
2776	 32975	 22370	 9
2777	 32967	 22378	 9
2777	 32951	 22378	 9
2776	 32975	 22370	 9
2776	 32983	 22370	 9
2776	 32983	 22370	 9
2778	 32991	 22386	 9
2776	 32983	 22370	 9
2778	 32991	 22386	 9
2776	 32975	 22370	 9
2776	 32983	 22370	 9
2776	 32959	 22370	 9
2776	 32983	 22370	 9
2777	 32975	 22378	 9
2776	 32991	 22370	 9
2776	 32983	 22370	 9
2776	 32975	 22370	 9
2777	 32967	 22378	 9
2776	 32983	 22370	 9
2776	 32983	 22370	 9
2776	 32975	 22370	 9
2776	 32967	 22370	 9
2777	 32991	 22378	 9
2776	 32975	 22370	 9
2775	 32983	 22362	 9
2778	 32975	 22386	 9
2777	 32991	 22378	 9
2779	 33000	 22394	 9
2775	 32991	 22362	 9
2778	 32991	 22386	 9
2776	 32983	 22370	 9
2777	 32983	 22378	 9
2777	 32975	 22378	 9
2776	 32983	 22370	 9
2777	 33000	 22378	 9
2777	 32991	 22378	 9
2778	 32991	 22386	 9
2777	 32991	 22378	 9
2777	 32991	 22378	 9
2777	 32975	 22378	 9
2777	 32991	 22378	 9
2778	 32983	 22386	 9
2776	 32983	 22370	 9
2776	 32983	 22370	 9
2777	 32983	 22378	 9
2777	 32975	 22378	 9
2777	 32991	 22378	 9
2779	 32991	 22394	 9
2776	 32991	 22370	 9
2776	 32983	 22370	 9
2776	 32991	 22370	 9
2776	 32983	 22370	 9
2777	 32983	 22378	 9
2775	 32983	 22362	 9
2777	 32983	 22378	 9
2776	 32967	 22370	 9
2777	 32983	 22378	 9
2776	 32983	 22370	 9
2777	 32983	 22378	 9
2777	 32991	 22378	 9
2777	 32975	 22378	 9
2776	 32983	 22370	 9
2776	 32991	 22370	 9
2778	 32983	 22386	 9
2776	 32991	 22370	 9
2777	 32991	 22378	 9
2778	 32983	 22386	 9
2777	 32975	 22378	 9
2777	 32975	 22378	 9
2777	 32967	 22378	 9
2776	 32991	 22370	 9
2777	 32975	 22378	 9
2776	 32967	 22370	 9
2776	 32975	 22370	 9
2776	 32983	 22370	 9
2776	 32991	 22370	 9
2777	 32991	 22378	 9
2777	 32967	 22378	 9
2775	 32975	 22362	 9
2776	 32983	 22370	 9
2778	 32975	 22386	 9
2776	 32975	 22370	 9
2776	 32975	 22370	 9
2776	 32983	 22370	 9
2777	 32983	 22378	 9
2776	 32975	 22370	 9
2775	 32983	 22362	 9
2775	 32983	 22362	 9
2777	 32975	 22378	 9
2775	 32991	 22362	 9
2774	 32975	 22354	 9
2776	 32983	 22370	 9
2773	 32983	 22346	 9
2777	 32983	 22378	 9
2776	 32983	 22370	 9
2775	 32967	 22362	 9
2775	 32975	 22362	 9
2776	 32975	 22370	 9
2776	 32983	 22370	 9
2775	 32967	 22362	 9
2776	 32975	 22370	 9
2776	 32975	 22370	 9
2776	 32983	 22370	 9
2777	 32975	 22378	 9
2775	 32975	 22362	 9
2773	 32975	 22346	 9
2776	 32975	 22370	 9
2776	 32975	 22370	 9
2775	 32975	 22362	 9
2777	 32983	 22378	 9
2776	 32983	 22370	 9
2774	 32983	 22354	 9
2776	 32975	 22370	 9
2776	 32983	 22370	 9
2777	 32975	 22378	 9
2776	 32975	 22370	 9
2775	 32983	 22362	 9
2775	 32967	 22362	 9
2776	 32967	 22370	 9
2774	 32975	 22354	 9
2775	 32967	 22362	 9
2776	 32975	 22370	 9
2775	 32983	 22362	 9
2777	 32975	 22378	 9
2776	 32951	 22370	 9
2773	 32975	 22346	 9
2775	 32959	 22362	 9
2774	 32967	 22354	 9
2775	 32967	 22362	 9
2775	 32975	 22362	 9
2775	 32975	 22362	 9
2775	 32959	 22362	 9
2774	 32975	 22354	 9
2775	 32975	 22362	 9
2776	 32983	 22370	 9
2775	 32983	 22362	 9
2775	 32983	 22362	 9
2773	 32975	 22346	 9
2777	 32975	 22378	 9
2775	 32975	 22362	 9
2775	 32975	 22362	 9
2775	 32983	 22362	 9
2774	 32983	 22354	 9
2775	 32967	 22362	 9
2775	 32975	 22362	 9
2777	 32975	 22378	 9
2775	 32983	 22362	 9
2776	 32983	 22370	 9
2775	 32967	 22362	 9
2776	 32967	 22370	 9
2775	 32983	 22362	 9
2776	 32975	 22370	 9
2778	 32983	 22386	 9
2777	 32983	 22378	 9
2776	 32983	 22370	 9
2776	 32975	 22370	 9
2776	 32983	 22370	 9
2777	 32983	 22378	 9
2776	 32983	 22370	 9
2775	 32983	 22362	 9
2775	 32959	 22362	 9
2777	 32975	 22378	 9
2778	 32975	 22386	 9
2777	 32991	 22378	 9
2778	 32983	 22386	 9
2776	 32991	 22370	 9
2775	 32983	 22362	 9
2776	 32983	 22370	 9
2778	 32967	 22386	 9
2776	 32983	 22370	 9
2776	 32967	 22370	 9
2776	 32983	 22370	 9
2775	 32983	 22362	 9
2776	 32991	 22370	 9
2777	 32983	 22378	 9
2778	 32983	 22386	 9
2779	 32991	 22394	 9
2777	 32991	 22378	 9
2778	 32983	 22386	 9
2776	 32991	 22370	 9
2777	 32991	 22378	 9
2777	 32991	 22378	 9
2777	 32983	 22378	 9
2777	 32983	 22378	 9
2777	 32991	 22378	 9
2776	 32991	 22370	 9
2777	 32991	 22378	 9
2775	 32975	 22362	 9
2778	 32991	 22386	 9
2778	 32991	 22386	 9
2776	 32983	 22370	 9
2777	 32991	 22378	 9
2777	 32991	 22378	 9
2776	 32991	 22370	 9
2772	 32983	 22338	 9
2775	 32991	 22362	 9
2774	 32975	 22354	 9
2777	 32983	 22378	 9
2778	 32983	 22386	 9
2776	 32983	 22370	 9
2777	 33000	 22378	 9
2777	 32983	 22378	 9
2776	 32975	 22370	 9
2777	 32983	 22378	 9
2777	 32991	 22378	 9
2777	 32983	 22378	 9
2778	 32991	 22386	 9
2776	 32983	 22370	 9
2776	 32983	 22370	 9
2776	 32975	 22370	 9
2773	 32991	 22346	 9
2778	 32991	 22386	 9
2776	 32991	 22370	 9
2775	 32983	 22362	 9
2776	 32975	 22370	 9
2777	 32983	 22378	 9
2777	 32983	 22378	 9
2776	 32983	 22370	 9
2775	 32991	 22362	 9
2775	 32983	 22362	 9
2776	 32991	 22370	 9
2774	 32975	 22354	 9
2777	 32983	 22378	 9
2777	 32983	 22378	 9
2776	 32967	 22370	 9
2776	 32983	 22370	 9
2773	 32991	 22346	 9
2776	 32983	 22370	 9
2776	 32991	 22370	 9
2775	 32975	 22362	 9
2774	 32983	 22354	 9
2775	 32967	 22362	 9
2777	 32983	 22378	 9
2776	 32991	 22370	 9
2776	 32975	 22370	 9
2775	 32975	 22362	 9
2776	 32975	 22370	 9
2775	 32975	 22362	 9
2775	 32967	 22362	 9
2776	 32975	 22370	 9
2775	 32975	 22362	 9
2776	 32975	 22370	 9
2776	 32975	 22370	 9
2775	 32975	 22362	 9
2775	 32967	 22362	 9
2777	 32975	 22378	 9
2776	 32967	 22370	 9
2776	 32975	 22370	 9
2775	 32975	 22362	 9
2775	 32983	 22362	 9
2777	 32983	 22378	 9
2775	 32975	 22362	 9
2774	 32983	 22354	 9
2776	 32983	 22370	 9
2775	 32975	 22362	 9
2773	 32983	 22346	 9
2776	 32975	 22370	 9
2775	 32975	 22362	 9
2776	 32975	 22370	 9
2776	 32959	 22370	 9
2776	 32975	 22370	 9
2774	 32975	 22354	 9
2775	 32975	 22362	 9
2775	 32991	 22362	 9
2774	 32967	 22354	 9
2774	 32983	 22354	 9
2776	 32975	 22370	 9
2774	 32967	 22354	 9
2775	 32967	 22362	 9
2774	 32983	 22354	 9
2775	 32975	 22362	 9
2775	 32983	 22362	 9
2775	 32975	 22362	 9
2777	 32975	 22378	 9
2772	 32991	 22338	 9
2775	 32959	 22362	 9
2775	 32983	 22362	 9
2776	 32983	 22370	 9
2775	 32983	 22362	 9
2776	 32975	 22370	 9
2777	 32975	 22378	 9
2775	 32975	 22362	 9
2775	 32983	 22362	 9
2775	 32975	 22362	 9
2775	 32975	 22362	 9
2775	 32975	 22362	 9
2775	 32967	 22362	 9
2775	 32975	 22362	 9
2776	 32975	 22370	 9
2776	 32959	 22370	 9
2772	 32983	 22338	 9
2772	 32975	 22338	 9
2776	 32983	 22370	 9
2775	 32983	 22362	 9
2775	 32975	 22362	 9
2776	 32975	 22370	 9
2777	 32975	 22378	 9
2775	 32967	 22362	 9
2776	 32983	 22370	 9
2773	 32975	 22346	 9
2776	 32975	 22370	 9
2775	 32983	 22362	 9
2776	 32975	 22370	 9
2774	 32975	 22354	 9
2776	 32895	 22370	 9
2776	 32983	 22370	 9
2775	 32991	 22362	 9
2776	 32967	 22370	 9
2777	 32983	 22378	 9
2776	 32983	 22370	 9
2776	 32975	 22370	 9
2776	 32975	 22370	 9
2777	 32983	 22378	 9
2776	 32967	 22370	 9
2777	 32983	 22378	 9
2777	 32975	 22378	 9
2777	 32975	 22378	 9
2777	 32975	 22378	 9
2776	 32991	 22370	 9
2776	 32975	 22370	 9
2774	 32991	 22354	 9
2777	 32983	 22378	 9
2775	 32975	 22362	 9
2777	 32975	 22378	 9
2777	 32991	 22378	 9
2777	 32967	 22378	 9
2773	 32983	 22346	 9
2777	 32983	 22378	 9
2777	 32983	 22378	 9
2778	 32983	 22386	 9
2776	 32983	 22370	 9
2778	 32975	 22386	 9
2778	 32983	 22386	 9
2778	 32983	 22386	 9
2776	 32975	 22370	 9
2777	 32991	 22378	 9
2775	 32983	 22362	 9
2776	 32967	 22370	 9
2778	 32991	 22386	 9
2776	 32983	 22370	 9
2776	 32983	 22370	 9
2777	 32991	 22378	 9
2776	 32983	 22370	 9
2776	 32983	 22370	 9
2777	 32983	 22378	 9
2777	 32983	 22378	 9
2777	 32983	 22378	 9
2776	 32991	 22370	 9
2777	 32983	 22378	 9
2776	 32975	 22370	 9
2776	 32991	 22370	 9
2777	 32991	 22378	 9
2776	 32983	 22370	 9
2778	 33000	 22386	 9
2777	 32983	 22378	 9
2777	 32983	 22378	 9
2777	 32983	 22378	 9
2776	 32975	 22370	 9
2776	 32975	 22370	 9
2774	 32975	 22354	 9
2776	 32991	 22370	 9
2776	 32983	 22370	 9
2777	 32991	 22378	 9
2776	 32991	 22370	 9
2775	 32991	 22362	 9
2777	 32991	 22378	 9
2777	 32975	 22378	 9
2777	 32975	 22378	 9
2775	 32991	 22362	 9
2777	 32991	 22378	 9
2776	 32983	 22370	 9
2776	 32991	 22370	 9
2777	 32991	 22378	 9
2776	 32975	 22370	 9
2776	 32975	 22370	 9
2777	 32983	 22378	 9
2776	 32991	 22370	 9
2773	 32975	 22346	 9
2775	 32991	 22362	 9
2776	 32983	 22370	 9
2776	 32983	 22370	 9
2776	 32975	 22370	 9
2776	 32975	 22370	 9
2776	 32983	 22370	 9
2775	 32983	 22362	 9
2776	 32983	 22370	 9
2775	 32991	 22362	 9
2773	 32991	 22346	 9
2777	 32975	 22378	 9
2776	 32967	 22370	 9
2776	 32983	 22370	 9
2777	 32983	 22378	 9
2776	 32983	 22370	 9
2775	 32975	 22362	 9
2775	 32967	 22362	 9
2775	 32967	 22362	 9
2776	 32983	 22370	 9
2776	 32975	 22370	 9
2774	 32967	 22354	 9
2776	 32975	 22370	 9
2775	 32967	 22362	 9
2776	 32967	 22370	 9
2776	 32983	 22370	 9
2775	 32967	 22362	 9
2774	 32983	 22354	 9
2775	 32983	 22362	 9
2775	 32967	 22362	 9
2775	 32975	 22362	 9
2775	 32983	 22362	 9
2775	 32975	 22362	 9
2777	 32975	 22378	 9
2775	 32975	 22362	 9
2773	 32959	 22346	 9
2774	 32975	 22354	 9
2774	 32983	 22354	 9
2774	 32975	 22354	 9
2775	 32975	 22362	 9
2775	 32983	 22362	 9
2775	 32975	 22362	 9
2775	 32983	 22362	 9
2775	 32975	 22362	 9
2776	 32983	 22370	 9
2774	 32975	 22354	 9
2775	 32983	 22362	 9
2775	 32975	 22362	 9
2775	 32967	 22362	 9
2773	 32975	 22346	 9
2775	 32983	 22362	 9
2774	 32983	 22354	 9
2775	 32983	 22362	 9
2774	 32991	 22354	 9
2776	 32975	 22370	 9
2775	 32975	 22362	 9
2775	 32959	 22362	 9
2776	 32975	 22370	 9
2775	 32983	 22362	 9
2775	 32975	 22362	 9
2777	 32967	 22378	 9
2775	 32983	 22362	 9
2776	 32975	 22370	 9
2774	 32975	 22354	 9
2774	 32967	 22354	 9
2776	 32983	 22370	 9
2776	 32983	 22370	 9
2776	 32991	 22370	 9
2776	 32983	 22370	 9
2775	 32991	 22362	 9
2775	 32975	 22362	 9
2776	 32975	 22370	 9
2776	 32991	 22370	 9
2774	 32983	 22354	 9
2774	 32991	 22354	 9
2775	 32975	 22362	 9
2773	 32991	 22346	 9
2777	 32983	 22378	 9
2778	 32975	 22386	 9
2777	 32991	 22378	 9
2778	 32983	 22386	 9
2775	 32983	 22362	 9
2774	 32983	 22354	 9
2777	 32975	 22378	 9
2777	 32983	 22378	 9
2774	 32975	 22354	 9
2776	 32959	 22370	 9
2775	 32975	 22362	 9
2775	 32975	 22362	 9
2775	 32975	 22362	 9
2776	 32983	 22370	 9
2775	 32975	 22362	 9
2775	 32967	 22362	 9
2773	 32983	 22346	 9
2776	 32983	 22370	 9
2778	 32959	 22386	 9
2776	 32967	 22370	 9
2776	 32991	 22370	 9
2777	 32975	 22378	 9
2776	 32975	 22370	 9
2775	 32983	 22362	 9
2775	 32991	 22362	 9
2777	 32983	 22378	 9
2778	 32991	 22386	 9
2777	 32991	 22378	 9
2776	 32991	 22370	 9
2776	 32975	 22370	 9
2777	 32991	 22378	 9
2776	 32975	 22370	 9
2775	 32983	 22362	 9
2777	 32983	 22378	 9
2776	 32991	 22370	 9
2776	 32983	 22370	 9
2776	 32983	 22370	 9
2777	 32975	 22378	 9
2777	 32983	 22378	 9
2777	 32991	 22378	 9
2777	 32991	 22378	 9
2777	 32991	 22378	 9
2777	 32983	 22378	 9
2776	 32975	 22370	 9
2776	 32943	 22370	 9
2777	 32991	 22378	 9
2777	 32975	 22378	 9
2777	 32983	 22378	 9
2776	 32983	 22370	 9
2777	 32983	 22378	 9
2777	 32991	 22378	 9
2776	 32983	 22370	 9
2776	 32983	 22370	 9
2778	 32975	 22386	 9
2776	 32991	 22370	 9
2778	 32991	 22386	 9
2775	 32983	 22362	 9
2775	 32991	 22362	 9
2777	 32983	 22378	 9
2776	 32975	 22370	 9
2776	 32983	 22370	 9
2777	 32975	 22378	 9
2775	 32991	 22362	 9
2775	 32983	 22362	 9
2775	 32983	 22362	 9
2775	 32983	 22362	 9
2774	 32991	 22354	 9
2776	 32983	 22370	 9
2774	 32991	 22354	 9
2775	 32991	 22362	 9
2776	 32991	 22370	 9
2774	 32983	 22354	 9
2775	 32991	 22362	 9
2776	 32983	 22370	 9
2775	 32967	 22362	 9
2777	 32975	 22378	 9
2777	 32975	 22378	 9
2774	 32991	 22354	 9
2776	 32967	 22370	 9
2776	 32983	 22370	 9
2777	 32983	 22378	 9
2777	 32983	 22378	 9
2774	 32975	 22354	 9
2777	 32975	 22378	 9
2776	 32983	 22370	 9
2773	 32975	 22346	 9
2776	 32991	 22370	 9
2776	 32975	 22370	 9
2776	 32967	 22370	 9
2777	 32975	 22378	 9
2776	 32983	 22370	 9
2774	 32983	 22354	 9
2774	 32959	 22354	 9
2776	 32975	 22370	 9
2775	 32975	 22362	 9
2775	 32983	 22362	 9
2775	 32983	 22362	 9
2776	 32975	 22370	 9
