32983
32975
32967
32975
32975
32983
32975
32975
32983
32983
32983
32975
32991
32975
32975
32991
32967
32983
32991
32983
32991
32983
32983
32975
32983
32975
32975
32975
32983
32983
32983
32991
32983
32967
32991
32983
32983
32991
32975
32983
32983
32991
32983
32975
32983
32991
32983
32983
32983
32983
32991
32991
32983
32983
32991
32991
32975
32983
32991
32975
32983
32967
32983
32975
32991
32991
32991
32991
32991
32983
32983
32975
32983
32983
32983
33000
32991
32975
32991
32983
32991
32975
32975
32991
32983
32983
32983
32983
32967
32991
32991
32967
32991
32991
32991
32983
32991
32991
32975
32983
32975
32983
32983
32975
32975
32991
32983
32991
32975
32967
32983
32991
32983
32975
32983
32983
32983
32991
32983
32983
32983
32983
32983
32975
32975
32975
32983
32983
32975
32991
32967
32983
32967
32983
32975
32983
32975
32975
32967
32983
32983
32975
32975
32975
32975
32983
32983
32991
32975
32967
32991
32991
32983
32975
32975
32975
32983
32967
32983
32975
32991
32975
32975
32983
32983
32983
32975
32983
32983
32983
32975
32967
32983
32983
32967
32975
32975
32975
32967
32975
32959
32983
32975
32983
32975
32959
32967
32975
32983
32975
32975
32967
32975
32975
32967
32975
32983
32975
32967
32975
32975
32991
32967
32959
32975
32975
32975
32959
32975
32983
32975
32983
32959
32967
32975
32983
32983
32951
32975
32959
32967
32967
32967
32975
32975
32967
32975
32967
32967
32983
32983
32975
32975
32983
32975
32975
32975
32959
32975
32967
32967
32975
32975
32975
32967
32967
32967
32975
32975
32967
32975
32959
32975
32983
32975
32975
32967
32983
32975
32983
32967
32975
32983
32975
32983
32975
32975
32975
32975
32975
32975
32983
32983
32983
32967
32983
32983
32983
32983
32967
32983
32983
32975
32983
32983
32991
32975
32975
32975
32975
32983
32975
32983
32983
32991
32975
32975
32991
32967
32983
32983
32983
32959
32983
32983
32975
32975
32983
32983
32991
32975
32983
32991
32991
32991
32983
32983
32983
32991
32983
32991
32983
32991
32983
32983
32991
32983
32991
32983
32983
32983
32983
32983
32991
32991
32983
32975
32991
32975
32967
32967
32991
32991
32991
32983
32983
32991
32991
32975
32991
32983
32983
32991
32991
32975
32991
32983
32975
32983
32991
32975
32983
32991
32983
32983
32983
32983
32983
32983
32991
32983
32983
32991
32983
32959
32983
32983
32983
32983
32991
32983
32983
32975
32991
32991
32983
32983
32983
32983
32983
32967
32975
32991
32991
32991
32991
32983
32991
32991
32983
32983
32975
32983
32967
32983
32975
32991
32983
32983
32967
32967
32991
32975
32975
32975
32983
32975
32983
32967
32991
32975
32983
32967
32983
32967
32975
32975
32983
32959
32975
32967
32967
32983
32975
32975
32967
32951
32983
32967
32983
32975
32983
32959
32975
32983
32983
32983
32975
32967
32975
32975
32991
32983
32983
32983
32983
32983
32983
32991
32975
32975
32975
32967
32975
32983
32983
32975
32975
32959
32975
32983
32983
32983
32983
32975
32983
32983
32975
32991
32975
32983
32975
32959
32983
32967
32975
32983
32983
32975
32983
32983
32975
32983
32983
32975
32991
32975
32983
32975
32983
32967
32975
32975
32983
32967
32975
32983
32967
32959
32967
32967
32967
32967
32975
32967
32975
32951
32951
32983
32967
32983
32967
32975
32983
32959
32983
32967
32959
32967
32959
32983
32967
32967
32951
32975
32951
32975
32975
32983
32983
32967
32991
32983
32975
32967
32983
32975
32975
32959
32959
32983
32967
32991
32983
32975
32983
32967
32983
32967
32975
32983
32967
32975
32975
32983
32967
32967
32967
32975
32975
32983
32975
32983
32975
32983
32983
32991
32967
32983
32983
32967
32983
32975
32983
32967
32975
32959
32983
32983
32951
32983
32983
32983
32991
32983
32975
32975
32959
32983
32959
32975
32983
32951
32975
32967
32975
32975
32991
32975
32991
32983
32983
32983
32967
32975
32975
32975
32967
32951
32975
32983
32967
32983
32967
32983
32967
32975
32967
32983
32975
32975
32975
32967
32975
32983
32983
32975
32983
32983
32991
32975
32983
32983
32975
32991
32983
32975
32983
32975
32983
32983
32991
32975
32983
32983
32983
32991
32983
32983
32991
32975
32983
32983
32983
32983
32983
32991
32991
32983
32983
32991
32991
32983
32983
32991
32983
32983
32991
32975
32983
32991
32991
32983
32983
32991
32983
32959
32991
32991
32983
32991
32967
32975
32983
32983
32991
32983
32983
33000
32991
32991
32975
32991
32991
32991
32975
32983
32991
32991
32983
32983
32991
32991
32983
32983
32991
32983
32983
32991
32983
32991
32983
32983
32983
32983
32991
32983
32983
32975
32967
32983
32991
32983
32975
32967
32991
32991
32975
32983
32983
32991
32975
32991
32983
32991
32983
32991
32975
32975
32983
32983
32983
32975
32983
32967
32983
32983
32983
32983
32991
32967
32975
32983
32975
32991
32991
32983
32975
32991
32967
32975
32983
32967
32975
32967
32983
32983
32983
32983
32991
32967
32975
32975
32983
32983
32983
32975
32967
32975
32975
32991
32983
32967
32991
32975
32975
32975
32967
32967
32983
32975
32983
32991
32991
32975
32975
32983
32975
32983
32983
32983
32991
32967
32983
32951
32983
32975
32975
32975
32975
32967
32975
32983
32975
32967
32975
32983
32975
32975
32983
32967
32975
32983
32967
32967
32975
32959
32975
32983
32895
32967
32967
32991
32975
32959
32983
32991
32983
32983
32975
32975
32967
32951
32975
32975
32983
32983
32975
32975
32975
32983
32975
32967
32975
32983
32967
32975
32975
32959
32983
32967
32975
32967
32959
32967
32975
32967
32967
32967
32975
32967
32967
32967
32983
32983
32975
32983
32983
32983
32975
32975
32983
32983
32983
32983
32967
32975
32975
32967
32983
32967
32967
32959
32967
32967
32975
32983
32975
32967
32967
32983
32959
32967
32967
32983
32983
32975
32975
32991
32975
32983
32983
32983
32959
32991
32975
32967
32975
32967
32967
32975
32959
32975
32967
32983
32983
32975
32983
32983
32975
32975
32967
32975
32991
32983
32991
32991
32983
32975
32959
32991
33000
32983
32983
32975
32967
32983
32983
32959
32975
32983
32983
32975
32991
32983
32975
32991
32983
32991
32983
32983
32975
32983
32975
32975
32991
32975
32983
32983
32991
32991
32967
32983
32991
32983
32975
32983
32975
32983
32991
32983
32975
32983
32991
32983
32975
32983
32983
32983
32983
