3190
3188
3187
3188
3189
3188
3189
3189
3189
3189
3190
3189
3186
3188
3190
3190
3189
3189
3191
3189
3190
3190
3192
3191
3191
3191
3187
3191
3192
3190
3189
3193
3191
3190
3191
3192
3192
3191
3192
3192
3193
3192
3191
3192
3190
3192
3192
3193
3193
3192
3191
3192
3193
3193
3194
3193
3190
3191
3194
3192
3193
3192
3194
3194
3192
3193
3192
3194
3194
3193
3193
3192
3192
3194
3193
3194
3193
3194
3194
3193
3192
3193
3194
3194
3194
3194
3193
3193
3192
3195
3193
3193
3192
3195
3193
3193
3194
3193
3194
3194
3194
3192
3194
3193
3192
3194
3193
3190
3191
3195
3194
3193
3194
3196
3194
3193
3193
3192
3192
3191
3191
3193
3194
3193
3193
3192
3193
3194
3193
3193
3193
3193
3192
3191
3192
3195
3195
3192
3193
3193
3194
3193
3192
3193
3192
3192
3192
3194
3193
3193
3194
3194
3193
3192
3193
3192
3195
3194
3191
3192
3192
3191
3194
3194
3193
3194
3193
3193
3193
3191
3193
3193
3192
3192
3194
3192
3192
3194
3192
3193
3193
3195
3194
3194
3194
3193
3193
3194
3193
3193
3194
3195
3194
3193
3193
3193
3194
3193
3195
3195
3195
3195
3192
3194
3194
3196
3192
3195
3193
3196
3194
3195
3194
3193
3194
3193
3195
3196
3195
3195
3195
3194
3194
3193
3194
3195
3195
3194
3194
3195
3195
3192
3196
3196
3193
3196
3195
3195
3194
3196
3193
3193
3195
3196
3198
3194
3196
3196
3195
3194
3195
3195
3195
3196
3195
3195
3195
3195
3195
3195
3194
3195
3195
3195
3196
3195
3196
3194
3194
3194
3195
3195
3195
3195
3193
3194
3196
3196
3195
3195
3196
3196
3195
3196
3194
3195
3196
3197
3197
3196
3192
3193
3194
3195
3192
3195
3194
3192
3196
3195
3192
3195
3198
3195
3196
3195
3194
3194
3195
3195
3194
3195
3195
3193
3194
3194
3195
3192
3194
3192
3195
3194
3194
3194
3194
3196
3195
3194
3195
3191
3195
3193
3194
3192
3195
3195
3193
3194
3196
3194
3193
3192
3193
3194
3195
3195
3194
3194
3193
3195
3195
3193
3195
3193
3195
3194
3194
3196
3194
3194
3194
3194
3195
3196
3195
3195
3193
3196
3194
3195
3194
3195
3194
3194
3195
3194
3196
3195
3195
3195
3195
3193
3195
3194
3195
3196
3193
3195
3194
3195
3195
3194
3194
3194
3196
3195
3196
3193
3194
3195
3194
3196
3196
3193
3194
3196
3195
3195
3195
3195
3197
3195
3196
3197
3194
3194
3195
3197
3196
3194
3195
3194
3196
3194
3195
3196
3195
3196
3195
3195
3196
3195
3195
3193
3195
3195
3196
3196
3195
3196
3195
3196
3196
3196
3196
3195
3197
3198
3197
3196
3195
3197
3195
3194
3192
3197
3195
3196
3197
3197
3198
3196
3194
3196
3195
3196
3196
3195
3197
3197
3196
3196
3196
3195
3197
3197
3196
3196
3196
3196
3192
3196
3196
3197
3197
3195
3196
3195
3196
3196
3195
3198
3195
3195
3193
3197
3196
3196
3194
3195
3196
3195
3195
3196
3195
3197
3196
3195
3196
3196
3195
3198
3193
3197
3194
3195
3193
3193
3197
3198
3195
3196
3195
3194
3195
3195
3192
3197
3194
3195
3195
3195
3194
3195
3194
3195
3194
3194
3196
3196
3195
3194
3195
3193
3194
3194
3196
3192
3197
3195
3196
3194
3194
3195
3194
3196
3196
3193
3196
3195
3195
3195
3196
3195
3195
3195
3195
3195
3194
3195
3194
3196
3196
3196
3196
3196
3194
3195
3193
3195
3194
3194
3194
3195
3196
3200
3195
3194
3194
3197
3196
3195
3196
3196
3196
3194
3195
3197
3196
3196
3194
3195
3196
3197
3195
3195
3197
3195
3196
3195
3196
3197
3196
3196
3196
3197
3197
3198
3196
3197
3196
3198
3196
3196
3196
3196
3197
3197
3197
3197
3197
3197
3194
3199
3196
3194
3197
3195
3197
3196
3197
3197
3197
3194
3196
3196
3197
3198
3196
3198
3196
3193
3197
3197
3197
3196
3196
3196
3198
3195
3197
3198
3198
3197
3197
3196
3197
3196
3195
3196
3197
3198
3196
3196
3198
3195
3195
3196
3194
3196
3196
3197
3196
3197
3197
3196
3197
3195
3195
3193
3195
3195
3195
3194
3196
3197
3196
3195
3195
3195
3193
3196
3195
3196
3195
3194
3194
3194
3196
3195
3195
3195
3195
3196
3196
3194
3194
3193
3194
3196
3197
3195
3196
3196
3194
3196
3194
3196
3195
3197
3194
3195
3196
3195
3195
3193
3197
3197
3193
3196
3194
3195
3196
3192
3196
3194
3195
3194
3197
3194
3196
3192
3198
3195
3196
3193
3195
3196
3197
3196
3194
3197
3196
3196
3197
3195
3195
3196
3196
3196
3197
3197
3196
3195
3195
3196
3197
3195
3194
3196
3197
3196
3196
3199
3195
3196
3196
3196
3196
3198
3197
3196
3196
3197
3196
3198
3196
3196
3196
3196
3196
3196
3196
3197
3199
3196
3196
3196
3196
3197
3197
3196
3196
3195
3197
3197
3196
3196
3197
3197
3194
3197
3197
3196
3196
3198
3196
3198
3198
3196
3198
3194
3196
3196
3197
3197
3197
3197
3196
3196
3199
3195
3195
3196
3196
3197
3196
3198
3196
3197
3198
3196
3196
3195
3198
3195
3196
3196
3194
3196
3196
3196
3196
3196
3195
3196
3195
3194
3195
3196
3197
3196
3196
3194
3196
3196
3196
3194
3195
3196
3195
3195
3194
3195
3196
3196
3195
3195
3195
3195
3196
3196
3196
3195
3192
3197
3197
3195
3196
3197
3197
3197
3195
3194
3194
3195
3196
3197
3195
3199
3196
3195
3193
3196
3196
3197
3196
3196
3195
3196
3196
3196
3197
3197
3196
3196
3195
3196
3196
3196
3195
3196
3195
3198
3197
3195
3198
3195
3195
3197
3195
3195
3196
3197
3196
3197
3196
3196
3196
3196
3197
3199
3198
3197
3198
3197
3198
3197
3196
3196
3196
3200
3196
3198
3196
3197
3197
3197
3196
3197
3195
3198
3197
3197
3197
3197
3197
3197
3198
3198
3198
3197
3197
3196
3196
3197
3195
3196
3197
3197
3195
3197
3195
3197
3197
3198
3197
3196
3198
3198
