3208
3210
3205
3209
3208
3209
3209
3209
3208
3208
3208
3210
3211
3211
3210
3211
3209
3211
3211
3210
3211
3210
3212
3210
3211
3210
3209
3211
3210
3211
3212
3211
3212
3211
3212
3212
3210
3212
3211
3212
3212
3211
3211
3212
3211
3211
3212
3211
3212
3213
3210
3210
3213
3212
3216
3213
3212
3212
3212
3213
3213
3213
3212
3212
3214
3212
3213
3212
3210
3213
3214
3214
3214
3212
3212
3213
3210
3213
3211
3212
3214
3214
3213
3216
3212
3213
3213
3214
3212
3212
3214
3214
3215
3212
3214
3213
3215
3211
3214
3216
3213
3212
3213
3214
3214
3212
3214
3213
3213
3213
3213
3213
3212
3214
3215
3213
3213
3215
3214
3214
3216
3215
3213
3214
3214
3215
3214
3215
3213
3214
3215
3213
3215
3212
3215
3215
3215
3216
3215
3214
3212
3213
3213
3214
3213
3214
3215
3214
3214
3215
3216
3214
3214
3214
3214
3217
3214
3214
3213
3214
3214
3215
3213
3214
3214
3214
3214
3214
3214
3214
3214
3215
3214
3215
3214
3214
3216
3213
3215
3216
3214
3216
3212
3214
3214
3214
3215
3215
3215
3217
3216
3216
3215
3216
3215
3214
3215
3213
3215
3216
3216
3216
3216
3216
3215
3213
3214
3213
3214
3214
3214
3214
3211
3215
3215
3215
3215
3216
3214
3214
3215
3216
3215
3215
3216
3214
3216
3216
3214
3215
3214
3217
3214
3215
3216
3216
3216
3215
3216
3216
3215
3216
3212
3216
3215
3215
3215
3217
3214
3215
3216
3214
3214
3216
3215
3214
3215
3217
3216
3217
3216
3214
3216
3217
3215
3216
3215
3214
3215
3214
3215
3215
3216
3214
3216
3216
3214
3216
3215
3214
3216
3214
3216
3214
3213
3215
3215
3216
3216
3216
3216
3217
3215
3216
3216
3216
3217
3216
3215
3215
3214
3215
3214
3217
3216
3215
3215
3216
3216
3217
3216
3215
3216
3217
3215
3216
3216
3214
3214
3216
3217
3216
3215
3214
3214
3216
3216
3220
3217
3213
3215
3217
3215
3215
3215
3216
3215
3216
3214
3215
3216
3217
3215
3216
3217
3216
3217
3215
3216
3215
3216
3215
3216
3217
3214
3216
3216
3214
3216
3217
3217
3216
3219
3215
3213
3218
3217
3216
3217
3216
3217
3217
3217
3217
3214
3217
3217
3216
3216
3214
3218
3217
3216
3216
3218
3215
3217
3217
3216
3216
3216
3214
3218
3217
3216
3217
3218
3215
3216
3217
3217
3216
3217
3217
3216
3216
3218
3214
3216
3216
3215
3212
3218
3216
3216
3215
3217
3216
3216
3218
3217
3216
3217
3216
3217
3215
3216
3217
3216
3217
3214
3218
3216
3215
3215
3218
3216
3217
3215
3216
3218
3216
3215
3217
3215
3220
3217
3215
3217
3216
3216
3216
3217
3217
3218
3218
3216
3216
3216
3214
3217
3217
3217
3217
3215
3216
3217
3218
3216
3217
3219
3214
3219
3216
3217
3217
3217
3216
3217
3217
3217
3216
3216
3216
3219
3218
3215
3217
3218
3216
3217
3217
3216
3217
3217
3218
3217
3218
3217
3216
3216
3218
3216
3216
3217
3216
3217
3217
3216
3218
3218
3217
3217
3219
3217
3217
3216
3216
3215
3217
3216
3214
3215
3217
3216
3218
3217
3216
3217
3217
3217
3216
3216
3217
3218
3216
3216
3218
3216
3217
3216
3216
3216
3215
3217
3218
3218
3216
3216
3219
3215
3216
3217
3217
3219
3217
3218
3217
3218
3217
3217
3217
3216
3220
3215
3217
3217
3216
3217
3218
3216
3216
3216
3217
3216
3215
3217
3217
3216
3217
3216
3216
3218
3216
3216
3216
3214
3217
3216
3216
3217
3216
3215
3216
3216
3218
3216
3217
3218
3217
3217
3217
3218
3216
3216
3217
3218
3216
3220
3216
3216
3217
3215
3217
3217
3217
3216
3216
3217
3218
3217
3216
3217
3217
3218
3217
3218
3216
3215
3216
3218
3217
3218
3217
3216
3216
3217
3217
3216
3217
3215
3217
3217
3218
3217
3216
3218
3215
3218
3219
3217
3217
3215
3217
3217
3216
3218
3215
3217
3218
3217
3215
3217
3218
3218
3217
3217
3217
3217
3217
3219
3217
3216
3218
3217
3217
3217
3217
3216
3219
3216
3217
3216
3218
3217
3217
3217
3216
3217
3217
3217
3219
3216
3217
3218
3217
3217
3217
3218
3218
3214
3218
3217
3217
3217
3217
3218
3219
3216
3215
3218
3220
3217
3218
3217
3216
3219
3218
3219
3217
3218
3219
3220
3218
3217
3217
3215
3218
3218
3218
3217
3218
3217
3218
3215
3217
3217
3216
3217
3218
3219
3217
3217
3215
3216
3217
3217
3218
3218
3217
3216
3217
3218
3216
3217
3219
3218
3217
3218
3215
3217
3218
3215
3218
3217
3218
3218
3216
3215
3218
3217
3217
3213
3217
3217
3216
3218
3216
3216
3215
3217
3217
3215
3217
3219
3218
3218
3218
3218
3217
3216
3216
3216
3215
3218
3218
3219
3217
3216
3215
3218
3220
3218
3218
3218
3217
3217
3217
3217
3217
3217
3218
3217
3215
3217
3217
3217
3217
3216
3215
3217
3218
3217
3217
3217
3217
3215
3217
3217
3217
3217
3217
3217
3217
3218
3217
3216
3217
3217
3218
3217
3217
3216
3216
3218
3216
3217
3218
3218
3217
3218
3218
3219
3217
3218
3216
3216
3217
3216
3216
3216
3219
3217
3216
3217
3215
3217
3216
3215
3218
3218
3216
3216
3217
3218
3217
3215
3218
3216
3216
3218
3217
3217
3216
3219
3215
3217
3217
3216
3216
3217
3216
3217
3218
3217
3219
3217
3217
3217
3217
3215
3216
3215
3219
3216
3215
3217
3217
3217
3217
3218
3218
3219
3217
3217
3218
3216
3217
3217
3218
3215
3215
3217
3219
3216
3215
3215
3216
3216
3215
3218
3216
3216
3216
3218
3217
3217
3217
3216
3218
3218
3216
3217
3216
3215
3218
3217
3216
3220
3215
3217
3216
3216
3218
3217
3217
3217
3218
3216
3216
3216
3217
3218
3217
3218
3217
3218
3215
3217
3217
3218
3216
3218
3215
3218
3217
3215
3217
3216
3218
3217
3217
3218
3218
3219
3218
3218
3217
3218
3216
3218
3216
3217
3218
3216
3216
3216
3215
3217
3216
