3019
3021
3021
3019
3021
3020
3021
3022
3020
3021
3022
3022
3021
3021
3023
3021
3021
3023
3024
3020
3021
3021
3025
3020
3021
3022
3024
3022
3021
3023
3024
3022
3023
3021
3022
3021
3022
3022
3023
3020
3024
3021
3021
3023
3024
3024
3023
3023
3022
3020
3022
3022
3022
3023
3022
3022
3021
3022
3021
3022
3023
3020
3019
3020
3022
3023
3021
3020
3022
3023
3020
3020
3023
3020
3020
3021
3022
3022
3019
3021
3022
3022
3021
3022
3022
3021
3020
3023
3022
3020
3021
3023
3019
3022
3020
3020
3021
3023
3020
3021
3018
3021
3021
3020
3021
3022
3023
3020
3021
3022
3022
3019
3022
3021
3020
3021
3020
3023
3021
3020
3022
3022
3021
3021
3021
3022
3019
3022
3018
3020
3021
3022
3021
3022
3022
3020
3020
3019
3022
3021
3023
3019
3022
3020
3021
3022
3021
3020
3020
3020
3021
3022
3021
3020
3023
3020
3022
3019
3020
3023
3022
3022
3021
3020
3021
3021
3020
3022
3021
3019
3019
3021
3022
3019
3021
3021
3022
3021
3021
3020
3021
3021
3020
3021
3021
3022
3020
3022
3022
3023
3021
3021
3020
3019
3020
3021
3021
3022
3022
3021
3021
3020
3020
3021
3021
3022
3023
3023
3022
3022
3023
3020
3021
3020
3022
3019
3020
3022
3021
3024
3022
3021
3020
3018
3022
3021
3023
3025
3022
3020
3021
3021
3022
3022
3019
3022
3022
3022
3021
3020
3022
3021
3022
3020
3022
3022
3025
3021
3023
3022
3020
3022
3022
3019
3022
3021
3022
3022
3021
3022
3021
3022
3021
3020
3023
3023
3021
3021
3023
3023
3021
3024
3023
3022
3023
3021
3021
3020
3022
3020
3021
3022
3023
3022
3020
3023
3021
3024
3022
3021
3022
3023
3022
3022
3020
3022
3021
3022
3022
3022
3021
3022
3020
3023
3023
3021
3024
3022
3023
3022
3023
3022
3021
3022
3019
3022
3023
3020
3021
3023
3022
3022
3020
3022
3022
3022
3023
3022
3021
3022
3020
3023
3022
3022
3020
3022
3022
3021
3023
3024
3023
3024
3023
3022
3023
3022
3022
3021
3022
3023
3021
3020
3022
3021
3021
3022
3022
3022
3022
3022
3022
3021
3024
3023
3020
3021
3021
3020
3023
3023
3019
3022
3023
3020
3022
3022
3022
3023
3024
3022
3022
3022
3023
3022
3022
3020
3022
3023
3023
3020
3021
3022
3023
3021
3022
3021
3021
3019
3024
3023
3022
3023
3022
3022
3023
3021
3021
3020
3022
3019
3021
3020
3023
3021
3021
3021
3021
3020
3022
3021
3021
3021
3021
3023
3020
3021
3019
3022
3022
3020
3023
3020
3022
3019
3019
3020
3021
3018
3018
3021
3022
3023
3021
3020
3020
3021
3021
3022
3017
3022
3020
3019
3019
3017
3021
3020
3019
3020
3019
3019
3021
3019
3020
3020
3023
3019
3020
3020
3019
3020
3019
3020
3017
3019
3019
3020
3021
3021
3021
3020
3020
3020
3021
3020
3020
3021
3018
3019
3019
3021
3021
3021
3020
3019
3020
3021
3021
3020
3020
3019
3022
3021
3020
3019
3020
3020
3019
3018
3022
3019
3019
3020
3021
3019
3018
3020
3019
3019
3018
3019
3019
3019
3021
3020
3022
3019
3019
3021
3020
3021
3020
3020
3020
3020
3020
3024
3020
3022
3023
3019
3020
3021
3019
3020
3021
3020
3021
3020
3021
3020
3022
3020
3018
3022
3023
3021
3020
3021
3022
3023
3020
3024
3019
3021
3023
3020
3024
3022
3022
3021
3022
3022
3021
3024
3022
3021
3021
3021
3024
3024
3022
3020
3022
3021
3021
3023
3022
3019
3021
3021
3022
3020
3018
3021
3024
3022
3023
3022
3023
3021
3020
3024
3022
3021
3021
3022
3022
3020
3021
3023
3021
3023
3021
3022
3023
3021
3022
3020
3022
3020
3021
3021
3021
3020
3020
3021
3020
3021
3017
3020
3021
3022
3020
3022
3019
3022
3021
3022
3020
3019
3020
3022
3020
3021
3019
3020
3020
3017
3020
3020
3022
3021
3019
3022
3021
3021
3021
3021
3020
3019
3021
3021
3019
3019
3017
3020
3019
3022
3022
3017
3019
3020
3019
3019
3019
3020
3020
3019
3020
3019
3018
3019
3021
3022
3018
3019
3019
3019
3021
3020
3022
3019
3021
3020
3019
3018
3020
3020
3021
3019
3020
3019
3021
3018
3021
3022
3020
3021
3019
3019
3021
3021
3019
3019
3020
3019
3021
3021
3020
3021
3019
3020
3018
3019
3020
3019
3019
3021
3020
3020
3020
3022
3022
3017
3018
3021
3021
3020
3020
3021
3018
3022
3021
3022
3020
3022
3020
3020
3020
3020
3019
3021
3020
3021
3019
3021
3023
3023
3022
3021
3019
3021
3019
3021
3020
3020
3021
3020
3022
3020
3021
3023
3022
3022
3021
3023
3020
3021
3019
3020
3023
3021
3021
3023
3021
3022
3019
3022
3021
3022
3021
3021
3023
3021
3023
3022
3020
3022
3020
3024
3021
3023
3021
3019
3021
3019
3022
3021
3022
3022
3021
3023
3020
3021
3020
3020
3024
3019
3020
3020
3024
3022
3019
3019
3021
3023
3022
3023
3022
3021
3020
3019
3021
3020
3020
3021
3019
3021
3022
3021
3020
3019
3019
3021
3021
3022
3020
3021
3022
3020
3019
3022
3020
3019
3020
3021
3020
3021
3020
3023
3019
3016
3020
3022
3020
3020
3021
3020
3020
3019
3019
3022
3019
3018
3020
3021
3019
3020
3018
3021
3017
3020
3016
3019
3019
3019
3020
3019
3019
3020
3019
3019
3017
3020
3019
3017
3019
3020
3020
3018
3019
3017
3019
3022
3020
3020
3019
3019
3019
3020
3017
3019
3020
3019
3020
3020
3019
3019
3019
3020
3019
3015
3018
3019
3020
3019
3018
3018
3019
3019
3018
3019
3020
3019
3018
3019
3020
3019
3020
3020
3020
3023
3018
3022
3019
3019
3021
3022
3019
3021
3021
3021
3020
3020
3019
3021
3021
3022
3020
3019
3019
3020
3023
3018
3018
3022
3019
3022
3022
3019
3020
3020
3021
3018
3021
3021
3020
3021
3021
3020
3019
3021
3022
3020
3022
3020
3021
3020
3020
3019
3023
3019
3020
3022
3021
3020
3021
3021
3024
3021
