2984
2985
2986
2985
2984
2985
2985
2982
2986
2986
2985
2984
2984
2985
2984
2984
2984
2985
2984
2985
2985
2984
2984
2984
2984
2983
2985
2986
2985
2985
2986
2986
2986
2984
2985
2985
2986
2985
2985
2984
2985
2984
2984
2985
2984
2983
2984
2984
2984
2985
2984
2985
2984
2984
2986
2985
2984
2983
2986
2985
2985
2984
2985
2984
2985
2986
2984
2985
2985
2983
2985
2987
2984
2984
2984
2984
2983
2982
2984
2983
2983
2984
2984
2983
2984
2983
2985
2983
2982
2983
2984
2986
2984
2984
2984
2983
2990
2983
2985
2985
2984
2983
2982
2983
2983
2983
2984
2983
2983
2982
2983
2984
2983
2983
2984
2984
2984
2983
2983
2984
2982
2983
2984
2982
2983
2981
2984
2983
2984
2983
2983
2983
2983
2982
2984
2981
2982
2983
2981
2983
2983
2984
2982
2982
2982
2983
2982
2983
2982
2983
2982
2982
2983
2982
2981
2982
2981
2982
2981
2983
2983
2983
2983
2982
2982
2983
2983
2983
2984
2983
2981
2983
2982
2984
2981
2983
2981
2984
2982
2983
2981
2982
2982
2980
2980
2982
2983
2982
2983
2984
2981
2982
2981
2983
2982
2982
2982
2982
2981
2982
2983
2982
2982
2982
2981
2981
2982
2983
2982
2983
2983
2982
2981
2984
2982
2980
2982
2983
2981
2982
2983
2983
2982
2982
2983
2982
2982
2984
2983
2982
2984
2981
2981
2983
2982
2982
2983
2983
2981
2980
2983
2981
2981
2981
2982
2982
2982
2981
2983
2982
2980
2981
2981
2982
2983
2982
2979
2981
2982
2982
2983
2982
2983
2981
2980
2982
2982
2981
2982
2982
2982
2982
2981
2982
2979
2983
2982
2984
2982
2982
2980
2981
2983
2981
2982
2981
2981
2981
2982
2983
2981
2982
2980
2982
2982
2982
2982
2981
2981
2982
2983
2982
2983
2981
2981
2982
2983
2982
2981
2983
2983
2981
2983
2981
2983
2981
2982
2981
2982
2985
2982
2982
2982
2984
2980
2982
2980
2982
2983
2982
2982
2983
2982
2984
2982
2983
2984
2982
2981
2983
2982
2983
2983
2982
2982
2983
2983
2983
2981
2981
2982
2981
2983
2983
2984
2982
2982
2982
2983
2981
2983
2981
2982
2982
2983
2981
2982
2982
2980
2984
2983
2983
2981
2983
2982
2980
2983
2984
2982
2983
2983
2983
2981
2984
2984
2981
2983
2983
2983
2982
2980
2983
2982
2983
2981
2983
2982
2983
2983
2984
2983
2983
2981
2981
2982
2982
2983
2983
2984
2982
2982
2981
2983
2982
2983
2982
2985
2983
2983
2981
2984
2983
2984
2983
2982
2982
2983
2984
2982
2982
2983
2981
2983
2982
2982
2983
2983
2983
2983
2983
2984
2984
2982
2982
2982
2983
2983
2983
2983
2982
2983
2983
2982
2984
2980
2983
2983
2982
2983
2980
2982
2983
2982
2983
2982
2983
2983
2982
2981
2984
2984
2983
2983
2982
2982
2983
2983
2982
2983
2982
2982
2982
2982
2982
2980
2984
2980
2983
2981
2982
2983
2982
2982
2982
2982
2982
2983
2981
2982
2986
2982
2982
2982
2982
2982
2983
2981
2983
2981
2981
2981
2981
2981
2982
2981
2983
2982
2982
2981
2982
2982
2983
2982
2983
2980
2982
2982
2978
2981
2982
2983
2980
2983
2981
2982
2981
2982
2981
2981
2981
2980
2981
2981
2980
2980
2980
2982
2980
2982
2982
2982
2978
2982
2979
2981
2982
2982
2983
2983
2981
2981
2981
2982
2981
2982
2980
2980
2983
2982
2982
2981
2981
2981
2976
2982
2981
2980
2981
2980
2981
2980
2982
2983
2980
2980
2981
2982
2983
2982
2983
2980
2981
2980
2982
2979
2981
2980
2981
2980
2979
2981
2980
2981
2980
2981
2980
2981
2981
2982
2981
2982
2981
2981
2982
2982
2981
2982
2978
2981
2980
2981
2982
2981
2981
2978
2981
2978
2981
2981
2980
2981
2981
2980
2981
2982
2982
2981
2981
2982
2981
2980
2981
2980
2979
2982
2982
2978
2981
2980
2980
2981
2979
2980
2980
2981
2980
2981
2982
2980
2982
2981
2980
2983
2980
2982
2980
2981
2981
2980
2982
2980
2981
2981
2981
2980
2982
2981
2983
2982
2981
2982
2980
2982
2982
2983
2980
2982
2982
2982
2981
2981
2982
2982
2978
2982
2981
2980
2981
2981
2981
2981
2981
2980
2980
2980
2981
2980
2982
2981
2981
2981
2981
2981
2982
2982
2981
2980
2982
2980
2982
2982
2981
2981
2981
2982
2982
2981
2981
2981
2983
2980
2981
2981
2982
2984
2983
2982
2981
2982
2981
2982
2977
2983
2981
2983
2981
2982
2982
2985
2982
2981
2982
2982
2981
2981
2982
2981
2982
2979
2980
2981
2981
2981
2981
2982
2980
2981
2981
2981
2981
2982
2981
2983
2982
2981
2981
2981
2982
2983
2982
2980
2980
2982
2982
2981
2982
2982
2981
2980
2983
2981
2982
2983
2981
2981
2981
2980
2985
2982
2982
2982
2982
2982
2982
2981
2981
2981
2983
2982
2983
2982
2981
2983
2983
2980
2980
2981
2981
2982
2982
2981
2983
2979
2981
2981
2981
2982
2981
2981
2982
2982
2980
2981
2981
2981
2982
2982
2982
2981
2981
2980
2980
2982
2983
2982
2983
2981
2984
2983
2983
2982
2983
2981
2981
2982
2981
2981
2982
2982
2981
2984
2981
2983
2982
2982
2981
2982
2982
2982
2982
2981
2981
2981
2982
2982
2982
2982
2982
2983
2982
2981
2982
2982
2981
2982
2982
2982
2982
2982
2983
2982
2981
2982
2982
2981
2980
2981
2982
2981
2982
2980
2981
2982
2982
2981
2982
2982
2982
2981
2983
2982
2982
2982
2982
2982
2980
2983
2983
2980
2982
2981
2982
2983
2983
2981
2981
2982
2981
2981
2980
2980
2982
2982
2985
2982
2982
2983
2983
2981
2982
2982
2982
2981
2982
2981
2981
2982
2982
2982
2983
2982
2981
2982
2984
2983
2983
2983
2982
2981
2982
2982
2981
2981
2981
2985
2982
2980
2982
2981
2982
2981
2980
2983
2982
2982
2982
2981
2980
2982
2981
2982
2982
2981
2982
2982
2981
2981
2980
2983
2982
2981
2980
2981
2981
2981
2981
2982
2983
2982
2982
