3212
3215
3215
3215
3215
3217
3215
3218
3213
3216
3216
3215
3216
3216
3216
3215
3215
3217
3215
3216
3217
3216
3216
3217
3216
3216
3218
3217
3218
3216
3211
3218
3217
3217
3218
3219
3216
3216
3219
3217
3216
3217
3218
3217
3219
3218
3217
3217
3216
3216
3219
3217
3217
3218
3219
3218
3218
3218
3218
3219
3218
3219
3219
3217
3220
3219
3219
3217
3220
3218
3218
3219
3218
3218
3217
3219
3219
3218
3218
3220
3219
3219
3219
3219
3218
3220
3219
3220
3218
3219
3220
3217
3219
3218
3220
3220
3220
3217
3218
3219
3219
3219
3220
3220
3219
3219
3220
3220
3217
3218
3218
3219
3219
3219
3219
3219
3220
3222
3217
3219
3220
3220
3219
3219
3218
3220
3219
3219
3219
3219
3219
3219
3220
3220
3219
3220
3218
3220
3221
3221
3220
3217
3220
3219
3221
3219
3221
3219
3219
3220
3221
3219
3219
3218
3219
3220
3220
3219
3220
3221
3220
3219
3220
3221
3219
3221
3219
3219
3220
3221
3219
3220
3220
3221
3220
3219
3221
3219
3219
3220
3222
3220
3220
3221
3220
3221
3221
3219
3220
3221
3218
3219
3219
3222
3219
3220
3220
3221
3221
3220
3220
3222
3220
3220
3219
3220
3220
3220
3219
3219
3220
3220
3222
3221
3220
3220
3221
3221
3223
3222
3220
3221
3219
3220
3222
3220
3219
3220
3221
3221
3220
3222
3220
3221
3221
3221
3221
3219
3221
3218
3222
3220
3221
3221
3222
3220
3221
3221
3219
3219
3219
3220
3220
3222
3221
3219
3220
3220
3222
3220
3220
3220
3220
3221
3221
3220
3220
3222
3220
3222
3221
3220
3219
3220
3220
3221
3221
3220
3223
3222
3220
3220
3221
3221
3224
3220
3221
3220
3222
3221
3221
3220
3222
3221
3221
3221
3220
3222
3221
3223
3220
3219
3220
3220
3222
3221
3220
3222
3221
3220
3219
3220
3221
3220
3220
3221
3221
3222
3221
3221
3220
3221
3219
3219
3221
3222
3220
3221
3221
3223
3220
3221
3221
3220
3222
3222
3219
3221
3221
3221
3221
3221
3221
3221
3220
3221
3220
3221
3221
3221
3222
3222
3221
3221
3219
3221
3221
3220
3216
3220
3222
3221
3221
3222
3221
3222
3223
3222
3219
3221
3220
3220
3220
3221
3220
3220
3221
3220
3221
3221
3220
3222
3220
3222
3221
3221
3219
3221
3221
3222
3222
3221
3221
3218
3222
3221
3222
3219
3221
3221
3219
3222
3222
3220
3219
3221
3221
3220
3221
3220
3223
3220
3222
3222
3220
3222
3220
3221
3220
3219
3220
3223
3220
3220
3221
3222
3222
3218
3221
3221
3221
3221
3221
3221
3222
3221
3222
3220
3223
3221
3220
3221
3220
3222
3221
3220
3220
3222
3221
3222
3223
3220
3220
3220
3222
3222
3219
3220
3223
3222
3219
3221
3222
3222
3222
3220
3221
3221
3223
3221
3221
3220
3220
3221
3222
3222
3220
3222
3222
3222
3221
3219
3220
3222
3223
3222
3222
3220
3220
3222
3220
3221
3220
3220
3222
3220
3222
3221
3222
3221
3220
3221
3218
3221
3222
3221
3223
3222
3221
3221
3221
3221
3221
3222
3222
3223
3222
3220
3220
3220
3221
3222
3220
3223
3222
3220
3221
3221
3220
3221
3221
3223
3221
3220
3219
3219
3222
3219
3220
3222
3221
3221
3222
3224
3221
3222
3221
3221
3222
3221
3221
3221
3221
3221
3223
3221
3221
3222
3221
3220
3221
3221
3222
3222
3223
3221
3220
3223
3224
3222
3222
3221
3220
3224
3221
3222
3219
3221
3222
3221
3220
3221
3222
3222
3221
3223
3221
3225
3224
3221
3221
3220
3222
3221
3222
3222
3221
3222
3221
3221
3223
3222
3220
3220
3222
3222
3222
3221
3222
3222
3223
3222
3223
3222
3221
3221
3221
3221
3221
3221
3222
3221
3222
3222
3222
3222
3222
3223
3222
3222
3223
3222
3221
3219
3222
3221
3222
3221
3222
3222
3222
3222
3221
3221
3222
3221
3223
3221
3223
3222
3221
3221
3222
3222
3222
3223
3221
3222
3222
3221
3222
3222
3225
3223
3222
3223
3221
3221
3221
3221
3221
3221
3220
3220
3221
3221
3222
3222
3222
3221
3222
3223
3223
3222
3223
3222
3220
3220
3223
3221
3220
3221
3223
3222
3220
3222
3224
3222
3222
3220
3222
3223
3220
3222
3224
3223
3221
3222
3222
3221
3220
3220
3219
3222
3222
3223
3222
3222
3222
3222
3222
3222
3223
3222
3221
3222
3222
3222
3222
3222
3222
3222
3223
3222
3222
3222
3222
3221
3222
3221
3221
3222
3221
3221
3221
3220
3222
3222
3223
3218
3224
3221
3224
3222
3222
3221
3223
3222
3222
3221
3219
3224
3222
3220
3221
3225
3219
3223
3223
3223
3222
3223
3223
3223
3220
3224
3223
3221
3221
3222
3221
3223
3224
3223
3220
3221
3222
3222
3221
3222
3222
3223
3222
3220
3221
3223
3221
3224
3225
3223
3224
3221
3223
3222
3221
3222
3220
3222
3222
3223
3222
3223
3222
3221
3222
3221
3222
3221
3224
3221
3224
3221
3220
3223
3223
3222
3222
3224
3220
3224
3222
3221
3221
3224
3222
3223
3223
3222
3220
3222
3222
3223
3221
3223
3222
3225
3222
3222
3224
3222
3222
3222
3222
3222
3222
3221
3222
3223
3223
3223
3223
3223
3221
3222
3222
3222
3225
3222
3224
3222
3222
3224
3223
3222
3223
3224
3222
3222
3221
3222
3222
3222
3220
3222
3224
3223
3222
3222
3221
3222
3223
3221
3221
3222
3221
3222
3222
3223
3222
3221
3223
3223
3222
3221
3222
3222
3222
3224
3222
3221
3223
3221
3222
3222
3221
3221
3221
3221
3222
3222
3221
3220
3220
3222
3221
3222
3221
3222
3221
3223
3222
3221
3223
3221
3222
3222
3220
3223
3221
3223
3221
3223
3219
3222
3222
3221
3221
3221
3223
3222
3222
3222
3221
3222
3220
3222
3222
3222
3221
3222
3221
3224
3222
3221
3219
3223
3222
3226
3221
3221
3222
3222
3221
3223
3223
3222
3222
3220
3222
3220
3223
3221
3220
3222
3221
3221
3222
3222
3221
3222
3221
3220
3222
3226
3223
3223
3222
3220
3221
3221
