3217
3218
3217
3216
3217
3218
3218
3218
3218
3218
3219
3217
3218
3218
3217
3220
3218
3218
3218
3219
3219
3219
3220
3218
3221
3220
3217
3218
3217
3219
3219
3219
3219
3219
3219
3220
3219
3219
3219
3219
3219
3220
3219
3219
3220
3221
3219
3220
3221
3220
3221
3222
3221
3218
3220
3221
3221
3219
3217
3220
3220
3221
3219
3220
3220
3221
3222
3219
3220
3221
3221
3221
3221
3219
3220
3222
3222
3220
3220
3222
3220
3222
3221
3222
3220
3221
3220
3221
3221
3219
3220
3220
3223
3220
3220
3220
3221
3221
3222
3221
3221
3220
3221
3222
3222
3223
3219
3218
3222
3221
3220
3218
3219
3221
3221
3221
3221
3221
3221
3221
3221
3220
3220
3220
3221
3221
3223
3222
3221
3221
3220
3221
3222
3220
3221
3221
3221
3223
3220
3221
3221
3220
3221
3222
3221
3221
3220
3223
3222
3220
3220
3222
3226
3220
3223
3219
3220
3221
3220
3220
3219
3221
3221
3221
3220
3220
3220
3220
3223
3220
3222
3221
3221
3222
3220
3219
3220
3222
3220
3220
3221
3219
3220
3219
3219
3220
3219
3219
3220
3219
3219
3220
3221
3220
3222
3221
3220
3222
3221
3220
3219
3220
3220
3221
3221
3219
3219
3220
3220
3220
3220
3219
3219
3220
3220
3220
3221
3219
3219
3217
3222
3219
3220
3220
3222
3221
3221
3220
3219
3221
3219
3221
3221
3220
3219
3220
3220
3219
3219
3220
3219
3220
3220
3222
3220
3221
3220
3219
3220
3219
3220
3220
3217
3220
3220
3220
3220
3220
3219
3219
3220
3219
3220
3220
3220
3219
3218
3219
3219
3219
3220
3220
3221
3221
3218
3221
3219
3220
3220
3220
3220
3219
3220
3221
3218
3220
3221
3221
3223
3218
3219
3219
3220
3220
3218
3220
3220
3219
3221
3220
3219
3221
3218
3217
3220
3218
3219
3220
3222
3221
3219
3221
3220
3222
3219
3220
3221
3222
3219
3221
3218
3221
3219
3219
3220
3218
3220
3221
3221
3220
3219
3221
3221
3221
3221
3221
3219
3222
3219
3222
3219
3221
3218
3219
3220
3222
3221
3220
3220
3220
3219
3221
3222
3222
3221
3222
3219
3221
3221
3222
3219
3220
3220
3220
3223
3222
3222
3221
3223
3221
3219
3220
3221
3223
3222
3221
3220
3222
3221
3221
3221
3222
3221
3221
3219
3220
3221
3222
3221
3222
3220
3221
3221
3220
3221
3219
3224
3221
3220
3222
3222
3220
3221
3222
3222
3222
3220
3221
3221
3218
3221
3222
3221
3222
3221
3223
3221
3220
3220
3220
3221
3220
3220
3220
3222
3221
3222
3221
3223
3222
3219
3221
3221
3221
3220
3220
3221
3221
3222
3222
3221
3220
3222
3220
3219
3221
3222
3222
3219
3219
3220
3221
3221
3222
3219
3221
3221
3221
3220
3222
3223
3221
3220
3219
3220
3221
3221
3222
3223
3220
3221
3222
3219
3218
3220
3220
3222
3224
3221
3220
3220
3221
3217
3221
3221
3220
3220
3221
3219
3221
3219
3220
3219
3220
3220
3221
3220
3219
3220
3218
3217
3220
3220
3219
3220
3219
3220
3219
3218
3218
3220
3218
3219
3220
3220
3219
3219
3218
3221
3219
3219
3220
3220
3219
3221
3220
3218
3219
3220
3220
3221
3220
3220
3220
3219
3220
3222
3220
3219
3219
3219
3220
3220
3220
3220
3220
3221
3219
3219
3220
3221
3220
3220
3218
3217
3220
3218
3222
3220
3219
3220
3219
3220
3219
3221
3218
3219
3218
3220
3219
3220
3219
3219
3219
3218
3220
3219
3219
3219
3220
3219
3221
3220
3220
3219
3218
3220
3219
3220
3220
3219
3218
3219
3220
3220
3220
3220
3218
3220
3221
3220
3219
3220
3219
3219
3220
3220
3221
3219
3221
3220
3220
3219
3220
3221
3220
3220
3220
3220
3222
3219
3220
3221
3221
3222
3219
3220
3219
3220
3222
3219
3220
3221
3220
3220
3220
3221
3220
3221
3221
3222
3219
3221
3221
3222
3221
3220
3219
3219
3223
3220
3222
3221
3220
3221
3220
3221
3220
3220
3222
3220
3222
3220
3220
3220
3221
3220
3221
3221
3221
3221
3221
3221
3220
3221
3221
3221
3219
3221
3221
3222
3221
3217
3220
3221
3220
3221
3221
3221
3219
3221
3221
3221
3221
3221
3222
3220
3220
3220
3220
3222
3220
3221
3221
3221
3220
3222
3221
3221
3221
3221
3220
3221
3219
3220
3222
3220
3220
3222
3220
3219
3220
3221
3219
3221
3220
3221
3220
3220
3221
3219
3221
3220
3219
3218
3218
3222
3221
3222
3222
3222
3222
3219
3220
3221
3220
3221
3220
3221
3220
3220
3221
3219
3221
3222
3221
3218
3219
3221
3219
3221
3222
3219
3219
3220
3222
3221
3220
3220
3219
3220
3219
3220
3220
3219
3219
3219
3220
3219
3219
3221
3221
3220
3221
3218
3219
3219
3219
3219
3222
3221
3220
3218
3219
3220
3219
3221
3220
3219
3219
3219
3219
3218
3219
3220
3218
3219
3218
3220
3220
3219
3219
3222
3220
3219
3220
3219
3219
3218
3220
3220
3220
3217
3220
3219
3219
3219
3220
3219
3218
3221
3220
3219
3218
3219
3218
3219
3219
3216
3219
3218
3220
3222
3220
3220
3220
3217
3219
3220
3219
3221
3221
3220
3220
3220
3220
3219
3219
3219
3219
3219
3219
3220
3221
3221
3220
3219
3222
3221
3220
3220
3219
3219
3220
3221
3222
3219
3220
3219
3220
3218
3220
3221
3220
3220
3220
3220
3223
3221
3221
3219
3220
3221
3221
3222
3219
3220
3219
3221
3222
3220
3221
3221
3221
3218
3220
3220
3221
3221
3220
3220
3222
3220
3221
3219
3221
3221
3221
3221
3220
3222
3221
3220
3220
3220
3222
3220
3220
3221
3222
3221
3221
3222
3222
3220
3220
3218
3221
3220
3220
3221
3220
3221
3221
3220
3221
3220
3219
3221
3220
3220
3219
3220
3220
3221
3218
3221
3222
3218
3220
3220
3220
3221
3220
3219
3218
3219
3218
3220
3220
3219
3221
3220
3219
3216
3221
3220
3220
3219
3220
3219
3219
3218
3219
3220
3220
3218
3219
3220
3219
3218
3219
3219
3218
3220
3220
3219
3220
3219
3219
